{
  "write_ts": "2022-09-29T10:01:55.284Z",
  "players": [
    {
      "name": "Gayà",
      "player_id": 211688,
      "position": "LB",
      "rarity": "rare",
      "version": "gold",
      "rating": 82,
      "count": 8
    },
    {
      "name": "Yeray",
      "player_id": 227950,
      "position": "CB",
      "rarity": "common",
      "version": "gold",
      "rating": 80,
      "count": 7
    },
    {
      "name": "Dani Rodríguez",
      "player_id": 198451,
      "position": "LM",
      "rarity": "common",
      "version": "gold",
      "rating": 76,
      "count": 6
    },
    {
      "name": "Catena",
      "player_id": 243976,
      "position": "CB",
      "rarity": "common",
      "version": "gold",
      "rating": 76,
      "count": 6
    },
    {
      "name": "Álex Remiro",
      "player_id": 227127,
      "position": "GK",
      "rarity": "rare",
      "version": "gold",
      "rating": 82,
      "count": 5
    },
    {
      "name": "Nico González",
      "player_id": 255069,
      "position": "CM",
      "rarity": "common",
      "version": "gold",
      "rating": 75,
      "count": 5
    },
    {
      "name": "Shelvey",
      "player_id": 189165,
      "position": "CM",
      "rarity": "common",
      "version": "gold",
      "rating": 77,
      "count": 5
    },
    {
      "name": "Koke",
      "player_id": 193747,
      "position": "CM",
      "rarity": "rare",
      "version": "gold",
      "rating": 83,
      "count": 5
    },
    {
      "name": "Vanaken",
      "player_id": 200155,
      "position": "CM",
      "rarity": "common",
      "version": "gold",
      "rating": 80,
      "count": 5
    },
    {
      "name": "Yeremy Pino",
      "player_id": 259377,
      "position": "RM",
      "rarity": "common",
      "version": "gold",
      "rating": 79,
      "count": 5
    },
    {
      "name": "Óscar",
      "player_id": 239335,
      "position": "CM",
      "rarity": "common",
      "version": "gold",
      "rating": 76,
      "count": 5
    },
    {
      "name": "Pepê",
      "player_id": 238896,
      "position": "LM",
      "rarity": "common",
      "version": "gold",
      "rating": 77,
      "count": 5
    },
    {
      "name": "Diego Llorente",
      "player_id": 212602,
      "position": "CB",
      "rarity": "common",
      "version": "gold",
      "rating": 76,
      "count": 4
    },
    {
      "name": "Baumgartl",
      "player_id": 223641,
      "position": "CB",
      "rarity": "common",
      "version": "gold",
      "rating": 76,
      "count": 4
    },
    {
      "name": "Lekue",
      "player_id": 225523,
      "position": "RB",
      "rarity": "common",
      "version": "gold",
      "rating": 75,
      "count": 4
    },
    {
      "name": "Wilson Manafá",
      "player_id": 238857,
      "position": "RB",
      "rarity": "common",
      "version": "gold",
      "rating": 75,
      "count": 4
    },
    {
      "name": "Pieper",
      "player_id": 246836,
      "position": "CB",
      "rarity": "common",
      "version": "gold",
      "rating": 75,
      "count": 4
    },
    {
      "name": "Jones",
      "player_id": 242434,
      "position": "CM",
      "rarity": "common",
      "version": "gold",
      "rating": 76,
      "count": 4
    },
    {
      "name": "Joan Jordán",
      "player_id": 224309,
      "position": "CM",
      "rarity": "common",
      "version": "gold",
      "rating": 80,
      "count": 4
    },
    {
      "name": "Dunk",
      "player_id": 199915,
      "position": "CB",
      "rarity": "common",
      "version": "gold",
      "rating": 79,
      "count": 4
    },
    {
      "name": "Candreva",
      "player_id": 173221,
      "position": "RM",
      "rarity": "common",
      "version": "gold",
      "rating": 80,
      "count": 4
    },
    {
      "name": "Unai Núñez",
      "player_id": 240900,
      "position": "CB",
      "rarity": "common",
      "version": "gold",
      "rating": 79,
      "count": 4
    },
    {
      "name": "Cash",
      "player_id": 227174,
      "position": "RB",
      "rarity": "common",
      "version": "gold",
      "rating": 79,
      "count": 4
    },
    {
      "name": "Cucurella",
      "player_id": 239231,
      "position": "LB",
      "rarity": "common",
      "version": "gold",
      "rating": 81,
      "count": 4
    },
    {
      "name": "Berardi",
      "player_id": 210935,
      "position": "RM",
      "rarity": "rare",
      "version": "gold",
      "rating": 84,
      "count": 4
    },
    {
      "name": "Arthur",
      "player_id": 230658,
      "position": "CM",
      "rarity": "common",
      "version": "gold",
      "rating": 80,
      "count": 4
    },
    {
      "name": "Freuler",
      "player_id": 202024,
      "position": "CM",
      "rarity": "common",
      "version": "gold",
      "rating": 80,
      "count": 4
    },
    {
      "name": "Brais Méndez",
      "player_id": 235944,
      "position": "RM",
      "rarity": "common",
      "version": "gold",
      "rating": 77,
      "count": 4
    },
    {
      "name": "Smith Rowe",
      "player_id": 240273,
      "position": "LM",
      "rarity": "common",
      "version": "gold",
      "rating": 80,
      "count": 4
    },
    {
      "name": "Lucas Pérez",
      "player_id": 199354,
      "position": "ST",
      "rarity": "common",
      "version": "gold",
      "rating": 78,
      "count": 3
    },
    {
      "name": "Botman",
      "player_id": 251809,
      "position": "CB",
      "rarity": "common",
      "version": "gold",
      "rating": 80,
      "count": 3
    },
    {
      "name": "Wilson",
      "player_id": 220710,
      "position": "RM",
      "rarity": "common",
      "version": "gold",
      "rating": 76,
      "count": 3
    },
    {
      "name": "Weigl",
      "player_id": 222028,
      "position": "CM",
      "rarity": "common",
      "version": "gold",
      "rating": 79,
      "count": 3
    },
    {
      "name": "Wendell",
      "player_id": 216466,
      "position": "LB",
      "rarity": "common",
      "version": "gold",
      "rating": 75,
      "count": 3
    },
    {
      "name": "Laborde",
      "player_id": 209519,
      "position": "ST",
      "rarity": "rare",
      "version": "gold",
      "rating": 81,
      "count": 3
    },
    {
      "name": "Lees-Melou",
      "player_id": 230020,
      "position": "CM",
      "rarity": "common",
      "version": "gold",
      "rating": 75,
      "count": 3
    },
    {
      "name": "Juanmi",
      "player_id": 197891,
      "position": "LM",
      "rarity": "common",
      "version": "gold",
      "rating": 79,
      "count": 3
    },
    {
      "name": "Boyata",
      "player_id": 197837,
      "position": "CB",
      "rarity": "common",
      "version": "gold",
      "rating": 76,
      "count": 3
    },
    {
      "name": "Le Normand",
      "player_id": 233486,
      "position": "CB",
      "rarity": "common",
      "version": "gold",
      "rating": 81,
      "count": 3
    },
    {
      "name": "Pezzella",
      "player_id": 230681,
      "position": "LB",
      "rarity": "common",
      "version": "gold",
      "rating": 75,
      "count": 3
    },
    {
      "name": "Honorat",
      "player_id": 220876,
      "position": "LM",
      "rarity": "common",
      "version": "gold",
      "rating": 77,
      "count": 3
    },
    {
      "name": "Demirbay",
      "player_id": 211748,
      "position": "CM",
      "rarity": "rare",
      "version": "gold",
      "rating": 81,
      "count": 3
    },
    {
      "name": "Lopez",
      "player_id": 224030,
      "position": "CM",
      "rarity": "common",
      "version": "gold",
      "rating": 78,
      "count": 3
    },
    {
      "name": "Gorosabel",
      "player_id": 241049,
      "position": "RB",
      "rarity": "common",
      "version": "gold",
      "rating": 77,
      "count": 3
    },
    {
      "name": "Boly",
      "player_id": 202750,
      "position": "CB",
      "rarity": "common",
      "version": "gold",
      "rating": 78,
      "count": 3
    },
    {
      "name": "Ward-Prowse",
      "player_id": 205569,
      "position": "CM",
      "rarity": "common",
      "version": "gold",
      "rating": 81,
      "count": 3
    },
    {
      "name": "Hector",
      "player_id": 208334,
      "position": "LB",
      "rarity": "common",
      "version": "gold",
      "rating": 78,
      "count": 3
    },
    {
      "name": "Maggiore",
      "player_id": 236368,
      "position": "CM",
      "rarity": "common",
      "version": "gold",
      "rating": 77,
      "count": 3
    },
    {
      "name": "Raúl Albiol",
      "player_id": 157481,
      "position": "CB",
      "rarity": "common",
      "version": "gold",
      "rating": 82,
      "count": 3
    },
    {
      "name": "Samu Castillejo",
      "player_id": 210617,
      "position": "RM",
      "rarity": "common",
      "version": "gold",
      "rating": 75,
      "count": 3
    },
    {
      "name": "Ajorque",
      "player_id": 219733,
      "position": "ST",
      "rarity": "common",
      "version": "gold",
      "rating": 79,
      "count": 3
    },
    {
      "name": "Ginter",
      "player_id": 207862,
      "position": "CB",
      "rarity": "common",
      "version": "gold",
      "rating": 82,
      "count": 3
    },
    {
      "name": "André Gomes",
      "player_id": 211575,
      "position": "CM",
      "rarity": "common",
      "version": "gold",
      "rating": 75,
      "count": 3
    },
    {
      "name": "Manu Trigueros",
      "player_id": 206545,
      "position": "CM",
      "rarity": "common",
      "version": "gold",
      "rating": 79,
      "count": 3
    },
    {
      "name": "Hugo Mallo",
      "player_id": 194229,
      "position": "RB",
      "rarity": "common",
      "version": "gold",
      "rating": 77,
      "count": 3
    },
    {
      "name": "Unai López",
      "player_id": 222390,
      "position": "CM",
      "rarity": "common",
      "version": "gold",
      "rating": 75,
      "count": 3
    },
    {
      "name": "Perin",
      "player_id": 198009,
      "position": "GK",
      "rarity": "common",
      "version": "gold",
      "rating": 79,
      "count": 3
    },
    {
      "name": "Dahoud",
      "player_id": 218339,
      "position": "CM",
      "rarity": "common",
      "version": "gold",
      "rating": 80,
      "count": 3
    },
    {
      "name": "Frattesi",
      "player_id": 239807,
      "position": "CM",
      "rarity": "common",
      "version": "gold",
      "rating": 77,
      "count": 3
    },
    {
      "name": "Joel Robles",
      "player_id": 195668,
      "position": "GK",
      "rarity": "common",
      "version": "gold",
      "rating": 75,
      "count": 3
    },
    {
      "name": "João Mário",
      "player_id": 212814,
      "position": "CM",
      "rarity": "common",
      "version": "gold",
      "rating": 79,
      "count": 3
    },
    {
      "name": "Otávio",
      "player_id": 210411,
      "position": "RM",
      "rarity": "rare",
      "version": "gold",
      "rating": 82,
      "count": 3
    },
    {
      "name": "Bonaventura",
      "player_id": 189125,
      "position": "CM",
      "rarity": "common",
      "version": "gold",
      "rating": 78,
      "count": 3
    },
    {
      "name": "Abdelhamid",
      "player_id": 206493,
      "position": "CB",
      "rarity": "common",
      "version": "gold",
      "rating": 76,
      "count": 2
    },
    {
      "name": "Geertruida",
      "player_id": 241187,
      "position": "RB",
      "rarity": "common",
      "version": "gold",
      "rating": 77,
      "count": 2
    },
    {
      "name": "Fernando",
      "player_id": 205288,
      "position": "GK",
      "rarity": "common",
      "version": "gold",
      "rating": 75,
      "count": 2
    },
    {
      "name": "Dier",
      "player_id": 202335,
      "position": "CB",
      "rarity": "common",
      "version": "gold",
      "rating": 80,
      "count": 2
    },
    {
      "name": "Ducksch",
      "player_id": 197031,
      "position": "ST",
      "rarity": "common",
      "version": "gold",
      "rating": 75,
      "count": 2
    },
    {
      "name": "De Sart",
      "player_id": 217287,
      "position": "CM",
      "rarity": "common",
      "version": "gold",
      "rating": 75,
      "count": 2
    },
    {
      "name": "Javi Galán",
      "player_id": 231591,
      "position": "LB",
      "rarity": "common",
      "version": "gold",
      "rating": 80,
      "count": 2
    },
    {
      "name": "Mandanda",
      "player_id": 163705,
      "position": "GK",
      "rarity": "common",
      "version": "gold",
      "rating": 79,
      "count": 2
    },
    {
      "name": "Joelinton",
      "player_id": 223334,
      "position": "CM",
      "rarity": "common",
      "version": "gold",
      "rating": 75,
      "count": 2
    },
    {
      "name": "Gallagher",
      "player_id": 238216,
      "position": "CM",
      "rarity": "common",
      "version": "gold",
      "rating": 79,
      "count": 2
    },
    {
      "name": "Álex Berenguer",
      "player_id": 225201,
      "position": "RM",
      "rarity": "common",
      "version": "gold",
      "rating": 80,
      "count": 2
    },
    {
      "name": "Tait",
      "player_id": 213388,
      "position": "CM",
      "rarity": "common",
      "version": "gold",
      "rating": 77,
      "count": 2
    },
    {
      "name": "Fran Navarro",
      "player_id": 247138,
      "position": "ST",
      "rarity": "common",
      "version": "gold",
      "rating": 75,
      "count": 2
    },
    {
      "name": "Schwolow",
      "player_id": 202789,
      "position": "GK",
      "rarity": "common",
      "version": "gold",
      "rating": 75,
      "count": 2
    },
    {
      "name": "Mancini",
      "player_id": 229582,
      "position": "CB",
      "rarity": "common",
      "version": "gold",
      "rating": 81,
      "count": 2
    },
    {
      "name": "Romagnoli",
      "player_id": 210413,
      "position": "CB",
      "rarity": "common",
      "version": "gold",
      "rating": 80,
      "count": 2
    },
    {
      "name": "Castagne",
      "player_id": 222501,
      "position": "RB",
      "rarity": "common",
      "version": "gold",
      "rating": 78,
      "count": 2
    },
    {
      "name": "Calvert-Lewin",
      "player_id": 221479,
      "position": "ST",
      "rarity": "common",
      "version": "gold",
      "rating": 80,
      "count": 2
    },
    {
      "name": "Muniain",
      "player_id": 189575,
      "position": "LM",
      "rarity": "rare",
      "version": "gold",
      "rating": 84,
      "count": 2
    },
    {
      "name": "Demiral",
      "player_id": 238160,
      "position": "CB",
      "rarity": "common",
      "version": "gold",
      "rating": 77,
      "count": 2
    },
    {
      "name": "Lecomte",
      "player_id": 200726,
      "position": "GK",
      "rarity": "common",
      "version": "gold",
      "rating": 77,
      "count": 2
    },
    {
      "name": "Grenier",
      "player_id": 187924,
      "position": "CM",
      "rarity": "common",
      "version": "gold",
      "rating": 75,
      "count": 2
    },
    {
      "name": "Bellarabi",
      "player_id": 202857,
      "position": "RM",
      "rarity": "rare",
      "version": "gold",
      "rating": 79,
      "count": 2
    },
    {
      "name": "Borja Iglesias",
      "player_id": 224179,
      "position": "ST",
      "rarity": "common",
      "version": "gold",
      "rating": 81,
      "count": 2
    },
    {
      "name": "Bryan Gil",
      "player_id": 246785,
      "position": "LM",
      "rarity": "common",
      "version": "gold",
      "rating": 77,
      "count": 2
    },
    {
      "name": "Awoniyi",
      "player_id": 230978,
      "position": "ST",
      "rarity": "common",
      "version": "gold",
      "rating": 77,
      "count": 2
    },
    {
      "name": "Ljubičić",
      "player_id": 240916,
      "position": "RM",
      "rarity": "common",
      "version": "gold",
      "rating": 76,
      "count": 2
    },
    {
      "name": "Biraghi",
      "player_id": 201389,
      "position": "LB",
      "rarity": "common",
      "version": "gold",
      "rating": 80,
      "count": 2
    },
    {
      "name": "Pacheco",
      "player_id": 209960,
      "position": "GK",
      "rarity": "common",
      "version": "gold",
      "rating": 78,
      "count": 2
    },
    {
      "name": "Truffert",
      "player_id": 256769,
      "position": "LB",
      "rarity": "common",
      "version": "gold",
      "rating": 75,
      "count": 2
    },
    {
      "name": "Chadli",
      "player_id": 200529,
      "position": "LM",
      "rarity": "common",
      "version": "gold",
      "rating": 75,
      "count": 2
    },
    {
      "name": "Gregoritsch",
      "player_id": 199439,
      "position": "ST",
      "rarity": "common",
      "version": "gold",
      "rating": 75,
      "count": 2
    },
    {
      "name": "Richarlison",
      "player_id": 231943,
      "position": "ST",
      "rarity": "rare",
      "version": "gold",
      "rating": 81,
      "count": 2
    },
    {
      "name": "Cragno",
      "player_id": 205659,
      "position": "GK",
      "rarity": "common",
      "version": "gold",
      "rating": 80,
      "count": 2
    },
    {
      "name": "Friedrich",
      "player_id": 222493,
      "position": "CB",
      "rarity": "common",
      "version": "gold",
      "rating": 77,
      "count": 2
    },
    {
      "name": "Albrighton",
      "player_id": 183130,
      "position": "RM",
      "rarity": "common",
      "version": "gold",
      "rating": 75,
      "count": 2
    },
    {
      "name": "Pol Lirola",
      "player_id": 235875,
      "position": "RB",
      "rarity": "common",
      "version": "gold",
      "rating": 75,
      "count": 2
    },
    {
      "name": "Henderson",
      "player_id": 233306,
      "position": "GK",
      "rarity": "common",
      "version": "gold",
      "rating": 79,
      "count": 2
    },
    {
      "name": "Iñigo Martínez",
      "player_id": 204525,
      "position": "CB",
      "rarity": "rare",
      "version": "gold",
      "rating": 82,
      "count": 2
    },
    {
      "name": "Ouwejan",
      "player_id": 229155,
      "position": "LB",
      "rarity": "common",
      "version": "gold",
      "rating": 75,
      "count": 2
    },
    {
      "name": "Petagna",
      "player_id": 215689,
      "position": "ST",
      "rarity": "common",
      "version": "gold",
      "rating": 76,
      "count": 2
    },
    {
      "name": "Guilbert",
      "player_id": 227222,
      "position": "RWB → RB",
      "rarity": "common",
      "version": "gold",
      "rating": 78,
      "count": 2
    },
    {
      "name": "Nuytinck",
      "player_id": 193091,
      "position": "CB",
      "rarity": "common",
      "version": "gold",
      "rating": 75,
      "count": 2
    },
    {
      "name": "Unai Vencedor",
      "player_id": 247328,
      "position": "CM",
      "rarity": "common",
      "version": "gold",
      "rating": 77,
      "count": 2
    },
    {
      "name": "Lukić",
      "player_id": 236699,
      "position": "CM",
      "rarity": "common",
      "version": "gold",
      "rating": 77,
      "count": 2
    },
    {
      "name": "Billing",
      "player_id": 220714,
      "position": "CM",
      "rarity": "common",
      "version": "gold",
      "rating": 75,
      "count": 2
    },
    {
      "name": "Justin",
      "player_id": 231554,
      "position": "LB → RB",
      "rarity": "common",
      "version": "gold",
      "rating": 76,
      "count": 2
    },
    {
      "name": "Pablo Maffeo",
      "player_id": 221342,
      "position": "RB",
      "rarity": "common",
      "version": "gold",
      "rating": 78,
      "count": 2
    },
    {
      "name": "Mechele",
      "player_id": 212204,
      "position": "CB",
      "rarity": "common",
      "version": "gold",
      "rating": 76,
      "count": 2
    },
    {
      "name": "Henderson",
      "player_id": 183711,
      "position": "CM",
      "rarity": "rare",
      "version": "gold",
      "rating": 83,
      "count": 2
    },
    {
      "name": "Ward",
      "player_id": 207998,
      "position": "GK",
      "rarity": "common",
      "version": "gold",
      "rating": 75,
      "count": 2
    },
    {
      "name": "Gordon",
      "player_id": 242964,
      "position": "LM",
      "rarity": "common",
      "version": "gold",
      "rating": 75,
      "count": 2
    },
    {
      "name": "Wan-Bissaka",
      "player_id": 229880,
      "position": "RB",
      "rarity": "rare",
      "version": "gold",
      "rating": 80,
      "count": 2
    },
    {
      "name": "Vertonghen",
      "player_id": 172871,
      "position": "CB",
      "rarity": "rare",
      "version": "gold",
      "rating": 81,
      "count": 2
    },
    {
      "name": "Alderweireld",
      "player_id": 184087,
      "position": "CB",
      "rarity": "common",
      "version": "gold",
      "rating": 82,
      "count": 2
    },
    {
      "name": "Felipe",
      "player_id": 207863,
      "position": "CB",
      "rarity": "common",
      "version": "gold",
      "rating": 81,
      "count": 2
    },
    {
      "name": "Dallas",
      "player_id": 203570,
      "position": "CM → LB",
      "rarity": "common",
      "version": "gold",
      "rating": 75,
      "count": 1
    },
    {
      "name": "Zaccagni",
      "player_id": 220502,
      "position": "LW → LM",
      "rarity": "common",
      "version": "gold",
      "rating": 79,
      "count": 1
    },
    {
      "name": "Gabriel",
      "player_id": 232580,
      "position": "CB",
      "rarity": "common",
      "version": "gold",
      "rating": 81,
      "count": 1
    },
    {
      "name": "Veerman",
      "player_id": 253109,
      "position": "CM",
      "rarity": "common",
      "version": "gold",
      "rating": 78,
      "count": 1
    },
    {
      "name": "Joaquín",
      "player_id": 45186,
      "position": "RM",
      "rarity": "common",
      "version": "gold",
      "rating": 79,
      "count": 1
    },
    {
      "name": "Pedro Porro",
      "player_id": 243576,
      "position": "RWB → RB",
      "rarity": "rare",
      "version": "gold",
      "rating": 81,
      "count": 1
    },
    {
      "name": "Lodeiro",
      "player_id": 197225,
      "position": "CAM",
      "rarity": "common",
      "version": "gold",
      "rating": 79,
      "count": 1
    },
    {
      "name": "Nmecha",
      "player_id": 230084,
      "position": "ST",
      "rarity": "rare",
      "version": "gold",
      "rating": 78,
      "count": 1
    },
    {
      "name": "Gutiérrez",
      "player_id": 220854,
      "position": "CM",
      "rarity": "common",
      "version": "gold",
      "rating": 76,
      "count": 1
    },
    {
      "name": "Živković",
      "player_id": 220746,
      "position": "RW",
      "rarity": "common",
      "version": "gold",
      "rating": 77,
      "count": 1
    },
    {
      "name": "Uth",
      "player_id": 200318,
      "position": "CAM → ST",
      "rarity": "common",
      "version": "gold",
      "rating": 76,
      "count": 1
    },
    {
      "name": "Doku",
      "player_id": 246420,
      "position": "RW → RM",
      "rarity": "common",
      "version": "gold",
      "rating": 75,
      "count": 1
    },
    {
      "name": "Santi Comesaña",
      "player_id": 235781,
      "position": "CDM → CM",
      "rarity": "common",
      "version": "gold",
      "rating": 75,
      "count": 1
    },
    {
      "name": "Kevin",
      "player_id": 228716,
      "position": "RB",
      "rarity": "common",
      "version": "gold",
      "rating": 75,
      "count": 1
    },
    {
      "name": "Thuram",
      "player_id": 247246,
      "position": "CM",
      "rarity": "common",
      "version": "gold",
      "rating": 77,
      "count": 1
    },
    {
      "name": "Willock",
      "player_id": 237329,
      "position": "CM",
      "rarity": "common",
      "version": "gold",
      "rating": 75,
      "count": 1
    },
    {
      "name": "Castellanos",
      "player_id": 237712,
      "position": "ST",
      "rarity": "common",
      "version": "gold",
      "rating": 77,
      "count": 1
    },
    {
      "name": "Bernardoni",
      "player_id": 223898,
      "position": "GK",
      "rarity": "common",
      "version": "gold",
      "rating": 76,
      "count": 1
    },
    {
      "name": "Roque Mesa",
      "player_id": 204277,
      "position": "CM",
      "rarity": "common",
      "version": "gold",
      "rating": 76,
      "count": 1
    },
    {
      "name": "Trippier",
      "player_id": 186345,
      "position": "RB",
      "rarity": "rare",
      "version": "gold",
      "rating": 84,
      "count": 1
    },
    {
      "name": "Vítor Tormena",
      "player_id": 246098,
      "position": "CB",
      "rarity": "common",
      "version": "gold",
      "rating": 75,
      "count": 1
    },
    {
      "name": "Quagliarella",
      "player_id": 159261,
      "position": "ST",
      "rarity": "common",
      "version": "gold",
      "rating": 76,
      "count": 1
    },
    {
      "name": "Vlahović",
      "player_id": 246430,
      "position": "ST",
      "rarity": "rare",
      "version": "gold",
      "rating": 84,
      "count": 1
    },
    {
      "name": "Sequeira",
      "player_id": 217546,
      "position": "LB",
      "rarity": "common",
      "version": "gold",
      "rating": 76,
      "count": 1
    },
    {
      "name": "Umtiti",
      "player_id": 205600,
      "position": "CB",
      "rarity": "common",
      "version": "gold",
      "rating": 79,
      "count": 1
    },
    {
      "name": "Uribe",
      "player_id": 214047,
      "position": "CM",
      "rarity": "rare",
      "version": "gold",
      "rating": 81,
      "count": 1
    },
    {
      "name": "Sabitzer",
      "player_id": 204923,
      "position": "CM",
      "rarity": "rare",
      "version": "gold",
      "rating": 80,
      "count": 1
    },
    {
      "name": "Tapia",
      "player_id": 220673,
      "position": "CDM",
      "rarity": "common",
      "version": "gold",
      "rating": 79,
      "count": 1
    },
    {
      "name": "Blind",
      "player_id": 190815,
      "position": "CB",
      "rarity": "common",
      "version": "gold",
      "rating": 80,
      "count": 1
    },
    {
      "name": "Oxford",
      "player_id": 225908,
      "position": "CB → RB",
      "rarity": "common",
      "version": "gold",
      "rating": 76,
      "count": 1
    },
    {
      "name": "Milenković",
      "player_id": 238095,
      "position": "CB",
      "rarity": "common",
      "version": "gold",
      "rating": 80,
      "count": 1
    },
    {
      "name": "Maier",
      "player_id": 237629,
      "position": "CM",
      "rarity": "common",
      "version": "gold",
      "rating": 76,
      "count": 1
    },
    {
      "name": "Daniel Bragança",
      "player_id": 252143,
      "position": "CM",
      "rarity": "common",
      "version": "gold",
      "rating": 75,
      "count": 1
    },
    {
      "name": "Fran García",
      "player_id": 246606,
      "position": "LB",
      "rarity": "common",
      "version": "gold",
      "rating": 75,
      "count": 1
    },
    {
      "name": "Ünal",
      "player_id": 223197,
      "position": "ST",
      "rarity": "common",
      "version": "gold",
      "rating": 78,
      "count": 1
    },
    {
      "name": "Buksa",
      "player_id": 224438,
      "position": "ST",
      "rarity": "common",
      "version": "gold",
      "rating": 75,
      "count": 1
    },
    {
      "name": "Kluivert",
      "player_id": 236920,
      "position": "LW → RM",
      "rarity": "common",
      "version": "gold",
      "rating": 76,
      "count": 1
    },
    {
      "name": "Diego Rico",
      "player_id": 220414,
      "position": "LB",
      "rarity": "common",
      "version": "gold",
      "rating": 76,
      "count": 1
    },
    {
      "name": "De la Cruz",
      "player_id": 240699,
      "position": "CM",
      "rarity": "rare",
      "version": "special",
      "rating": 78,
      "count": 1
    },
    {
      "name": "Bowen",
      "player_id": 224371,
      "position": "RM",
      "rarity": "common",
      "version": "gold",
      "rating": 80,
      "count": 1
    },
    {
      "name": "Lanzini",
      "player_id": 188988,
      "position": "CAM → CM",
      "rarity": "common",
      "version": "gold",
      "rating": 79,
      "count": 1
    },
    {
      "name": "Struijk",
      "player_id": 239360,
      "position": "CB",
      "rarity": "common",
      "version": "gold",
      "rating": 76,
      "count": 1
    },
    {
      "name": "Eriksen",
      "player_id": 190460,
      "position": "CM",
      "rarity": "rare",
      "version": "gold",
      "rating": 82,
      "count": 1
    },
    {
      "name": "Amiri",
      "player_id": 225309,
      "position": "CAM → CM",
      "rarity": "common",
      "version": "gold",
      "rating": 76,
      "count": 1
    },
    {
      "name": "Guirassy",
      "player_id": 215441,
      "position": "ST",
      "rarity": "common",
      "version": "gold",
      "rating": 76,
      "count": 1
    },
    {
      "name": "Pellegrini",
      "player_id": 243237,
      "position": "LB",
      "rarity": "common",
      "version": "gold",
      "rating": 76,
      "count": 1
    },
    {
      "name": "Walker-Peters",
      "player_id": 227927,
      "position": "RB",
      "rarity": "common",
      "version": "gold",
      "rating": 78,
      "count": 1
    },
    {
      "name": "Hughes",
      "player_id": 206516,
      "position": "CM",
      "rarity": "common",
      "version": "gold",
      "rating": 75,
      "count": 1
    },
    {
      "name": "Ndombele",
      "player_id": 235569,
      "position": "CM",
      "rarity": "common",
      "version": "gold",
      "rating": 79,
      "count": 1
    },
    {
      "name": "Omar Mascarell",
      "player_id": 208620,
      "position": "CDM → CM",
      "rarity": "common",
      "version": "gold",
      "rating": 75,
      "count": 1
    },
    {
      "name": "Melendo",
      "player_id": 236679,
      "position": "CAM",
      "rarity": "common",
      "version": "gold",
      "rating": 78,
      "count": 1
    },
    {
      "name": "Luis Alberto",
      "player_id": 198706,
      "position": "CM",
      "rarity": "rare",
      "version": "gold",
      "rating": 83,
      "count": 1
    },
    {
      "name": "Grujić",
      "player_id": 232099,
      "position": "CM",
      "rarity": "common",
      "version": "gold",
      "rating": 76,
      "count": 1
    },
    {
      "name": "Harrison",
      "player_id": 232080,
      "position": "LM",
      "rarity": "common",
      "version": "gold",
      "rating": 77,
      "count": 1
    },
    {
      "name": "Nielsen",
      "player_id": 210739,
      "position": "CM",
      "rarity": "common",
      "version": "gold",
      "rating": 76,
      "count": 1
    },
    {
      "name": "Skhiri",
      "player_id": 225126,
      "position": "CDM",
      "rarity": "common",
      "version": "gold",
      "rating": 79,
      "count": 1
    },
    {
      "name": "João Pedro",
      "player_id": 199254,
      "position": "ST",
      "rarity": "common",
      "version": "gold",
      "rating": 79,
      "count": 1
    },
    {
      "name": "Fabiański",
      "player_id": 164835,
      "position": "GK",
      "rarity": "rare",
      "version": "gold",
      "rating": 82,
      "count": 1
    },
    {
      "name": "Trimmel",
      "player_id": 193254,
      "position": "RWB → RB",
      "rarity": "common",
      "version": "gold",
      "rating": 77,
      "count": 1
    },
    {
      "name": "Prömel",
      "player_id": 228595,
      "position": "CM",
      "rarity": "common",
      "version": "gold",
      "rating": 76,
      "count": 1
    },
    {
      "name": "Günter",
      "player_id": 209846,
      "position": "LB",
      "rarity": "rare",
      "version": "gold",
      "rating": 80,
      "count": 1
    },
    {
      "name": "Birindelli",
      "player_id": 237003,
      "position": "RWB → RB",
      "rarity": "common",
      "version": "gold",
      "rating": 75,
      "count": 1
    },
    {
      "name": "Kilman",
      "player_id": 245336,
      "position": "CB",
      "rarity": "common",
      "version": "gold",
      "rating": 77,
      "count": 1
    },
    {
      "name": "Montoya",
      "player_id": 194644,
      "position": "RB",
      "rarity": "common",
      "version": "gold",
      "rating": 75,
      "count": 1
    },
    {
      "name": "Consigli",
      "player_id": 163489,
      "position": "GK",
      "rarity": "common",
      "version": "gold",
      "rating": 80,
      "count": 1
    },
    {
      "name": "Godoy",
      "player_id": 228415,
      "position": "RB",
      "rarity": "rare",
      "version": "special",
      "rating": 75,
      "count": 1
    },
    {
      "name": "Ugarte",
      "player_id": 253306,
      "position": "CM",
      "rarity": "common",
      "version": "gold",
      "rating": 77,
      "count": 1
    },
    {
      "name": "Ramsdale",
      "player_id": 233934,
      "position": "GK",
      "rarity": "rare",
      "version": "gold",
      "rating": 82,
      "count": 1
    },
    {
      "name": "Blas",
      "player_id": 231102,
      "position": "CAM → ST",
      "rarity": "common",
      "version": "gold",
      "rating": 79,
      "count": 1
    },
    {
      "name": "Pavard",
      "player_id": 226851,
      "position": "RB",
      "rarity": "common",
      "version": "gold",
      "rating": 79,
      "count": 1
    },
    {
      "name": "Clasie",
      "player_id": 199422,
      "position": "CM",
      "rarity": "common",
      "version": "gold",
      "rating": 75,
      "count": 1
    },
    {
      "name": "Arslan",
      "player_id": 190761,
      "position": "CDM → CM",
      "rarity": "common",
      "version": "gold",
      "rating": 75,
      "count": 1
    },
    {
      "name": "Meïté",
      "player_id": 205391,
      "position": "CM",
      "rarity": "common",
      "version": "gold",
      "rating": 75,
      "count": 1
    },
    {
      "name": "Robert Sánchez",
      "player_id": 228789,
      "position": "GK",
      "rarity": "common",
      "version": "gold",
      "rating": 77,
      "count": 1
    },
    {
      "name": "De Sciglio",
      "player_id": 206058,
      "position": "RB",
      "rarity": "common",
      "version": "gold",
      "rating": 76,
      "count": 1
    },
    {
      "name": "Mitchell",
      "player_id": 240947,
      "position": "LB",
      "rarity": "common",
      "version": "gold",
      "rating": 76,
      "count": 1
    },
    {
      "name": "Bravo",
      "player_id": 174543,
      "position": "GK",
      "rarity": "common",
      "version": "gold",
      "rating": 78,
      "count": 1
    },
    {
      "name": "Bruno Guimarães",
      "player_id": 247851,
      "position": "CM",
      "rarity": "rare",
      "version": "gold",
      "rating": 81,
      "count": 1
    },
    {
      "name": "Moralez",
      "player_id": 183895,
      "position": "CAM",
      "rarity": "common",
      "version": "gold",
      "rating": 76,
      "count": 1
    },
    {
      "name": "Krul",
      "player_id": 170597,
      "position": "GK",
      "rarity": "common",
      "version": "gold",
      "rating": 76,
      "count": 1
    },
    {
      "name": "Benrahma",
      "player_id": 220621,
      "position": "LM",
      "rarity": "common",
      "version": "gold",
      "rating": 78,
      "count": 1
    },
    {
      "name": "Rajković",
      "player_id": 241727,
      "position": "GK",
      "rarity": "common",
      "version": "gold",
      "rating": 78,
      "count": 1
    },
    {
      "name": "Kike García",
      "player_id": 192678,
      "position": "ST",
      "rarity": "common",
      "version": "gold",
      "rating": 75,
      "count": 1
    },
    {
      "name": "Pepe",
      "player_id": 120533,
      "position": "CB",
      "rarity": "rare",
      "version": "gold",
      "rating": 81,
      "count": 1
    },
    {
      "name": "Gabriel Paulista",
      "player_id": 201305,
      "position": "CB",
      "rarity": "rare",
      "version": "gold",
      "rating": 82,
      "count": 1
    },
    {
      "name": "Westwood",
      "player_id": 189280,
      "position": "CDM → CM",
      "rarity": "common",
      "version": "gold",
      "rating": 76,
      "count": 1
    },
    {
      "name": "Sportiello",
      "player_id": 216065,
      "position": "GK",
      "rarity": "common",
      "version": "gold",
      "rating": 75,
      "count": 1
    },
    {
      "name": "Džeko",
      "player_id": 180930,
      "position": "ST",
      "rarity": "rare",
      "version": "gold",
      "rating": 84,
      "count": 1
    },
    {
      "name": "Zubeldia",
      "player_id": 233738,
      "position": "CB",
      "rarity": "common",
      "version": "gold",
      "rating": 78,
      "count": 1
    },
    {
      "name": "Marchesín",
      "player_id": 201095,
      "position": "GK",
      "rarity": "common",
      "version": "gold",
      "rating": 79,
      "count": 1
    },
    {
      "name": "Lejeune",
      "player_id": 197948,
      "position": "CB",
      "rarity": "common",
      "version": "gold",
      "rating": 77,
      "count": 1
    },
    {
      "name": "Cornet",
      "player_id": 215798,
      "position": "LM",
      "rarity": "rare",
      "version": "gold",
      "rating": 78,
      "count": 1
    },
    {
      "name": "Casco",
      "player_id": 215071,
      "position": "LB",
      "rarity": "rare",
      "version": "special",
      "rating": 77,
      "count": 1
    },
    {
      "name": "Targett",
      "player_id": 218659,
      "position": "LB",
      "rarity": "common",
      "version": "gold",
      "rating": 77,
      "count": 1
    },
    {
      "name": "Sels",
      "player_id": 199641,
      "position": "GK",
      "rarity": "common",
      "version": "gold",
      "rating": 79,
      "count": 1
    },
    {
      "name": "Knauff",
      "player_id": 257540,
      "position": "RM",
      "rarity": "common",
      "version": "gold",
      "rating": 75,
      "count": 1
    },
    {
      "name": "Livramento",
      "player_id": 262118,
      "position": "RB",
      "rarity": "common",
      "version": "gold",
      "rating": 75,
      "count": 1
    },
    {
      "name": "Keane",
      "player_id": 207599,
      "position": "CB",
      "rarity": "common",
      "version": "gold",
      "rating": 79,
      "count": 1
    },
    {
      "name": "Söyüncü",
      "player_id": 232119,
      "position": "CB",
      "rarity": "common",
      "version": "gold",
      "rating": 78,
      "count": 1
    },
    {
      "name": "Vecino",
      "player_id": 219985,
      "position": "CM",
      "rarity": "common",
      "version": "gold",
      "rating": 77,
      "count": 1
    },
    {
      "name": "Florenzi",
      "player_id": 203551,
      "position": "RB",
      "rarity": "common",
      "version": "gold",
      "rating": 79,
      "count": 1
    },
    {
      "name": "Tătărușanu",
      "player_id": 201325,
      "position": "GK",
      "rarity": "common",
      "version": "gold",
      "rating": 76,
      "count": 1
    },
    {
      "name": "Diogo Costa",
      "player_id": 234577,
      "position": "GK",
      "rarity": "common",
      "version": "gold",
      "rating": 79,
      "count": 1
    },
    {
      "name": "Souček",
      "player_id": 236792,
      "position": "CDM",
      "rarity": "common",
      "version": "gold",
      "rating": 81,
      "count": 1
    },
    {
      "name": "Cote",
      "player_id": 190143,
      "position": "LB",
      "rarity": "common",
      "version": "gold",
      "rating": 75,
      "count": 1
    },
    {
      "name": "Sanabria",
      "player_id": 219932,
      "position": "ST",
      "rarity": "common",
      "version": "gold",
      "rating": 75,
      "count": 1
    },
    {
      "name": "Ricardo Esgaio",
      "player_id": 212213,
      "position": "RWB → RB",
      "rarity": "common",
      "version": "gold",
      "rating": 76,
      "count": 1
    },
    {
      "name": "Damsgaard",
      "player_id": 241508,
      "position": "LM",
      "rarity": "common",
      "version": "gold",
      "rating": 76,
      "count": 1
    },
    {
      "name": "Lafont",
      "player_id": 231691,
      "position": "GK",
      "rarity": "rare",
      "version": "gold",
      "rating": 80,
      "count": 1
    },
    {
      "name": "Tousart",
      "player_id": 227234,
      "position": "CDM → CM",
      "rarity": "common",
      "version": "gold",
      "rating": 75,
      "count": 1
    },
    {
      "name": "Smalling",
      "player_id": 189881,
      "position": "CB",
      "rarity": "common",
      "version": "gold",
      "rating": 81,
      "count": 1
    },
    {
      "name": "Chardonnet",
      "player_id": 215410,
      "position": "CB",
      "rarity": "common",
      "version": "gold",
      "rating": 75,
      "count": 1
    },
    {
      "name": "Capoue",
      "player_id": 178213,
      "position": "CM",
      "rarity": "common",
      "version": "gold",
      "rating": 80,
      "count": 1
    },
    {
      "name": "Raúl García",
      "player_id": 171579,
      "position": "ST",
      "rarity": "common",
      "version": "gold",
      "rating": 80,
      "count": 1
    },
    {
      "name": "Vicario",
      "player_id": 240091,
      "position": "GK",
      "rarity": "common",
      "version": "gold",
      "rating": 78,
      "count": 1
    },
    {
      "name": "Kurzawa",
      "player_id": 201510,
      "position": "LB",
      "rarity": "common",
      "version": "gold",
      "rating": 75,
      "count": 1
    },
    {
      "name": "Helton Leite",
      "player_id": 213951,
      "position": "GK",
      "rarity": "common",
      "version": "gold",
      "rating": 76,
      "count": 1
    },
    {
      "name": "Gilberto",
      "player_id": 211567,
      "position": "RB",
      "rarity": "common",
      "version": "gold",
      "rating": 78,
      "count": 1
    },
    {
      "name": "Tiago Tomás",
      "player_id": 257073,
      "position": "ST",
      "rarity": "common",
      "version": "gold",
      "rating": 75,
      "count": 1
    },
    {
      "name": "Bastoni",
      "player_id": 237383,
      "position": "CB",
      "rarity": "rare",
      "version": "gold",
      "rating": 84,
      "count": 1
    },
    {
      "name": "Solomon",
      "player_id": 246791,
      "position": "LM",
      "rarity": "common",
      "version": "gold",
      "rating": 76,
      "count": 1
    },
    {
      "name": "Gibbs-White",
      "player_id": 236015,
      "position": "CAM → RM",
      "rarity": "common",
      "version": "gold",
      "rating": 75,
      "count": 1
    },
    {
      "name": "Rutter",
      "player_id": 245637,
      "position": "ST",
      "rarity": "common",
      "version": "gold",
      "rating": 75,
      "count": 1
    },
    {
      "name": "Sotoca",
      "player_id": 227232,
      "position": "ST",
      "rarity": "common",
      "version": "gold",
      "rating": 75,
      "count": 1
    },
    {
      "name": "Jiménez",
      "player_id": 204838,
      "position": "ST",
      "rarity": "common",
      "version": "gold",
      "rating": 82,
      "count": 1
    },
    {
      "name": "Gonçalo Inácio",
      "player_id": 257179,
      "position": "CB",
      "rarity": "rare",
      "version": "gold",
      "rating": 79,
      "count": 1
    },
    {
      "name": "Alex Telles",
      "player_id": 212462,
      "position": "LB",
      "rarity": "common",
      "version": "gold",
      "rating": 80,
      "count": 1
    },
    {
      "name": "Gómez",
      "player_id": 221053,
      "position": "LB",
      "rarity": "rare",
      "version": "special",
      "rating": 75,
      "count": 1
    },
    {
      "name": "Montipò",
      "player_id": 215363,
      "position": "GK",
      "rarity": "common",
      "version": "gold",
      "rating": 76,
      "count": 1
    },
    {
      "name": "Justin",
      "player_id": 231554,
      "position": "LB",
      "rarity": "common",
      "version": "gold",
      "rating": 76,
      "count": 1
    },
    {
      "name": "Guendouzi",
      "player_id": 236496,
      "position": "CM",
      "rarity": "rare",
      "version": "gold",
      "rating": 80,
      "count": 1
    },
    {
      "name": "Moi Gómez",
      "player_id": 206590,
      "position": "LM",
      "rarity": "common",
      "version": "gold",
      "rating": 76,
      "count": 1
    },
    {
      "name": "Cooper",
      "player_id": 189456,
      "position": "CB",
      "rarity": "common",
      "version": "gold",
      "rating": 76,
      "count": 1
    },
    {
      "name": "de Roon",
      "player_id": 208461,
      "position": "CDM → CM",
      "rarity": "common",
      "version": "gold",
      "rating": 80,
      "count": 1
    },
    {
      "name": "Ilić",
      "player_id": 258683,
      "position": "CM",
      "rarity": "common",
      "version": "gold",
      "rating": 76,
      "count": 1
    },
    {
      "name": "Maitland-Niles",
      "player_id": 225782,
      "position": "RWB → RM",
      "rarity": "common",
      "version": "gold",
      "rating": 75,
      "count": 1
    },
    {
      "name": "Elyounoussi",
      "player_id": 203362,
      "position": "LM",
      "rarity": "common",
      "version": "gold",
      "rating": 76,
      "count": 1
    },
    {
      "name": "Samuel Lino",
      "player_id": 251445,
      "position": "LM",
      "rarity": "common",
      "version": "gold",
      "rating": 75,
      "count": 1
    },
    {
      "name": "Mangala",
      "player_id": 234078,
      "position": "CM",
      "rarity": "common",
      "version": "gold",
      "rating": 75,
      "count": 1
    },
    {
      "name": "Ismaily",
      "player_id": 201119,
      "position": "LB",
      "rarity": "rare",
      "version": "gold",
      "rating": 79,
      "count": 1
    },
    {
      "name": "Senesi",
      "player_id": 236506,
      "position": "CB",
      "rarity": "common",
      "version": "gold",
      "rating": 78,
      "count": 1
    },
    {
      "name": "Ricardo Horta",
      "player_id": 213516,
      "position": "CF",
      "rarity": "rare",
      "version": "gold",
      "rating": 81,
      "count": 1
    },
    {
      "name": "Barnes",
      "player_id": 234742,
      "position": "LM",
      "rarity": "common",
      "version": "gold",
      "rating": 80,
      "count": 1
    },
    {
      "name": "Toni Villa",
      "player_id": 229517,
      "position": "LM",
      "rarity": "common",
      "version": "gold",
      "rating": 75,
      "count": 1
    },
    {
      "name": "Wind",
      "player_id": 241522,
      "position": "ST",
      "rarity": "common",
      "version": "gold",
      "rating": 76,
      "count": 1
    },
    {
      "name": "Davies",
      "player_id": 230005,
      "position": "CM",
      "rarity": "common",
      "version": "gold",
      "rating": 75,
      "count": 1
    },
    {
      "name": "Sergio Herrera",
      "player_id": 224003,
      "position": "GK",
      "rarity": "common",
      "version": "gold",
      "rating": 78,
      "count": 1
    },
    {
      "name": "Grifo",
      "player_id": 212096,
      "position": "LM",
      "rarity": "common",
      "version": "gold",
      "rating": 81,
      "count": 1
    },
    {
      "name": "Escudero",
      "player_id": 192679,
      "position": "LB",
      "rarity": "common",
      "version": "gold",
      "rating": 75,
      "count": 1
    },
    {
      "name": "Delaney",
      "player_id": 193283,
      "position": "CDM → CM",
      "rarity": "rare",
      "version": "gold",
      "rating": 81,
      "count": 1
    },
    {
      "name": "Milner",
      "player_id": 138412,
      "position": "CM",
      "rarity": "common",
      "version": "gold",
      "rating": 78,
      "count": 1
    },
    {
      "name": "Canales",
      "player_id": 190286,
      "position": "RM",
      "rarity": "rare",
      "version": "gold",
      "rating": 84,
      "count": 1
    },
    {
      "name": "Nyamsi",
      "player_id": 239575,
      "position": "CB",
      "rarity": "common",
      "version": "gold",
      "rating": 76,
      "count": 1
    },
    {
      "name": "Eggestein",
      "player_id": 226168,
      "position": "CDM → CM",
      "rarity": "common",
      "version": "gold",
      "rating": 75,
      "count": 1
    },
    {
      "name": "Faivre",
      "player_id": 242577,
      "position": "RM",
      "rarity": "common",
      "version": "gold",
      "rating": 78,
      "count": 1
    },
    {
      "name": "Rodrigo Ely",
      "player_id": 202445,
      "position": "CB",
      "rarity": "common",
      "version": "gold",
      "rating": 75,
      "count": 1
    },
    {
      "name": "Sanson",
      "player_id": 210896,
      "position": "CM",
      "rarity": "common",
      "version": "gold",
      "rating": 76,
      "count": 1
    },
    {
      "name": "Plea",
      "player_id": 206467,
      "position": "CF",
      "rarity": "common",
      "version": "gold",
      "rating": 78,
      "count": 1
    },
    {
      "name": "Diop",
      "player_id": 244892,
      "position": "LM",
      "rarity": "common",
      "version": "gold",
      "rating": 78,
      "count": 1
    },
    {
      "name": "Odjidja-Ofoe",
      "player_id": 175895,
      "position": "CM",
      "rarity": "common",
      "version": "gold",
      "rating": 75,
      "count": 1
    },
    {
      "name": "Musiala",
      "player_id": 256790,
      "position": "CM",
      "rarity": "rare",
      "version": "gold",
      "rating": 81,
      "count": 1
    },
    {
      "name": "Bruno Costa",
      "player_id": 244960,
      "position": "CM",
      "rarity": "common",
      "version": "gold",
      "rating": 75,
      "count": 1
    },
    {
      "name": "Perraud",
      "player_id": 231318,
      "position": "LB",
      "rarity": "common",
      "version": "gold",
      "rating": 76,
      "count": 1
    },
    {
      "name": "Gabriel Veron",
      "player_id": 259849,
      "position": "RM",
      "rarity": "common",
      "version": "gold",
      "rating": 75,
      "count": 1
    },
    {
      "name": "José Fonte",
      "player_id": 171791,
      "position": "CB",
      "rarity": "common",
      "version": "gold",
      "rating": 80,
      "count": 1
    },
    {
      "name": "Malinovskyi",
      "player_id": 231969,
      "position": "CF",
      "rarity": "rare",
      "version": "gold",
      "rating": 82,
      "count": 1
    },
    {
      "name": "Evans",
      "player_id": 169588,
      "position": "CB",
      "rarity": "common",
      "version": "gold",
      "rating": 79,
      "count": 1
    },
    {
      "name": "Lo Celso",
      "player_id": 226226,
      "position": "CM",
      "rarity": "rare",
      "version": "gold",
      "rating": 81,
      "count": 1
    },
    {
      "name": "Rui Silva",
      "player_id": 210385,
      "position": "GK",
      "rarity": "common",
      "version": "gold",
      "rating": 80,
      "count": 1
    },
    {
      "name": "Toney",
      "player_id": 212228,
      "position": "ST",
      "rarity": "common",
      "version": "gold",
      "rating": 77,
      "count": 1
    },
    {
      "name": "Tolisso",
      "player_id": 219683,
      "position": "CM",
      "rarity": "rare",
      "version": "gold",
      "rating": 81,
      "count": 1
    },
    {
      "name": "Aguilar",
      "player_id": 223597,
      "position": "RB",
      "rarity": "common",
      "version": "gold",
      "rating": 77,
      "count": 1
    },
    {
      "name": "Ander Herrera",
      "player_id": 191740,
      "position": "CM",
      "rarity": "common",
      "version": "gold",
      "rating": 79,
      "count": 1
    },
    {
      "name": "Thomas",
      "player_id": 254470,
      "position": "LB",
      "rarity": "common",
      "version": "gold",
      "rating": 75,
      "count": 1
    },
    {
      "name": "Krunić",
      "player_id": 229758,
      "position": "CM",
      "rarity": "common",
      "version": "gold",
      "rating": 77,
      "count": 1
    },
    {
      "name": "Braithwaite",
      "player_id": 193290,
      "position": "ST",
      "rarity": "common",
      "version": "gold",
      "rating": 76,
      "count": 1
    },
    {
      "name": "Edgar Badia",
      "player_id": 204234,
      "position": "GK",
      "rarity": "common",
      "version": "gold",
      "rating": 80,
      "count": 1
    },
    {
      "name": "Andersen",
      "player_id": 224221,
      "position": "CB",
      "rarity": "common",
      "version": "gold",
      "rating": 77,
      "count": 1
    },
    {
      "name": "Iago",
      "player_id": 251182,
      "position": "LWB",
      "rarity": "common",
      "version": "gold",
      "rating": 77,
      "count": 1
    },
    {
      "name": "Geiger",
      "player_id": 235526,
      "position": "CM",
      "rarity": "common",
      "version": "gold",
      "rating": 75,
      "count": 1
    },
    {
      "name": "Kenedy",
      "player_id": 215639,
      "position": "LM",
      "rarity": "common",
      "version": "gold",
      "rating": 76,
      "count": 1
    },
    {
      "name": "José Sá",
      "player_id": 212442,
      "position": "GK",
      "rarity": "rare",
      "version": "gold",
      "rating": 81,
      "count": 1
    },
    {
      "name": "Aliendro",
      "player_id": 233029,
      "position": "CM",
      "rarity": "rare",
      "version": "special",
      "rating": 76,
      "count": 1
    },
    {
      "name": "Hernández",
      "player_id": 178224,
      "position": "ST",
      "rarity": "common",
      "version": "gold",
      "rating": 79,
      "count": 1
    },
    {
      "name": "Fraser",
      "player_id": 207807,
      "position": "RM",
      "rarity": "common",
      "version": "gold",
      "rating": 76,
      "count": 1
    },
    {
      "name": "Bijlow",
      "player_id": 232229,
      "position": "GK",
      "rarity": "common",
      "version": "gold",
      "rating": 79,
      "count": 1
    },
    {
      "name": "Schwäbe",
      "player_id": 224041,
      "position": "GK",
      "rarity": "common",
      "version": "gold",
      "rating": 77,
      "count": 1
    },
    {
      "name": "Burián",
      "player_id": 176526,
      "position": "GK",
      "rarity": "rare",
      "version": "special",
      "rating": 75,
      "count": 1
    },
    {
      "name": "Trapp",
      "player_id": 188943,
      "position": "GK",
      "rarity": "rare",
      "version": "gold",
      "rating": 86,
      "count": 1
    },
    {
      "name": "Brunner",
      "player_id": 215604,
      "position": "RB",
      "rarity": "common",
      "version": "gold",
      "rating": 75,
      "count": 1
    },
    {
      "name": "Carlos Neva",
      "player_id": 246844,
      "position": "LB",
      "rarity": "common",
      "version": "gold",
      "rating": 76,
      "count": 1
    },
    {
      "name": "Paulinho",
      "player_id": 216531,
      "position": "ST",
      "rarity": "common",
      "version": "gold",
      "rating": 78,
      "count": 1
    },
    {
      "name": "Unnerstall",
      "player_id": 199833,
      "position": "GK",
      "rarity": "common",
      "version": "gold",
      "rating": 78,
      "count": 1
    },
    {
      "name": "Rulli",
      "player_id": 215316,
      "position": "GK",
      "rarity": "rare",
      "version": "gold",
      "rating": 82,
      "count": 1
    },
    {
      "name": "Sakho",
      "player_id": 183285,
      "position": "CB",
      "rarity": "common",
      "version": "gold",
      "rating": 76,
      "count": 1
    },
    {
      "name": "Henry",
      "player_id": 231835,
      "position": "ST",
      "rarity": "common",
      "version": "gold",
      "rating": 76,
      "count": 1
    },
    {
      "name": "Höfler",
      "player_id": 199897,
      "position": "CDM → CM",
      "rarity": "common",
      "version": "gold",
      "rating": 75,
      "count": 1
    },
    {
      "name": "Mollet",
      "player_id": 209288,
      "position": "RM",
      "rarity": "common",
      "version": "gold",
      "rating": 76,
      "count": 1
    },
    {
      "name": "Alberto Moreno",
      "player_id": 205566,
      "position": "LB",
      "rarity": "common",
      "version": "gold",
      "rating": 77,
      "count": 1
    },
    {
      "name": "Pyatov",
      "player_id": 142902,
      "position": "GK",
      "rarity": "common",
      "version": "gold",
      "rating": 76,
      "count": 1
    },
    {
      "name": "Kritsyuk",
      "player_id": 213150,
      "position": "GK",
      "rarity": "common",
      "version": "gold",
      "rating": 77,
      "count": 1
    }
  ]
}