{
  "write_ts": "2022-09-29T10:01:25.843Z",
  "players": [
    {
      "name": "Gosens",
      "player_id": 223697,
      "position": "LWB",
      "rarity": "rare",
      "version": "gold",
      "rating": 82,
      "count": 31
    },
    {
      "name": "Hateboer",
      "player_id": 220093,
      "position": "RWB",
      "rarity": "rare",
      "version": "gold",
      "rating": 80,
      "count": 24
    },
    {
      "name": "Djimsiti",
      "player_id": 208165,
      "position": "CB",
      "rarity": "rare",
      "version": "gold",
      "rating": 79,
      "count": 24
    },
    {
      "name": "Pašalić",
      "player_id": 223273,
      "position": "CAM",
      "rarity": "rare",
      "version": "gold",
      "rating": 81,
      "count": 22
    },
    {
      "name": "Ibrahimović",
      "player_id": 41236,
      "position": "ST",
      "rarity": "rare",
      "version": "gold",
      "rating": 82,
      "count": 22
    },
    {
      "name": "Lobotka",
      "player_id": 216435,
      "position": "CM",
      "rarity": "rare",
      "version": "gold",
      "rating": 81,
      "count": 19
    },
    {
      "name": "Luis Alberto",
      "player_id": 198706,
      "position": "CM",
      "rarity": "rare",
      "version": "gold",
      "rating": 83,
      "count": 18
    },
    {
      "name": "Rafael Tolói",
      "player_id": 187598,
      "position": "CB",
      "rarity": "rare",
      "version": "gold",
      "rating": 81,
      "count": 14
    },
    {
      "name": "Żurkowski",
      "player_id": 239732,
      "position": "CM",
      "rarity": "rare",
      "version": "gold",
      "rating": 76,
      "count": 12
    },
    {
      "name": "De Ketelaere",
      "player_id": 251470,
      "position": "ST",
      "rarity": "rare",
      "version": "gold",
      "rating": 78,
      "count": 12
    },
    {
      "name": "Musso",
      "player_id": 214979,
      "position": "GK",
      "rarity": "rare",
      "version": "gold",
      "rating": 81,
      "count": 10
    },
    {
      "name": "Demiral",
      "player_id": 238160,
      "position": "CB",
      "rarity": "common",
      "version": "gold",
      "rating": 77,
      "count": 10
    },
    {
      "name": "Igor",
      "player_id": 241585,
      "position": "CB",
      "rarity": "common",
      "version": "gold",
      "rating": 76,
      "count": 9
    },
    {
      "name": "Martínez Quarta",
      "player_id": 228708,
      "position": "CB",
      "rarity": "common",
      "version": "gold",
      "rating": 76,
      "count": 9
    },
    {
      "name": "Rrahmani",
      "player_id": 244263,
      "position": "CB",
      "rarity": "common",
      "version": "gold",
      "rating": 80,
      "count": 8
    },
    {
      "name": "Nélson Semedo",
      "player_id": 227928,
      "position": "RWB",
      "rarity": "rare",
      "version": "gold",
      "rating": 80,
      "count": 8
    },
    {
      "name": "Aguerd",
      "player_id": 244749,
      "position": "CB",
      "rarity": "rare",
      "version": "gold",
      "rating": 80,
      "count": 7
    },
    {
      "name": "Juan Jesus",
      "player_id": 200752,
      "position": "CB",
      "rarity": "common",
      "version": "gold",
      "rating": 76,
      "count": 7
    },
    {
      "name": "Rui Patrício",
      "player_id": 178005,
      "position": "GK",
      "rarity": "rare",
      "version": "gold",
      "rating": 82,
      "count": 7
    },
    {
      "name": "Onana",
      "player_id": 226753,
      "position": "GK",
      "rarity": "rare",
      "version": "gold",
      "rating": 82,
      "count": 7
    },
    {
      "name": "Handanovič",
      "player_id": 162835,
      "position": "GK",
      "rarity": "rare",
      "version": "gold",
      "rating": 84,
      "count": 6
    },
    {
      "name": "Mitrović",
      "player_id": 215716,
      "position": "ST",
      "rarity": "rare",
      "version": "gold",
      "rating": 78,
      "count": 6
    },
    {
      "name": "Abraham",
      "player_id": 231352,
      "position": "ST",
      "rarity": "rare",
      "version": "gold",
      "rating": 82,
      "count": 6
    },
    {
      "name": "Tapsoba",
      "player_id": 247263,
      "position": "CB",
      "rarity": "rare",
      "version": "gold",
      "rating": 81,
      "count": 6
    },
    {
      "name": "Dumfries",
      "player_id": 233096,
      "position": "RWB",
      "rarity": "rare",
      "version": "gold",
      "rating": 82,
      "count": 6
    },
    {
      "name": "de Vrij",
      "player_id": 198176,
      "position": "CB",
      "rarity": "rare",
      "version": "gold",
      "rating": 84,
      "count": 6
    },
    {
      "name": "Matip",
      "player_id": 197061,
      "position": "CB",
      "rarity": "rare",
      "version": "gold",
      "rating": 84,
      "count": 6
    },
    {
      "name": "Fabiański",
      "player_id": 164835,
      "position": "GK",
      "rarity": "rare",
      "version": "gold",
      "rating": 82,
      "count": 6
    },
    {
      "name": "Angeliño",
      "player_id": 220651,
      "position": "LWB",
      "rarity": "rare",
      "version": "gold",
      "rating": 83,
      "count": 6
    },
    {
      "name": "Haller",
      "player_id": 205693,
      "position": "ST",
      "rarity": "rare",
      "version": "gold",
      "rating": 82,
      "count": 6
    },
    {
      "name": "Zapata",
      "player_id": 215333,
      "position": "ST",
      "rarity": "rare",
      "version": "gold",
      "rating": 83,
      "count": 5
    },
    {
      "name": "Tielemans",
      "player_id": 216393,
      "position": "CM",
      "rarity": "rare",
      "version": "gold",
      "rating": 84,
      "count": 5
    },
    {
      "name": "Dia",
      "player_id": 246242,
      "position": "ST",
      "rarity": "common",
      "version": "gold",
      "rating": 79,
      "count": 5
    },
    {
      "name": "Trimmel",
      "player_id": 193254,
      "position": "RWB",
      "rarity": "common",
      "version": "gold",
      "rating": 77,
      "count": 5
    },
    {
      "name": "Sánchez",
      "player_id": 220793,
      "position": "CB",
      "rarity": "rare",
      "version": "gold",
      "rating": 79,
      "count": 5
    },
    {
      "name": "Coutinho",
      "player_id": 189242,
      "position": "CAM",
      "rarity": "rare",
      "version": "gold",
      "rating": 82,
      "count": 4
    },
    {
      "name": "Pessina",
      "player_id": 239613,
      "position": "CAM",
      "rarity": "common",
      "version": "gold",
      "rating": 77,
      "count": 4
    },
    {
      "name": "Keïta",
      "player_id": 220971,
      "position": "CM",
      "rarity": "rare",
      "version": "gold",
      "rating": 81,
      "count": 4
    },
    {
      "name": "Vecino",
      "player_id": 219985,
      "position": "CM",
      "rarity": "common",
      "version": "gold",
      "rating": 77,
      "count": 4
    },
    {
      "name": "Mavropanos",
      "player_id": 242000,
      "position": "CB",
      "rarity": "rare",
      "version": "gold",
      "rating": 78,
      "count": 4
    },
    {
      "name": "Quagliarella",
      "player_id": 159261,
      "position": "ST",
      "rarity": "common",
      "version": "gold",
      "rating": 76,
      "count": 4
    },
    {
      "name": "Borré",
      "player_id": 220883,
      "position": "ST",
      "rarity": "rare",
      "version": "gold",
      "rating": 78,
      "count": 4
    },
    {
      "name": "Henry",
      "player_id": 231835,
      "position": "ST",
      "rarity": "common",
      "version": "gold",
      "rating": 76,
      "count": 4
    },
    {
      "name": "Demirbay",
      "player_id": 211748,
      "position": "CM",
      "rarity": "rare",
      "version": "gold",
      "rating": 81,
      "count": 4
    },
    {
      "name": "Zappacosta",
      "player_id": 216150,
      "position": "LWB",
      "rarity": "common",
      "version": "gold",
      "rating": 79,
      "count": 3
    },
    {
      "name": "Pobega",
      "player_id": 252060,
      "position": "CM",
      "rarity": "rare",
      "version": "gold",
      "rating": 76,
      "count": 3
    },
    {
      "name": "Simeone",
      "player_id": 216816,
      "position": "ST",
      "rarity": "rare",
      "version": "gold",
      "rating": 78,
      "count": 3
    },
    {
      "name": "Faraoni",
      "player_id": 195272,
      "position": "RWB",
      "rarity": "common",
      "version": "gold",
      "rating": 78,
      "count": 3
    },
    {
      "name": "Hrádecký",
      "player_id": 190941,
      "position": "GK",
      "rarity": "rare",
      "version": "gold",
      "rating": 83,
      "count": 3
    },
    {
      "name": "Bonucci",
      "player_id": 184344,
      "position": "CB",
      "rarity": "rare",
      "version": "gold",
      "rating": 84,
      "count": 3
    },
    {
      "name": "Casteels",
      "player_id": 192984,
      "position": "GK",
      "rarity": "rare",
      "version": "gold",
      "rating": 84,
      "count": 3
    },
    {
      "name": "Chilwell",
      "player_id": 229984,
      "position": "LWB",
      "rarity": "rare",
      "version": "gold",
      "rating": 82,
      "count": 3
    },
    {
      "name": "Elmas",
      "player_id": 241390,
      "position": "CAM",
      "rarity": "common",
      "version": "gold",
      "rating": 78,
      "count": 3
    },
    {
      "name": "Jonny",
      "player_id": 210455,
      "position": "LWB",
      "rarity": "common",
      "version": "gold",
      "rating": 79,
      "count": 3
    },
    {
      "name": "Romagnoli",
      "player_id": 210413,
      "position": "CB",
      "rarity": "common",
      "version": "gold",
      "rating": 80,
      "count": 3
    },
    {
      "name": "Aït Nouri",
      "player_id": 242641,
      "position": "LWB",
      "rarity": "common",
      "version": "gold",
      "rating": 76,
      "count": 3
    },
    {
      "name": "Rúben Neves",
      "player_id": 224293,
      "position": "CM",
      "rarity": "rare",
      "version": "gold",
      "rating": 83,
      "count": 2
    },
    {
      "name": "Jiménez",
      "player_id": 204838,
      "position": "ST",
      "rarity": "common",
      "version": "gold",
      "rating": 82,
      "count": 2
    },
    {
      "name": "Milik",
      "player_id": 205175,
      "position": "ST",
      "rarity": "common",
      "version": "gold",
      "rating": 79,
      "count": 2
    },
    {
      "name": "Bastoni",
      "player_id": 237383,
      "position": "CB",
      "rarity": "rare",
      "version": "gold",
      "rating": 84,
      "count": 2
    },
    {
      "name": "Arnautović",
      "player_id": 184200,
      "position": "ST",
      "rarity": "rare",
      "version": "gold",
      "rating": 82,
      "count": 2
    },
    {
      "name": "Bruno Guimarães",
      "player_id": 247851,
      "position": "CM",
      "rarity": "rare",
      "version": "gold",
      "rating": 81,
      "count": 2
    },
    {
      "name": "Bentancur",
      "player_id": 227535,
      "position": "CM",
      "rarity": "rare",
      "version": "gold",
      "rating": 79,
      "count": 2
    },
    {
      "name": "Maddison",
      "player_id": 220697,
      "position": "CAM",
      "rarity": "rare",
      "version": "gold",
      "rating": 82,
      "count": 2
    },
    {
      "name": "Szoboszlai",
      "player_id": 236772,
      "position": "CAM",
      "rarity": "rare",
      "version": "gold",
      "rating": 79,
      "count": 2
    },
    {
      "name": "Çalhanoğlu",
      "player_id": 208128,
      "position": "CM",
      "rarity": "rare",
      "version": "gold",
      "rating": 84,
      "count": 2
    },
    {
      "name": "Widmer",
      "player_id": 216158,
      "position": "RWB",
      "rarity": "common",
      "version": "gold",
      "rating": 77,
      "count": 2
    },
    {
      "name": "Niakhaté",
      "player_id": 225859,
      "position": "CB",
      "rarity": "rare",
      "version": "gold",
      "rating": 78,
      "count": 2
    },
    {
      "name": "Simakan",
      "player_id": 243854,
      "position": "CB",
      "rarity": "rare",
      "version": "gold",
      "rating": 78,
      "count": 2
    },
    {
      "name": "Arthur Cabral",
      "player_id": 246186,
      "position": "ST",
      "rarity": "common",
      "version": "gold",
      "rating": 77,
      "count": 2
    },
    {
      "name": "Mateta",
      "player_id": 236461,
      "position": "ST",
      "rarity": "common",
      "version": "gold",
      "rating": 76,
      "count": 2
    },
    {
      "name": "Wijnaldum",
      "player_id": 181291,
      "position": "CM",
      "rarity": "rare",
      "version": "gold",
      "rating": 80,
      "count": 2
    },
    {
      "name": "Svanberg",
      "player_id": 228946,
      "position": "CM",
      "rarity": "common",
      "version": "gold",
      "rating": 76,
      "count": 2
    },
    {
      "name": "Antonio",
      "player_id": 190717,
      "position": "ST",
      "rarity": "rare",
      "version": "gold",
      "rating": 79,
      "count": 2
    },
    {
      "name": "Endo",
      "player_id": 232487,
      "position": "CM",
      "rarity": "rare",
      "version": "gold",
      "rating": 78,
      "count": 2
    },
    {
      "name": "Diallo",
      "player_id": 225711,
      "position": "CB",
      "rarity": "common",
      "version": "gold",
      "rating": 77,
      "count": 2
    },
    {
      "name": "Brahim",
      "player_id": 231410,
      "position": "CAM",
      "rarity": "rare",
      "version": "gold",
      "rating": 78,
      "count": 2
    },
    {
      "name": "Bajrami",
      "player_id": 237640,
      "position": "CAM",
      "rarity": "common",
      "version": "gold",
      "rating": 76,
      "count": 2
    },
    {
      "name": "Struijk",
      "player_id": 239360,
      "position": "CB",
      "rarity": "common",
      "version": "gold",
      "rating": 76,
      "count": 2
    },
    {
      "name": "Bonaventura",
      "player_id": 189125,
      "position": "CM",
      "rarity": "common",
      "version": "gold",
      "rating": 78,
      "count": 2
    },
    {
      "name": "Forsberg",
      "player_id": 208448,
      "position": "CAM",
      "rarity": "rare",
      "version": "gold",
      "rating": 81,
      "count": 2
    },
    {
      "name": "Shelvey",
      "player_id": 189165,
      "position": "CM",
      "rarity": "common",
      "version": "gold",
      "rating": 77,
      "count": 1
    },
    {
      "name": "Tuta",
      "player_id": 247182,
      "position": "CB",
      "rarity": "common",
      "version": "gold",
      "rating": 77,
      "count": 1
    },
    {
      "name": "Kalajdžić",
      "player_id": 239901,
      "position": "ST",
      "rarity": "common",
      "version": "gold",
      "rating": 78,
      "count": 1
    },
    {
      "name": "Kampl",
      "player_id": 195365,
      "position": "CM",
      "rarity": "common",
      "version": "gold",
      "rating": 80,
      "count": 1
    },
    {
      "name": "Maggiore",
      "player_id": 236368,
      "position": "CM",
      "rarity": "common",
      "version": "gold",
      "rating": 77,
      "count": 1
    },
    {
      "name": "José Sá",
      "player_id": 212442,
      "position": "GK",
      "rarity": "rare",
      "version": "gold",
      "rating": 81,
      "count": 1
    },
    {
      "name": "Ginter",
      "player_id": 207862,
      "position": "CB",
      "rarity": "common",
      "version": "gold",
      "rating": 82,
      "count": 1
    },
    {
      "name": "Frattesi",
      "player_id": 239807,
      "position": "CM",
      "rarity": "common",
      "version": "gold",
      "rating": 77,
      "count": 1
    },
    {
      "name": "Vogt",
      "player_id": 192641,
      "position": "CB",
      "rarity": "common",
      "version": "gold",
      "rating": 76,
      "count": 1
    },
    {
      "name": "Salisu",
      "player_id": 244915,
      "position": "CB",
      "rarity": "common",
      "version": "gold",
      "rating": 77,
      "count": 1
    },
    {
      "name": "Kalulu",
      "player_id": 255654,
      "position": "CB",
      "rarity": "rare",
      "version": "gold",
      "rating": 78,
      "count": 1
    },
    {
      "name": "Raum",
      "player_id": 236703,
      "position": "LWB",
      "rarity": "rare",
      "version": "gold",
      "rating": 81,
      "count": 1
    },
    {
      "name": "Hummels",
      "player_id": 178603,
      "position": "CB",
      "rarity": "rare",
      "version": "gold",
      "rating": 84,
      "count": 1
    },
    {
      "name": "Sabitzer",
      "player_id": 204923,
      "position": "CM",
      "rarity": "rare",
      "version": "gold",
      "rating": 80,
      "count": 1
    },
    {
      "name": "Brandt",
      "player_id": 212194,
      "position": "CAM",
      "rarity": "rare",
      "version": "gold",
      "rating": 82,
      "count": 1
    },
    {
      "name": "Adams",
      "player_id": 226093,
      "position": "ST",
      "rarity": "common",
      "version": "gold",
      "rating": 76,
      "count": 1
    },
    {
      "name": "Diego Llorente",
      "player_id": 212602,
      "position": "CB",
      "rarity": "common",
      "version": "gold",
      "rating": 76,
      "count": 1
    },
    {
      "name": "Rodrigo",
      "player_id": 198329,
      "position": "CAM",
      "rarity": "common",
      "version": "gold",
      "rating": 77,
      "count": 1
    },
    {
      "name": "Freuler",
      "player_id": 202024,
      "position": "CM",
      "rarity": "common",
      "version": "gold",
      "rating": 80,
      "count": 1
    },
    {
      "name": "Skorupski",
      "player_id": 189908,
      "position": "GK",
      "rarity": "common",
      "version": "gold",
      "rating": 76,
      "count": 1
    },
    {
      "name": "Wood",
      "player_id": 192123,
      "position": "ST",
      "rarity": "common",
      "version": "gold",
      "rating": 76,
      "count": 1
    },
    {
      "name": "Henderson",
      "player_id": 183711,
      "position": "CM",
      "rarity": "rare",
      "version": "gold",
      "rating": 83,
      "count": 1
    },
    {
      "name": "Bebou",
      "player_id": 216258,
      "position": "ST",
      "rarity": "rare",
      "version": "gold",
      "rating": 77,
      "count": 1
    },
    {
      "name": "Reyna",
      "player_id": 245541,
      "position": "CAM",
      "rarity": "common",
      "version": "gold",
      "rating": 77,
      "count": 1
    },
    {
      "name": "Miranchuk",
      "player_id": 214092,
      "position": "CAM",
      "rarity": "common",
      "version": "gold",
      "rating": 78,
      "count": 1
    },
    {
      "name": "Smalling",
      "player_id": 189881,
      "position": "CB",
      "rarity": "common",
      "version": "gold",
      "rating": 81,
      "count": 1
    },
    {
      "name": "Edouard",
      "player_id": 233866,
      "position": "ST",
      "rarity": "rare",
      "version": "gold",
      "rating": 76,
      "count": 1
    },
    {
      "name": "Ndicka",
      "player_id": 236403,
      "position": "CB",
      "rarity": "rare",
      "version": "gold",
      "rating": 81,
      "count": 1
    },
    {
      "name": "Tah",
      "player_id": 213331,
      "position": "CB",
      "rarity": "rare",
      "version": "gold",
      "rating": 82,
      "count": 1
    },
    {
      "name": "Kamada",
      "player_id": 232730,
      "position": "CAM",
      "rarity": "common",
      "version": "gold",
      "rating": 80,
      "count": 1
    },
    {
      "name": "Mancini",
      "player_id": 229582,
      "position": "CB",
      "rarity": "common",
      "version": "gold",
      "rating": 81,
      "count": 1
    },
    {
      "name": "Kobel",
      "player_id": 235073,
      "position": "GK",
      "rarity": "rare",
      "version": "gold",
      "rating": 83,
      "count": 1
    },
    {
      "name": "Konsa",
      "player_id": 227678,
      "position": "CB",
      "rarity": "rare",
      "version": "gold",
      "rating": 79,
      "count": 1
    },
    {
      "name": "Ilić",
      "player_id": 258683,
      "position": "CM",
      "rarity": "common",
      "version": "gold",
      "rating": 76,
      "count": 1
    },
    {
      "name": "Faes",
      "player_id": 235036,
      "position": "CB",
      "rarity": "common",
      "version": "gold",
      "rating": 77,
      "count": 1
    },
    {
      "name": "Mount",
      "player_id": 233064,
      "position": "CAM",
      "rarity": "rare",
      "version": "gold",
      "rating": 84,
      "count": 1
    },
    {
      "name": "Singo",
      "player_id": 252802,
      "position": "RWB",
      "rarity": "common",
      "version": "gold",
      "rating": 76,
      "count": 1
    },
    {
      "name": "Haidara",
      "player_id": 238463,
      "position": "CM",
      "rarity": "common",
      "version": "gold",
      "rating": 78,
      "count": 1
    },
    {
      "name": "Günter",
      "player_id": 204451,
      "position": "CB",
      "rarity": "common",
      "version": "gold",
      "rating": 76,
      "count": 1
    },
    {
      "name": "Audero",
      "player_id": 228413,
      "position": "GK",
      "rarity": "common",
      "version": "gold",
      "rating": 78,
      "count": 1
    },
    {
      "name": "Ndombele",
      "player_id": 235569,
      "position": "CM",
      "rarity": "common",
      "version": "gold",
      "rating": 79,
      "count": 1
    },
    {
      "name": "Umtiti",
      "player_id": 205600,
      "position": "CB",
      "rarity": "common",
      "version": "gold",
      "rating": 79,
      "count": 1
    },
    {
      "name": "Musiala",
      "player_id": 256790,
      "position": "CM",
      "rarity": "rare",
      "version": "gold",
      "rating": 81,
      "count": 1
    },
    {
      "name": "Gerhardt",
      "player_id": 212245,
      "position": "CM",
      "rarity": "common",
      "version": "gold",
      "rating": 76,
      "count": 1
    },
    {
      "name": "Guirassy",
      "player_id": 215441,
      "position": "ST",
      "rarity": "common",
      "version": "gold",
      "rating": 76,
      "count": 1
    },
    {
      "name": "Awoniyi",
      "player_id": 230978,
      "position": "ST",
      "rarity": "common",
      "version": "gold",
      "rating": 77,
      "count": 1
    },
    {
      "name": "Baumgartl",
      "player_id": 223641,
      "position": "CB",
      "rarity": "common",
      "version": "gold",
      "rating": 76,
      "count": 1
    },
    {
      "name": "Krunić",
      "player_id": 229758,
      "position": "CM",
      "rarity": "common",
      "version": "gold",
      "rating": 77,
      "count": 1
    },
    {
      "name": "Stones",
      "player_id": 203574,
      "position": "CB",
      "rarity": "rare",
      "version": "gold",
      "rating": 83,
      "count": 1
    },
    {
      "name": "Maupay",
      "player_id": 211784,
      "position": "ST",
      "rarity": "common",
      "version": "gold",
      "rating": 76,
      "count": 1
    },
    {
      "name": "Lukić",
      "player_id": 236699,
      "position": "CM",
      "rarity": "common",
      "version": "gold",
      "rating": 77,
      "count": 1
    },
    {
      "name": "Gollini",
      "player_id": 211515,
      "position": "GK",
      "rarity": "common",
      "version": "gold",
      "rating": 78,
      "count": 1
    },
    {
      "name": "Sow",
      "player_id": 229752,
      "position": "CM",
      "rarity": "rare",
      "version": "gold",
      "rating": 80,
      "count": 1
    },
    {
      "name": "Azmoun",
      "player_id": 213955,
      "position": "ST",
      "rarity": "rare",
      "version": "gold",
      "rating": 80,
      "count": 1
    },
    {
      "name": "Acerbi",
      "player_id": 199845,
      "position": "CB",
      "rarity": "common",
      "version": "gold",
      "rating": 82,
      "count": 1
    },
    {
      "name": "André Silva",
      "player_id": 228941,
      "position": "ST",
      "rarity": "rare",
      "version": "gold",
      "rating": 82,
      "count": 1
    },
    {
      "name": "Turner",
      "player_id": 233267,
      "position": "GK",
      "rarity": "common",
      "version": "gold",
      "rating": 77,
      "count": 1
    },
    {
      "name": "Luís Maximiano",
      "player_id": 244316,
      "position": "GK",
      "rarity": "common",
      "version": "gold",
      "rating": 79,
      "count": 1
    },
    {
      "name": "Praet",
      "player_id": 199652,
      "position": "CAM",
      "rarity": "common",
      "version": "gold",
      "rating": 78,
      "count": 1
    },
    {
      "name": "Džeko",
      "player_id": 180930,
      "position": "ST",
      "rarity": "rare",
      "version": "gold",
      "rating": 84,
      "count": 1
    },
    {
      "name": "Strakosha",
      "player_id": 212151,
      "position": "GK",
      "rarity": "common",
      "version": "gold",
      "rating": 78,
      "count": 1
    },
    {
      "name": "Guilbert",
      "player_id": 227222,
      "position": "RWB",
      "rarity": "common",
      "version": "gold",
      "rating": 78,
      "count": 1
    },
    {
      "name": "Rugani",
      "player_id": 211320,
      "position": "CB",
      "rarity": "common",
      "version": "gold",
      "rating": 76,
      "count": 1
    }
  ]
}