{
  "write_ts": "2022-09-29T10:00:52.199Z",
  "players": [
    {
      "name": "Marušić",
      "player_id": 224031,
      "position": "LB",
      "rarity": "rare",
      "version": "gold",
      "rating": 79,
      "count": 9
    },
    {
      "name": "Çakır",
      "player_id": 226300,
      "position": "GK",
      "rarity": "rare",
      "version": "gold",
      "rating": 80,
      "count": 8
    },
    {
      "name": "Svensson",
      "player_id": 198657,
      "position": "RB",
      "rarity": "rare",
      "version": "gold",
      "rating": 77,
      "count": 8
    },
    {
      "name": "Sulemana",
      "player_id": 256035,
      "position": "LW",
      "rarity": "common",
      "version": "gold",
      "rating": 75,
      "count": 8
    },
    {
      "name": "Midtsjø",
      "player_id": 198658,
      "position": "CM",
      "rarity": "common",
      "version": "gold",
      "rating": 77,
      "count": 7
    },
    {
      "name": "Toprak",
      "player_id": 185239,
      "position": "CB",
      "rarity": "common",
      "version": "gold",
      "rating": 76,
      "count": 7
    },
    {
      "name": "Gabriel Strefezza",
      "player_id": 235949,
      "position": "RW",
      "rarity": "common",
      "version": "gold",
      "rating": 75,
      "count": 7
    },
    {
      "name": "Gedson Fernandes",
      "player_id": 234568,
      "position": "CM",
      "rarity": "rare",
      "version": "gold",
      "rating": 77,
      "count": 7
    },
    {
      "name": "Hamšík",
      "player_id": 171877,
      "position": "CM",
      "rarity": "rare",
      "version": "gold",
      "rating": 80,
      "count": 6
    },
    {
      "name": "Masuaku",
      "player_id": 212491,
      "position": "LB",
      "rarity": "common",
      "version": "gold",
      "rating": 75,
      "count": 6
    },
    {
      "name": "Dest",
      "player_id": 251804,
      "position": "RB",
      "rarity": "rare",
      "version": "gold",
      "rating": 77,
      "count": 6
    },
    {
      "name": "Janson",
      "player_id": 215202,
      "position": "LW",
      "rarity": "rare",
      "version": "special",
      "rating": 75,
      "count": 5
    },
    {
      "name": "Romero",
      "player_id": 220334,
      "position": "CAM",
      "rarity": "rare",
      "version": "special",
      "rating": 76,
      "count": 5
    },
    {
      "name": "Traoré",
      "player_id": 219789,
      "position": "RB",
      "rarity": "rare",
      "version": "gold",
      "rating": 80,
      "count": 5
    },
    {
      "name": "Lukić",
      "player_id": 236699,
      "position": "CM",
      "rarity": "common",
      "version": "gold",
      "rating": 77,
      "count": 5
    },
    {
      "name": "Ilić",
      "player_id": 258683,
      "position": "CM",
      "rarity": "common",
      "version": "gold",
      "rating": 76,
      "count": 5
    },
    {
      "name": "Zuqui",
      "player_id": 215155,
      "position": "CM",
      "rarity": "rare",
      "version": "special",
      "rating": 75,
      "count": 4
    },
    {
      "name": "Díaz",
      "player_id": 214436,
      "position": "CB",
      "rarity": "rare",
      "version": "special",
      "rating": 77,
      "count": 4
    },
    {
      "name": "Díaz",
      "player_id": 176930,
      "position": "CDM",
      "rarity": "rare",
      "version": "special",
      "rating": 75,
      "count": 4
    },
    {
      "name": "Burián",
      "player_id": 176526,
      "position": "GK",
      "rarity": "rare",
      "version": "special",
      "rating": 75,
      "count": 4
    },
    {
      "name": "Muslera",
      "player_id": 182494,
      "position": "GK",
      "rarity": "common",
      "version": "gold",
      "rating": 79,
      "count": 4
    },
    {
      "name": "Isla",
      "player_id": 187800,
      "position": "RB",
      "rarity": "rare",
      "version": "special",
      "rating": 76,
      "count": 4
    },
    {
      "name": "Fabra",
      "player_id": 214040,
      "position": "LB",
      "rarity": "rare",
      "version": "special",
      "rating": 76,
      "count": 4
    },
    {
      "name": "Lees-Melou",
      "player_id": 230020,
      "position": "CM",
      "rarity": "common",
      "version": "gold",
      "rating": 75,
      "count": 4
    },
    {
      "name": "Aliendro",
      "player_id": 233029,
      "position": "CM",
      "rarity": "rare",
      "version": "special",
      "rating": 76,
      "count": 4
    },
    {
      "name": "Boselli",
      "player_id": 161938,
      "position": "ST",
      "rarity": "rare",
      "version": "special",
      "rating": 76,
      "count": 4
    },
    {
      "name": "Kulusevski",
      "player_id": 247394,
      "position": "RW",
      "rarity": "rare",
      "version": "gold",
      "rating": 81,
      "count": 4
    },
    {
      "name": "Godín",
      "player_id": 182493,
      "position": "CB",
      "rarity": "rare",
      "version": "special",
      "rating": 77,
      "count": 4
    },
    {
      "name": "Gutiérrez",
      "player_id": 196150,
      "position": "ST",
      "rarity": "rare",
      "version": "special",
      "rating": 75,
      "count": 4
    },
    {
      "name": "Miguel Veloso",
      "player_id": 178007,
      "position": "CM",
      "rarity": "common",
      "version": "gold",
      "rating": 77,
      "count": 4
    },
    {
      "name": "Rodríguez",
      "player_id": 205119,
      "position": "CDM",
      "rarity": "rare",
      "version": "special",
      "rating": 75,
      "count": 4
    },
    {
      "name": "Palavecino",
      "player_id": 247450,
      "position": "CM",
      "rarity": "rare",
      "version": "special",
      "rating": 75,
      "count": 4
    },
    {
      "name": "Vecino",
      "player_id": 219985,
      "position": "CM",
      "rarity": "common",
      "version": "gold",
      "rating": 77,
      "count": 4
    },
    {
      "name": "Dawidowicz",
      "player_id": 213404,
      "position": "CB",
      "rarity": "common",
      "version": "gold",
      "rating": 75,
      "count": 4
    },
    {
      "name": "Silva",
      "player_id": 198653,
      "position": "GK",
      "rarity": "rare",
      "version": "special",
      "rating": 75,
      "count": 3
    },
    {
      "name": "Duncan",
      "player_id": 208535,
      "position": "CM",
      "rarity": "rare",
      "version": "gold",
      "rating": 75,
      "count": 3
    },
    {
      "name": "Advíncula",
      "player_id": 204539,
      "position": "RB",
      "rarity": "rare",
      "version": "special",
      "rating": 76,
      "count": 3
    },
    {
      "name": "Dennis",
      "player_id": 239015,
      "position": "ST",
      "rarity": "rare",
      "version": "gold",
      "rating": 76,
      "count": 3
    },
    {
      "name": "Aguilar",
      "player_id": 182941,
      "position": "CB",
      "rarity": "rare",
      "version": "special",
      "rating": 75,
      "count": 3
    },
    {
      "name": "Pizzini",
      "player_id": 214971,
      "position": "RM",
      "rarity": "rare",
      "version": "special",
      "rating": 75,
      "count": 3
    },
    {
      "name": "Kolašinac",
      "player_id": 207993,
      "position": "LB",
      "rarity": "common",
      "version": "gold",
      "rating": 75,
      "count": 3
    },
    {
      "name": "Kristensen",
      "player_id": 233301,
      "position": "RB",
      "rarity": "rare",
      "version": "gold",
      "rating": 77,
      "count": 3
    },
    {
      "name": "Rojas",
      "player_id": 246914,
      "position": "RB",
      "rarity": "rare",
      "version": "special",
      "rating": 75,
      "count": 3
    },
    {
      "name": "Andújar",
      "player_id": 173857,
      "position": "GK",
      "rarity": "rare",
      "version": "special",
      "rating": 75,
      "count": 3
    },
    {
      "name": "Sérgio Oliveira",
      "player_id": 198031,
      "position": "CM",
      "rarity": "common",
      "version": "gold",
      "rating": 79,
      "count": 3
    },
    {
      "name": "Rodríguez",
      "player_id": 224796,
      "position": "CDM",
      "rarity": "rare",
      "version": "special",
      "rating": 75,
      "count": 3
    },
    {
      "name": "Ito",
      "player_id": 232905,
      "position": "RW",
      "rarity": "rare",
      "version": "gold",
      "rating": 78,
      "count": 3
    },
    {
      "name": "Gomis",
      "player_id": 159145,
      "position": "ST",
      "rarity": "common",
      "version": "gold",
      "rating": 75,
      "count": 3
    },
    {
      "name": "André Gomes",
      "player_id": 211575,
      "position": "CM",
      "rarity": "common",
      "version": "gold",
      "rating": 75,
      "count": 3
    },
    {
      "name": "Delort",
      "player_id": 193983,
      "position": "ST",
      "rarity": "rare",
      "version": "gold",
      "rating": 80,
      "count": 3
    },
    {
      "name": "Aidoo",
      "player_id": 230021,
      "position": "CB",
      "rarity": "rare",
      "version": "gold",
      "rating": 78,
      "count": 3
    },
    {
      "name": "Colley",
      "player_id": 226536,
      "position": "CB",
      "rarity": "common",
      "version": "gold",
      "rating": 75,
      "count": 3
    },
    {
      "name": "Radu",
      "player_id": 165109,
      "position": "CB",
      "rarity": "common",
      "version": "gold",
      "rating": 75,
      "count": 3
    },
    {
      "name": "Drągowski",
      "player_id": 215502,
      "position": "GK",
      "rarity": "common",
      "version": "gold",
      "rating": 75,
      "count": 3
    },
    {
      "name": "Fernández",
      "player_id": 211269,
      "position": "CM",
      "rarity": "rare",
      "version": "special",
      "rating": 76,
      "count": 3
    },
    {
      "name": "Rodrigo Ely",
      "player_id": 202445,
      "position": "CB",
      "rarity": "common",
      "version": "gold",
      "rating": 75,
      "count": 3
    },
    {
      "name": "Bou",
      "player_id": 224510,
      "position": "ST",
      "rarity": "rare",
      "version": "special",
      "rating": 75,
      "count": 3
    },
    {
      "name": "Sottil",
      "player_id": 246431,
      "position": "LW",
      "rarity": "common",
      "version": "gold",
      "rating": 75,
      "count": 3
    },
    {
      "name": "Bruma",
      "player_id": 211368,
      "position": "LW",
      "rarity": "rare",
      "version": "gold",
      "rating": 77,
      "count": 3
    },
    {
      "name": "Krunić",
      "player_id": 229758,
      "position": "CM",
      "rarity": "common",
      "version": "gold",
      "rating": 77,
      "count": 3
    },
    {
      "name": "Piątek",
      "player_id": 223113,
      "position": "ST",
      "rarity": "common",
      "version": "gold",
      "rating": 75,
      "count": 3
    },
    {
      "name": "Rakitskyi",
      "player_id": 195861,
      "position": "CB",
      "rarity": "rare",
      "version": "gold",
      "rating": 79,
      "count": 3
    },
    {
      "name": "Sornoza",
      "player_id": 220739,
      "position": "CAM",
      "rarity": "rare",
      "version": "special",
      "rating": 75,
      "count": 3
    },
    {
      "name": "Di Francesco",
      "player_id": 213814,
      "position": "LW",
      "rarity": "common",
      "version": "gold",
      "rating": 76,
      "count": 3
    },
    {
      "name": "Musso",
      "player_id": 214979,
      "position": "GK",
      "rarity": "rare",
      "version": "gold",
      "rating": 81,
      "count": 3
    },
    {
      "name": "Lotomba",
      "player_id": 234686,
      "position": "RB",
      "rarity": "common",
      "version": "gold",
      "rating": 75,
      "count": 2
    },
    {
      "name": "Tolisso",
      "player_id": 219683,
      "position": "CM",
      "rarity": "rare",
      "version": "gold",
      "rating": 81,
      "count": 2
    },
    {
      "name": "Destro",
      "player_id": 193338,
      "position": "ST",
      "rarity": "common",
      "version": "gold",
      "rating": 75,
      "count": 2
    },
    {
      "name": "Bongonda",
      "player_id": 217877,
      "position": "LW",
      "rarity": "common",
      "version": "gold",
      "rating": 75,
      "count": 2
    },
    {
      "name": "Mbemba",
      "player_id": 210897,
      "position": "CB",
      "rarity": "rare",
      "version": "gold",
      "rating": 79,
      "count": 2
    },
    {
      "name": "Laborde",
      "player_id": 209519,
      "position": "ST",
      "rarity": "rare",
      "version": "gold",
      "rating": 81,
      "count": 2
    },
    {
      "name": "Bednarek",
      "player_id": 220570,
      "position": "CB",
      "rarity": "common",
      "version": "gold",
      "rating": 76,
      "count": 2
    },
    {
      "name": "Espino",
      "player_id": 247131,
      "position": "LB",
      "rarity": "rare",
      "version": "gold",
      "rating": 78,
      "count": 2
    },
    {
      "name": "Davies",
      "player_id": 230005,
      "position": "CM",
      "rarity": "common",
      "version": "gold",
      "rating": 75,
      "count": 2
    },
    {
      "name": "Cairney",
      "player_id": 195202,
      "position": "CM",
      "rarity": "common",
      "version": "gold",
      "rating": 75,
      "count": 2
    },
    {
      "name": "Billing",
      "player_id": 220714,
      "position": "CM",
      "rarity": "common",
      "version": "gold",
      "rating": 75,
      "count": 2
    },
    {
      "name": "Fabiański",
      "player_id": 164835,
      "position": "GK",
      "rarity": "rare",
      "version": "gold",
      "rating": 82,
      "count": 2
    },
    {
      "name": "Nagbe",
      "player_id": 202078,
      "position": "CM",
      "rarity": "common",
      "version": "gold",
      "rating": 75,
      "count": 2
    },
    {
      "name": "Lemina",
      "player_id": 212811,
      "position": "CM",
      "rarity": "common",
      "version": "gold",
      "rating": 75,
      "count": 2
    },
    {
      "name": "Meslier",
      "player_id": 242656,
      "position": "GK",
      "rarity": "common",
      "version": "gold",
      "rating": 77,
      "count": 2
    },
    {
      "name": "Bravo",
      "player_id": 174543,
      "position": "GK",
      "rarity": "common",
      "version": "gold",
      "rating": 78,
      "count": 2
    },
    {
      "name": "Ramsey",
      "player_id": 186561,
      "position": "CM",
      "rarity": "common",
      "version": "gold",
      "rating": 76,
      "count": 2
    },
    {
      "name": "Żurkowski",
      "player_id": 239732,
      "position": "CM",
      "rarity": "rare",
      "version": "gold",
      "rating": 76,
      "count": 2
    },
    {
      "name": "Gradel",
      "player_id": 182945,
      "position": "LW",
      "rarity": "common",
      "version": "gold",
      "rating": 76,
      "count": 2
    },
    {
      "name": "Grenier",
      "player_id": 187924,
      "position": "CM",
      "rarity": "common",
      "version": "gold",
      "rating": 75,
      "count": 2
    },
    {
      "name": "Ricardo Horta",
      "player_id": 213516,
      "position": "CF",
      "rarity": "rare",
      "version": "gold",
      "rating": 81,
      "count": 2
    },
    {
      "name": "Sørloth",
      "player_id": 216549,
      "position": "ST",
      "rarity": "common",
      "version": "gold",
      "rating": 76,
      "count": 2
    },
    {
      "name": "Jean Lucas",
      "player_id": 251217,
      "position": "CM",
      "rarity": "common",
      "version": "gold",
      "rating": 75,
      "count": 2
    },
    {
      "name": "Herrera",
      "player_id": 234060,
      "position": "CM",
      "rarity": "common",
      "version": "gold",
      "rating": 76,
      "count": 2
    },
    {
      "name": "Chardonnet",
      "player_id": 215410,
      "position": "CB",
      "rarity": "common",
      "version": "gold",
      "rating": 75,
      "count": 2
    },
    {
      "name": "David",
      "player_id": 243630,
      "position": "ST",
      "rarity": "rare",
      "version": "gold",
      "rating": 79,
      "count": 2
    },
    {
      "name": "Douglas Luiz",
      "player_id": 236499,
      "position": "CDM",
      "rarity": "common",
      "version": "gold",
      "rating": 78,
      "count": 2
    },
    {
      "name": "Pérez",
      "player_id": 244206,
      "position": "CB",
      "rarity": "common",
      "version": "gold",
      "rating": 75,
      "count": 2
    },
    {
      "name": "Theate",
      "player_id": 257278,
      "position": "CB",
      "rarity": "common",
      "version": "gold",
      "rating": 75,
      "count": 2
    },
    {
      "name": "Bensebaini",
      "player_id": 224196,
      "position": "LB",
      "rarity": "common",
      "version": "gold",
      "rating": 78,
      "count": 2
    },
    {
      "name": "Tetê",
      "player_id": 247641,
      "position": "RW",
      "rarity": "common",
      "version": "gold",
      "rating": 76,
      "count": 2
    },
    {
      "name": "Farías",
      "player_id": 256287,
      "position": "ST",
      "rarity": "rare",
      "version": "special",
      "rating": 75,
      "count": 2
    },
    {
      "name": "Henry",
      "player_id": 231835,
      "position": "ST",
      "rarity": "common",
      "version": "gold",
      "rating": 76,
      "count": 2
    },
    {
      "name": "Borja",
      "player_id": 219862,
      "position": "ST",
      "rarity": "rare",
      "version": "special",
      "rating": 76,
      "count": 2
    },
    {
      "name": "Stojanović",
      "player_id": 225995,
      "position": "RB",
      "rarity": "common",
      "version": "gold",
      "rating": 75,
      "count": 2
    },
    {
      "name": "Posch",
      "player_id": 223671,
      "position": "CB",
      "rarity": "common",
      "version": "gold",
      "rating": 75,
      "count": 2
    },
    {
      "name": "Giannetti",
      "player_id": 215147,
      "position": "CB",
      "rarity": "rare",
      "version": "special",
      "rating": 75,
      "count": 2
    },
    {
      "name": "Junior Firpo",
      "player_id": 241184,
      "position": "LB",
      "rarity": "common",
      "version": "gold",
      "rating": 75,
      "count": 2
    },
    {
      "name": "Dallas",
      "player_id": 203570,
      "position": "CM",
      "rarity": "common",
      "version": "gold",
      "rating": 75,
      "count": 2
    },
    {
      "name": "Lo Celso",
      "player_id": 226226,
      "position": "CM",
      "rarity": "rare",
      "version": "gold",
      "rating": 81,
      "count": 2
    },
    {
      "name": "Rakitić",
      "player_id": 168651,
      "position": "CM",
      "rarity": "rare",
      "version": "gold",
      "rating": 82,
      "count": 2
    },
    {
      "name": "Gouiri",
      "player_id": 240753,
      "position": "ST",
      "rarity": "rare",
      "version": "gold",
      "rating": 79,
      "count": 2
    },
    {
      "name": "Capa",
      "player_id": 216189,
      "position": "RB",
      "rarity": "rare",
      "version": "gold",
      "rating": 77,
      "count": 2
    },
    {
      "name": "Romero",
      "player_id": 215119,
      "position": "CDM",
      "rarity": "rare",
      "version": "special",
      "rating": 76,
      "count": 2
    },
    {
      "name": "Luan Peres",
      "player_id": 234791,
      "position": "LB",
      "rarity": "common",
      "version": "gold",
      "rating": 76,
      "count": 2
    },
    {
      "name": "Luiz Adriano",
      "player_id": 180826,
      "position": "ST",
      "rarity": "common",
      "version": "gold",
      "rating": 76,
      "count": 2
    },
    {
      "name": "Pyatov",
      "player_id": 142902,
      "position": "GK",
      "rarity": "common",
      "version": "gold",
      "rating": 76,
      "count": 2
    },
    {
      "name": "Rulli",
      "player_id": 215316,
      "position": "GK",
      "rarity": "rare",
      "version": "gold",
      "rating": 82,
      "count": 2
    },
    {
      "name": "Daniel Bragança",
      "player_id": 252143,
      "position": "CM",
      "rarity": "common",
      "version": "gold",
      "rating": 75,
      "count": 2
    },
    {
      "name": "Valencia",
      "player_id": 220295,
      "position": "ST",
      "rarity": "rare",
      "version": "gold",
      "rating": 75,
      "count": 2
    },
    {
      "name": "Tătărușanu",
      "player_id": 201325,
      "position": "GK",
      "rarity": "common",
      "version": "gold",
      "rating": 76,
      "count": 2
    },
    {
      "name": "Álex Remiro",
      "player_id": 227127,
      "position": "GK",
      "rarity": "rare",
      "version": "gold",
      "rating": 82,
      "count": 2
    },
    {
      "name": "De Ketelaere",
      "player_id": 251470,
      "position": "ST",
      "rarity": "rare",
      "version": "gold",
      "rating": 78,
      "count": 2
    },
    {
      "name": "Nainggolan",
      "player_id": 178518,
      "position": "CM",
      "rarity": "rare",
      "version": "gold",
      "rating": 76,
      "count": 2
    },
    {
      "name": "Olivera",
      "player_id": 240716,
      "position": "LB",
      "rarity": "common",
      "version": "gold",
      "rating": 77,
      "count": 2
    },
    {
      "name": "Szalai",
      "player_id": 253170,
      "position": "CB",
      "rarity": "common",
      "version": "gold",
      "rating": 76,
      "count": 2
    },
    {
      "name": "Seferović",
      "player_id": 193408,
      "position": "ST",
      "rarity": "common",
      "version": "gold",
      "rating": 76,
      "count": 1
    },
    {
      "name": "Onana",
      "player_id": 226753,
      "position": "GK",
      "rarity": "rare",
      "version": "gold",
      "rating": 82,
      "count": 1
    },
    {
      "name": "Pinnock",
      "player_id": 238717,
      "position": "CB",
      "rarity": "common",
      "version": "gold",
      "rating": 75,
      "count": 1
    },
    {
      "name": "Alberto Moreno",
      "player_id": 205566,
      "position": "LB",
      "rarity": "common",
      "version": "gold",
      "rating": 77,
      "count": 1
    },
    {
      "name": "Meling",
      "player_id": 219466,
      "position": "LB",
      "rarity": "common",
      "version": "gold",
      "rating": 76,
      "count": 1
    },
    {
      "name": "Cash",
      "player_id": 227174,
      "position": "RB",
      "rarity": "common",
      "version": "gold",
      "rating": 79,
      "count": 1
    },
    {
      "name": "Ghezzal",
      "player_id": 210372,
      "position": "RW",
      "rarity": "common",
      "version": "gold",
      "rating": 79,
      "count": 1
    },
    {
      "name": "Salisu",
      "player_id": 244915,
      "position": "CB",
      "rarity": "common",
      "version": "gold",
      "rating": 77,
      "count": 1
    },
    {
      "name": "Lejeune",
      "player_id": 197948,
      "position": "CB",
      "rarity": "common",
      "version": "gold",
      "rating": 77,
      "count": 1
    },
    {
      "name": "Nørgaard",
      "player_id": 210697,
      "position": "CDM",
      "rarity": "common",
      "version": "gold",
      "rating": 76,
      "count": 1
    },
    {
      "name": "Stanciu",
      "player_id": 212207,
      "position": "CM",
      "rarity": "rare",
      "version": "gold",
      "rating": 79,
      "count": 1
    },
    {
      "name": "Perraud",
      "player_id": 231318,
      "position": "LB",
      "rarity": "common",
      "version": "gold",
      "rating": 76,
      "count": 1
    },
    {
      "name": "Rodríguez",
      "player_id": 192906,
      "position": "ST",
      "rarity": "rare",
      "version": "special",
      "rating": 77,
      "count": 1
    },
    {
      "name": "Montoro",
      "player_id": 186682,
      "position": "CDM",
      "rarity": "common",
      "version": "gold",
      "rating": 77,
      "count": 1
    },
    {
      "name": "Dubois",
      "player_id": 216643,
      "position": "RB",
      "rarity": "common",
      "version": "gold",
      "rating": 76,
      "count": 1
    },
    {
      "name": "Lucas Pérez",
      "player_id": 199354,
      "position": "ST",
      "rarity": "common",
      "version": "gold",
      "rating": 78,
      "count": 1
    },
    {
      "name": "Guilbert",
      "player_id": 227222,
      "position": "RWB",
      "rarity": "common",
      "version": "gold",
      "rating": 78,
      "count": 1
    },
    {
      "name": "Begović",
      "player_id": 172723,
      "position": "GK",
      "rarity": "common",
      "version": "gold",
      "rating": 75,
      "count": 1
    },
    {
      "name": "Strakosha",
      "player_id": 212151,
      "position": "GK",
      "rarity": "common",
      "version": "gold",
      "rating": 78,
      "count": 1
    },
    {
      "name": "Bentancur",
      "player_id": 227535,
      "position": "CM",
      "rarity": "rare",
      "version": "gold",
      "rating": 79,
      "count": 1
    },
    {
      "name": "Dendoncker",
      "player_id": 212501,
      "position": "CM",
      "rarity": "common",
      "version": "gold",
      "rating": 76,
      "count": 1
    },
    {
      "name": "Tsygankov",
      "player_id": 244369,
      "position": "RM",
      "rarity": "rare",
      "version": "gold",
      "rating": 80,
      "count": 1
    },
    {
      "name": "Truffert",
      "player_id": 256769,
      "position": "LB",
      "rarity": "common",
      "version": "gold",
      "rating": 75,
      "count": 1
    },
    {
      "name": "Balliu",
      "player_id": 203581,
      "position": "RB",
      "rarity": "common",
      "version": "gold",
      "rating": 75,
      "count": 1
    },
    {
      "name": "Lafont",
      "player_id": 231691,
      "position": "GK",
      "rarity": "rare",
      "version": "gold",
      "rating": 80,
      "count": 1
    },
    {
      "name": "Cabrera",
      "player_id": 192816,
      "position": "CB",
      "rarity": "common",
      "version": "gold",
      "rating": 75,
      "count": 1
    },
    {
      "name": "Collins",
      "player_id": 248484,
      "position": "CB",
      "rarity": "common",
      "version": "gold",
      "rating": 75,
      "count": 1
    },
    {
      "name": "Nyamsi",
      "player_id": 239575,
      "position": "CB",
      "rarity": "common",
      "version": "gold",
      "rating": 76,
      "count": 1
    },
    {
      "name": "Slimani",
      "player_id": 217699,
      "position": "ST",
      "rarity": "common",
      "version": "gold",
      "rating": 75,
      "count": 1
    },
    {
      "name": "Chará",
      "player_id": 203067,
      "position": "CDM",
      "rarity": "common",
      "version": "gold",
      "rating": 75,
      "count": 1
    },
    {
      "name": "Unai López",
      "player_id": 222390,
      "position": "CM",
      "rarity": "common",
      "version": "gold",
      "rating": 75,
      "count": 1
    },
    {
      "name": "Pezzella",
      "player_id": 193601,
      "position": "CB",
      "rarity": "common",
      "version": "gold",
      "rating": 77,
      "count": 1
    },
    {
      "name": "Dessers",
      "player_id": 222262,
      "position": "ST",
      "rarity": "common",
      "version": "gold",
      "rating": 75,
      "count": 1
    },
    {
      "name": "Escalante",
      "player_id": 219391,
      "position": "CDM",
      "rarity": "common",
      "version": "gold",
      "rating": 76,
      "count": 1
    },
    {
      "name": "Leno",
      "player_id": 192563,
      "position": "GK",
      "rarity": "rare",
      "version": "gold",
      "rating": 80,
      "count": 1
    },
    {
      "name": "Grujić",
      "player_id": 232099,
      "position": "CM",
      "rarity": "common",
      "version": "gold",
      "rating": 76,
      "count": 1
    },
    {
      "name": "Struijk",
      "player_id": 239360,
      "position": "CB",
      "rarity": "common",
      "version": "gold",
      "rating": 76,
      "count": 1
    },
    {
      "name": "Hudson-Odoi",
      "player_id": 240740,
      "position": "LW",
      "rarity": "common",
      "version": "gold",
      "rating": 77,
      "count": 1
    },
    {
      "name": "Hughes",
      "player_id": 206516,
      "position": "CM",
      "rarity": "common",
      "version": "gold",
      "rating": 75,
      "count": 1
    },
    {
      "name": "Nakajima",
      "player_id": 232862,
      "position": "CAM",
      "rarity": "rare",
      "version": "gold",
      "rating": 76,
      "count": 1
    },
    {
      "name": "Hofmann",
      "player_id": 210324,
      "position": "CAM",
      "rarity": "rare",
      "version": "gold",
      "rating": 81,
      "count": 1
    },
    {
      "name": "Arslan",
      "player_id": 190761,
      "position": "CDM",
      "rarity": "common",
      "version": "gold",
      "rating": 75,
      "count": 1
    },
    {
      "name": "Borré",
      "player_id": 220883,
      "position": "ST",
      "rarity": "rare",
      "version": "gold",
      "rating": 78,
      "count": 1
    },
    {
      "name": "Zajc",
      "player_id": 233478,
      "position": "CM",
      "rarity": "common",
      "version": "gold",
      "rating": 75,
      "count": 1
    },
    {
      "name": "Flekken",
      "player_id": 211738,
      "position": "GK",
      "rarity": "rare",
      "version": "gold",
      "rating": 80,
      "count": 1
    },
    {
      "name": "Hugo Mallo",
      "player_id": 194229,
      "position": "RB",
      "rarity": "common",
      "version": "gold",
      "rating": 77,
      "count": 1
    },
    {
      "name": "Ngadeu",
      "player_id": 236690,
      "position": "CB",
      "rarity": "common",
      "version": "gold",
      "rating": 75,
      "count": 1
    },
    {
      "name": "Elmas",
      "player_id": 241390,
      "position": "CAM",
      "rarity": "common",
      "version": "gold",
      "rating": 78,
      "count": 1
    },
    {
      "name": "Poulsen",
      "player_id": 207791,
      "position": "ST",
      "rarity": "common",
      "version": "gold",
      "rating": 77,
      "count": 1
    },
    {
      "name": "King",
      "player_id": 185422,
      "position": "ST",
      "rarity": "common",
      "version": "gold",
      "rating": 75,
      "count": 1
    },
    {
      "name": "Aribo",
      "player_id": 231044,
      "position": "CM",
      "rarity": "rare",
      "version": "gold",
      "rating": 75,
      "count": 1
    },
    {
      "name": "Johnson",
      "player_id": 251421,
      "position": "RW",
      "rarity": "common",
      "version": "gold",
      "rating": 75,
      "count": 1
    },
    {
      "name": "Steffen",
      "player_id": 234777,
      "position": "GK",
      "rarity": "common",
      "version": "gold",
      "rating": 77,
      "count": 1
    },
    {
      "name": "Bailly",
      "player_id": 225508,
      "position": "CB",
      "rarity": "common",
      "version": "gold",
      "rating": 76,
      "count": 1
    },
    {
      "name": "Adrià Pedrosa",
      "player_id": 246113,
      "position": "LB",
      "rarity": "rare",
      "version": "gold",
      "rating": 76,
      "count": 1
    },
    {
      "name": "Djiku",
      "player_id": 212219,
      "position": "CB",
      "rarity": "common",
      "version": "gold",
      "rating": 77,
      "count": 1
    },
    {
      "name": "Luiz Gustavo",
      "player_id": 185221,
      "position": "CDM",
      "rarity": "common",
      "version": "gold",
      "rating": 75,
      "count": 1
    },
    {
      "name": "Murillo",
      "player_id": 201377,
      "position": "CB",
      "rarity": "common",
      "version": "gold",
      "rating": 75,
      "count": 1
    },
    {
      "name": "Nico González",
      "player_id": 255069,
      "position": "CM",
      "rarity": "common",
      "version": "gold",
      "rating": 75,
      "count": 1
    },
    {
      "name": "Pedro Chirivella",
      "player_id": 224019,
      "position": "CDM",
      "rarity": "common",
      "version": "gold",
      "rating": 77,
      "count": 1
    },
    {
      "name": "Kahveci",
      "player_id": 225403,
      "position": "CAM",
      "rarity": "common",
      "version": "gold",
      "rating": 77,
      "count": 1
    },
    {
      "name": "Cornelius",
      "player_id": 201943,
      "position": "ST",
      "rarity": "common",
      "version": "gold",
      "rating": 75,
      "count": 1
    },
    {
      "name": "Antonio",
      "player_id": 190717,
      "position": "ST",
      "rarity": "rare",
      "version": "gold",
      "rating": 79,
      "count": 1
    },
    {
      "name": "Sánchez",
      "player_id": 220793,
      "position": "CB",
      "rarity": "rare",
      "version": "gold",
      "rating": 79,
      "count": 1
    },
    {
      "name": "Shaw",
      "player_id": 205988,
      "position": "LB",
      "rarity": "rare",
      "version": "gold",
      "rating": 80,
      "count": 1
    },
    {
      "name": "Kluivert",
      "player_id": 236920,
      "position": "LW",
      "rarity": "common",
      "version": "gold",
      "rating": 76,
      "count": 1
    },
    {
      "name": "Diop",
      "player_id": 231633,
      "position": "CB",
      "rarity": "common",
      "version": "gold",
      "rating": 77,
      "count": 1
    },
    {
      "name": "Jansson",
      "player_id": 194201,
      "position": "CB",
      "rarity": "common",
      "version": "gold",
      "rating": 75,
      "count": 1
    },
    {
      "name": "Sanson",
      "player_id": 210896,
      "position": "CM",
      "rarity": "common",
      "version": "gold",
      "rating": 76,
      "count": 1
    },
    {
      "name": "Carles Pérez",
      "player_id": 240654,
      "position": "RW",
      "rarity": "common",
      "version": "gold",
      "rating": 75,
      "count": 1
    },
    {
      "name": "Ávila",
      "player_id": 228520,
      "position": "ST",
      "rarity": "rare",
      "version": "gold",
      "rating": 79,
      "count": 1
    },
    {
      "name": "Doku",
      "player_id": 246420,
      "position": "RW",
      "rarity": "common",
      "version": "gold",
      "rating": 75,
      "count": 1
    },
    {
      "name": "Muriqi",
      "player_id": 223710,
      "position": "ST",
      "rarity": "common",
      "version": "gold",
      "rating": 75,
      "count": 1
    },
    {
      "name": "Abdelhamid",
      "player_id": 206493,
      "position": "CB",
      "rarity": "common",
      "version": "gold",
      "rating": 76,
      "count": 1
    },
    {
      "name": "Dost",
      "player_id": 189068,
      "position": "ST",
      "rarity": "common",
      "version": "gold",
      "rating": 76,
      "count": 1
    },
    {
      "name": "Augustinsson",
      "player_id": 212678,
      "position": "LB",
      "rarity": "common",
      "version": "gold",
      "rating": 77,
      "count": 1
    },
    {
      "name": "Balerdi",
      "player_id": 242835,
      "position": "CB",
      "rarity": "common",
      "version": "gold",
      "rating": 75,
      "count": 1
    },
    {
      "name": "Zentner",
      "player_id": 224251,
      "position": "GK",
      "rarity": "common",
      "version": "gold",
      "rating": 76,
      "count": 1
    },
    {
      "name": "Valjent",
      "player_id": 219585,
      "position": "CB",
      "rarity": "common",
      "version": "gold",
      "rating": 75,
      "count": 1
    },
    {
      "name": "Petagna",
      "player_id": 215689,
      "position": "ST",
      "rarity": "common",
      "version": "gold",
      "rating": 76,
      "count": 1
    },
    {
      "name": "Guendouzi",
      "player_id": 236496,
      "position": "CM",
      "rarity": "rare",
      "version": "gold",
      "rating": 80,
      "count": 1
    },
    {
      "name": "Villa",
      "player_id": 233959,
      "position": "LW",
      "rarity": "rare",
      "version": "special",
      "rating": 77,
      "count": 1
    },
    {
      "name": "Lukeba",
      "player_id": 262138,
      "position": "CB",
      "rarity": "common",
      "version": "gold",
      "rating": 76,
      "count": 1
    },
    {
      "name": "Kevin",
      "player_id": 228716,
      "position": "RB",
      "rarity": "common",
      "version": "gold",
      "rating": 75,
      "count": 1
    },
    {
      "name": "Mvogo",
      "player_id": 206003,
      "position": "GK",
      "rarity": "common",
      "version": "gold",
      "rating": 75,
      "count": 1
    },
    {
      "name": "Rodrigo",
      "player_id": 198329,
      "position": "CAM",
      "rarity": "common",
      "version": "gold",
      "rating": 77,
      "count": 1
    },
    {
      "name": "Edwards",
      "player_id": 235619,
      "position": "RW",
      "rarity": "common",
      "version": "gold",
      "rating": 78,
      "count": 1
    },
    {
      "name": "Akpa Akpro",
      "player_id": 205343,
      "position": "CM",
      "rarity": "rare",
      "version": "gold",
      "rating": 75,
      "count": 1
    },
    {
      "name": "Olsen",
      "player_id": 207557,
      "position": "GK",
      "rarity": "common",
      "version": "gold",
      "rating": 75,
      "count": 1
    },
    {
      "name": "Aihen Muñoz",
      "player_id": 246748,
      "position": "LB",
      "rarity": "common",
      "version": "gold",
      "rating": 75,
      "count": 1
    },
    {
      "name": "Rebić",
      "player_id": 220018,
      "position": "LW",
      "rarity": "common",
      "version": "gold",
      "rating": 80,
      "count": 1
    },
    {
      "name": "Endo",
      "player_id": 232487,
      "position": "CM",
      "rarity": "rare",
      "version": "gold",
      "rating": 78,
      "count": 1
    },
    {
      "name": "Rui Patrício",
      "player_id": 178005,
      "position": "GK",
      "rarity": "rare",
      "version": "gold",
      "rating": 82,
      "count": 1
    },
    {
      "name": "Casale",
      "player_id": 239770,
      "position": "CB",
      "rarity": "common",
      "version": "gold",
      "rating": 76,
      "count": 1
    },
    {
      "name": "Pedro",
      "player_id": 189505,
      "position": "LW",
      "rarity": "common",
      "version": "gold",
      "rating": 79,
      "count": 1
    },
    {
      "name": "Hayden",
      "player_id": 206115,
      "position": "CDM",
      "rarity": "common",
      "version": "gold",
      "rating": 75,
      "count": 1
    },
    {
      "name": "Stepanenko",
      "player_id": 206413,
      "position": "CDM",
      "rarity": "common",
      "version": "gold",
      "rating": 78,
      "count": 1
    },
    {
      "name": "Rodrigo Becão",
      "player_id": 238621,
      "position": "CB",
      "rarity": "common",
      "version": "gold",
      "rating": 75,
      "count": 1
    },
    {
      "name": "Hysaj",
      "player_id": 210864,
      "position": "LB",
      "rarity": "common",
      "version": "gold",
      "rating": 75,
      "count": 1
    },
    {
      "name": "Suárez",
      "player_id": 188042,
      "position": "ST",
      "rarity": "rare",
      "version": "special",
      "rating": 77,
      "count": 1
    },
    {
      "name": "Brooks",
      "player_id": 220196,
      "position": "RW",
      "rarity": "common",
      "version": "gold",
      "rating": 76,
      "count": 1
    },
    {
      "name": "Atal",
      "player_id": 240754,
      "position": "RB",
      "rarity": "common",
      "version": "gold",
      "rating": 75,
      "count": 1
    },
    {
      "name": "Todibo",
      "player_id": 245388,
      "position": "CB",
      "rarity": "rare",
      "version": "gold",
      "rating": 78,
      "count": 1
    },
    {
      "name": "Mojica",
      "player_id": 214026,
      "position": "LB",
      "rarity": "common",
      "version": "gold",
      "rating": 77,
      "count": 1
    },
    {
      "name": "Quagliarella",
      "player_id": 159261,
      "position": "ST",
      "rarity": "common",
      "version": "gold",
      "rating": 76,
      "count": 1
    },
    {
      "name": "Fran García",
      "player_id": 246606,
      "position": "LB",
      "rarity": "common",
      "version": "gold",
      "rating": 75,
      "count": 1
    },
    {
      "name": "Schwäbe",
      "player_id": 224041,
      "position": "GK",
      "rarity": "common",
      "version": "gold",
      "rating": 77,
      "count": 1
    },
    {
      "name": "Castagne",
      "player_id": 222501,
      "position": "RB",
      "rarity": "common",
      "version": "gold",
      "rating": 78,
      "count": 1
    },
    {
      "name": "Damsgaard",
      "player_id": 241508,
      "position": "LM",
      "rarity": "common",
      "version": "gold",
      "rating": 76,
      "count": 1
    },
    {
      "name": "Mitrović",
      "player_id": 215716,
      "position": "ST",
      "rarity": "rare",
      "version": "gold",
      "rating": 78,
      "count": 1
    },
    {
      "name": "Maggiore",
      "player_id": 236368,
      "position": "CM",
      "rarity": "common",
      "version": "gold",
      "rating": 77,
      "count": 1
    },
    {
      "name": "Borini",
      "player_id": 186200,
      "position": "LW",
      "rarity": "common",
      "version": "gold",
      "rating": 75,
      "count": 1
    },
    {
      "name": "Joel Robles",
      "player_id": 195668,
      "position": "GK",
      "rarity": "common",
      "version": "gold",
      "rating": 75,
      "count": 1
    },
    {
      "name": "Amartey",
      "player_id": 212883,
      "position": "CB",
      "rarity": "common",
      "version": "gold",
      "rating": 76,
      "count": 1
    },
    {
      "name": "Aebischer",
      "player_id": 236898,
      "position": "CM",
      "rarity": "common",
      "version": "gold",
      "rating": 75,
      "count": 1
    },
    {
      "name": "Verde",
      "player_id": 225844,
      "position": "RW",
      "rarity": "common",
      "version": "gold",
      "rating": 75,
      "count": 1
    },
    {
      "name": "Saúl",
      "player_id": 208421,
      "position": "CM",
      "rarity": "rare",
      "version": "gold",
      "rating": 80,
      "count": 1
    },
    {
      "name": "Rochinha",
      "player_id": 222461,
      "position": "LW",
      "rarity": "common",
      "version": "gold",
      "rating": 75,
      "count": 1
    },
    {
      "name": "Praet",
      "player_id": 199652,
      "position": "CAM",
      "rarity": "common",
      "version": "gold",
      "rating": 78,
      "count": 1
    },
    {
      "name": "Luiz Felipe",
      "player_id": 236355,
      "position": "CB",
      "rarity": "rare",
      "version": "gold",
      "rating": 79,
      "count": 1
    },
    {
      "name": "Sadiq",
      "player_id": 231627,
      "position": "ST",
      "rarity": "common",
      "version": "gold",
      "rating": 77,
      "count": 1
    },
    {
      "name": "Maripán",
      "player_id": 219145,
      "position": "CB",
      "rarity": "common",
      "version": "gold",
      "rating": 78,
      "count": 1
    },
    {
      "name": "Escudero",
      "player_id": 192679,
      "position": "LB",
      "rarity": "common",
      "version": "gold",
      "rating": 75,
      "count": 1
    },
    {
      "name": "Sanusi",
      "player_id": 251528,
      "position": "LB",
      "rarity": "rare",
      "version": "gold",
      "rating": 76,
      "count": 1
    },
    {
      "name": "Faraoni",
      "player_id": 195272,
      "position": "RWB",
      "rarity": "common",
      "version": "gold",
      "rating": 78,
      "count": 1
    },
    {
      "name": "Justin",
      "player_id": 231554,
      "position": "LB",
      "rarity": "common",
      "version": "gold",
      "rating": 76,
      "count": 1
    },
    {
      "name": "Raspadori",
      "player_id": 253002,
      "position": "CF",
      "rarity": "rare",
      "version": "gold",
      "rating": 79,
      "count": 1
    },
    {
      "name": "Gabbiadini",
      "player_id": 198683,
      "position": "ST",
      "rarity": "common",
      "version": "gold",
      "rating": 75,
      "count": 1
    },
    {
      "name": "Baumgartl",
      "player_id": 223641,
      "position": "CB",
      "rarity": "common",
      "version": "gold",
      "rating": 76,
      "count": 1
    },
    {
      "name": "Brunner",
      "player_id": 215604,
      "position": "RB",
      "rarity": "common",
      "version": "gold",
      "rating": 75,
      "count": 1
    },
    {
      "name": "Mykolenko",
      "player_id": 244380,
      "position": "LB",
      "rarity": "common",
      "version": "gold",
      "rating": 76,
      "count": 1
    },
    {
      "name": "Luís Maximiano",
      "player_id": 244316,
      "position": "GK",
      "rarity": "common",
      "version": "gold",
      "rating": 79,
      "count": 1
    },
    {
      "name": "Lucero",
      "player_id": 223248,
      "position": "ST",
      "rarity": "rare",
      "version": "special",
      "rating": 75,
      "count": 1
    },
    {
      "name": "Sequeira",
      "player_id": 217546,
      "position": "LB",
      "rarity": "common",
      "version": "gold",
      "rating": 76,
      "count": 1
    },
    {
      "name": "Caprari",
      "player_id": 202848,
      "position": "CF",
      "rarity": "rare",
      "version": "gold",
      "rating": 78,
      "count": 1
    },
    {
      "name": "Ajer",
      "player_id": 224258,
      "position": "CB",
      "rarity": "common",
      "version": "gold",
      "rating": 75,
      "count": 1
    },
    {
      "name": "Stevanović",
      "player_id": 206254,
      "position": "RW",
      "rarity": "common",
      "version": "gold",
      "rating": 76,
      "count": 1
    },
    {
      "name": "Arnautović",
      "player_id": 184200,
      "position": "ST",
      "rarity": "rare",
      "version": "gold",
      "rating": 82,
      "count": 1
    },
    {
      "name": "Mateta",
      "player_id": 236461,
      "position": "ST",
      "rarity": "common",
      "version": "gold",
      "rating": 76,
      "count": 1
    },
    {
      "name": "Coufal",
      "player_id": 244470,
      "position": "RB",
      "rarity": "rare",
      "version": "gold",
      "rating": 80,
      "count": 1
    },
    {
      "name": "Iago",
      "player_id": 251182,
      "position": "LWB",
      "rarity": "common",
      "version": "gold",
      "rating": 77,
      "count": 1
    },
    {
      "name": "Boufal",
      "player_id": 211381,
      "position": "CF",
      "rarity": "common",
      "version": "gold",
      "rating": 77,
      "count": 1
    },
    {
      "name": "Marco Asensio",
      "player_id": 220834,
      "position": "RW",
      "rarity": "rare",
      "version": "gold",
      "rating": 83,
      "count": 1
    },
    {
      "name": "Akpoguma",
      "player_id": 211856,
      "position": "CB",
      "rarity": "rare",
      "version": "gold",
      "rating": 75,
      "count": 1
    },
    {
      "name": "Mihailovic",
      "player_id": 237496,
      "position": "CF",
      "rarity": "common",
      "version": "gold",
      "rating": 75,
      "count": 1
    },
    {
      "name": "José Callejón",
      "player_id": 185020,
      "position": "RW",
      "rarity": "common",
      "version": "gold",
      "rating": 75,
      "count": 1
    },
    {
      "name": "Ugarte",
      "player_id": 253306,
      "position": "CM",
      "rarity": "common",
      "version": "gold",
      "rating": 77,
      "count": 1
    },
    {
      "name": "Ünal",
      "player_id": 223197,
      "position": "ST",
      "rarity": "common",
      "version": "gold",
      "rating": 78,
      "count": 1
    },
    {
      "name": "Geiger",
      "player_id": 235526,
      "position": "CM",
      "rarity": "common",
      "version": "gold",
      "rating": 75,
      "count": 1
    },
    {
      "name": "Calabria",
      "player_id": 228881,
      "position": "RB",
      "rarity": "rare",
      "version": "gold",
      "rating": 80,
      "count": 1
    },
    {
      "name": "Oriol Romeu",
      "player_id": 199576,
      "position": "CDM",
      "rarity": "common",
      "version": "gold",
      "rating": 78,
      "count": 1
    },
    {
      "name": "Fuenzalida",
      "player_id": 196069,
      "position": "RW",
      "rarity": "rare",
      "version": "special",
      "rating": 75,
      "count": 1
    },
    {
      "name": "Baba",
      "player_id": 245598,
      "position": "CDM",
      "rarity": "common",
      "version": "gold",
      "rating": 75,
      "count": 1
    },
    {
      "name": "Braithwaite",
      "player_id": 193290,
      "position": "ST",
      "rarity": "common",
      "version": "gold",
      "rating": 76,
      "count": 1
    },
    {
      "name": "Pulisic",
      "player_id": 227796,
      "position": "LW",
      "rarity": "rare",
      "version": "gold",
      "rating": 82,
      "count": 1
    },
    {
      "name": "Đuričić",
      "player_id": 193881,
      "position": "CAM",
      "rarity": "common",
      "version": "gold",
      "rating": 75,
      "count": 1
    },
    {
      "name": "Gomis",
      "player_id": 201976,
      "position": "GK",
      "rarity": "common",
      "version": "gold",
      "rating": 77,
      "count": 1
    },
    {
      "name": "Toköz",
      "player_id": 223717,
      "position": "CM",
      "rarity": "common",
      "version": "gold",
      "rating": 75,
      "count": 1
    },
    {
      "name": "Provedel",
      "player_id": 224987,
      "position": "GK",
      "rarity": "common",
      "version": "gold",
      "rating": 76,
      "count": 1
    },
    {
      "name": "Hauche",
      "player_id": 203872,
      "position": "RW",
      "rarity": "rare",
      "version": "special",
      "rating": 75,
      "count": 1
    },
    {
      "name": "Mantalos",
      "player_id": 208224,
      "position": "CAM",
      "rarity": "common",
      "version": "gold",
      "rating": 77,
      "count": 1
    },
    {
      "name": "Martínez",
      "player_id": 241569,
      "position": "CB",
      "rarity": "rare",
      "version": "special",
      "rating": 75,
      "count": 1
    },
    {
      "name": "Karlsson",
      "player_id": 231836,
      "position": "LW",
      "rarity": "common",
      "version": "gold",
      "rating": 78,
      "count": 1
    },
    {
      "name": "Zampedri",
      "player_id": 232670,
      "position": "ST",
      "rarity": "rare",
      "version": "special",
      "rating": 76,
      "count": 1
    },
    {
      "name": "Moralez",
      "player_id": 183895,
      "position": "CAM",
      "rarity": "common",
      "version": "gold",
      "rating": 76,
      "count": 1
    },
    {
      "name": "Audero",
      "player_id": 228413,
      "position": "GK",
      "rarity": "common",
      "version": "gold",
      "rating": 78,
      "count": 1
    },
    {
      "name": "Guéhi",
      "player_id": 241159,
      "position": "CB",
      "rarity": "rare",
      "version": "gold",
      "rating": 78,
      "count": 1
    },
    {
      "name": "Hazard",
      "player_id": 203486,
      "position": "LM",
      "rarity": "rare",
      "version": "gold",
      "rating": 80,
      "count": 1
    },
    {
      "name": "Sambi Lokonga",
      "player_id": 241928,
      "position": "CM",
      "rarity": "common",
      "version": "gold",
      "rating": 75,
      "count": 1
    }
  ]
}