{
  "write_ts": "2022-09-29T10:06:46.198Z",
  "players": [
    {
      "name": "Benítez",
      "player_id": 215223,
      "position": "GK",
      "rarity": "rare",
      "version": "gold",
      "rating": 80,
      "count": 28
    },
    {
      "name": "Romero",
      "player_id": 232488,
      "position": "CB",
      "rarity": "rare",
      "version": "gold",
      "rating": 83,
      "count": 23
    },
    {
      "name": "Fernández",
      "player_id": 247090,
      "position": "CM",
      "rarity": "rare",
      "version": "gold",
      "rating": 78,
      "count": 22
    },
    {
      "name": "Jean",
      "player_id": 234999,
      "position": "GK",
      "rarity": "rare",
      "version": "special",
      "rating": 75,
      "count": 22
    },
    {
      "name": "Tagliafico",
      "player_id": 211256,
      "position": "LB",
      "rarity": "rare",
      "version": "gold",
      "rating": 81,
      "count": 18
    },
    {
      "name": "Tenaglia",
      "player_id": 240953,
      "position": "RB",
      "rarity": "common",
      "version": "gold",
      "rating": 76,
      "count": 17
    },
    {
      "name": "Pereyra",
      "player_id": 193061,
      "position": "CM",
      "rarity": "rare",
      "version": "gold",
      "rating": 78,
      "count": 15
    },
    {
      "name": "Júnior Caiçara",
      "player_id": 192427,
      "position": "RB",
      "rarity": "common",
      "version": "gold",
      "rating": 75,
      "count": 14
    },
    {
      "name": "Sigali",
      "player_id": 215135,
      "position": "CB",
      "rarity": "rare",
      "version": "special",
      "rating": 76,
      "count": 14
    },
    {
      "name": "Fernando",
      "player_id": 184134,
      "position": "CDM",
      "rarity": "rare",
      "version": "gold",
      "rating": 83,
      "count": 14
    },
    {
      "name": "Bruno Guimarães",
      "player_id": 247851,
      "position": "CM",
      "rarity": "rare",
      "version": "gold",
      "rating": 81,
      "count": 13
    },
    {
      "name": "Rigoni",
      "player_id": 215259,
      "position": "RM",
      "rarity": "common",
      "version": "gold",
      "rating": 78,
      "count": 13
    },
    {
      "name": "Evander",
      "player_id": 234505,
      "position": "CM",
      "rarity": "common",
      "version": "gold",
      "rating": 76,
      "count": 13
    },
    {
      "name": "Gerson",
      "player_id": 229927,
      "position": "CM",
      "rarity": "rare",
      "version": "gold",
      "rating": 78,
      "count": 13
    },
    {
      "name": "Anderson Talisca",
      "player_id": 212523,
      "position": "CF → ST",
      "rarity": "rare",
      "version": "gold",
      "rating": 82,
      "count": 12
    },
    {
      "name": "Bremer",
      "player_id": 239580,
      "position": "CB",
      "rarity": "rare",
      "version": "gold",
      "rating": 83,
      "count": 12
    },
    {
      "name": "Matheus",
      "player_id": 176495,
      "position": "RM",
      "rarity": "common",
      "version": "gold",
      "rating": 75,
      "count": 11
    },
    {
      "name": "Araujo",
      "player_id": 198145,
      "position": "ST",
      "rarity": "common",
      "version": "gold",
      "rating": 75,
      "count": 11
    },
    {
      "name": "Medina",
      "player_id": 236804,
      "position": "CB",
      "rarity": "rare",
      "version": "gold",
      "rating": 76,
      "count": 10
    },
    {
      "name": "Ismaily",
      "player_id": 201119,
      "position": "LB",
      "rarity": "rare",
      "version": "gold",
      "rating": 79,
      "count": 9
    },
    {
      "name": "Montiel",
      "player_id": 231340,
      "position": "RB",
      "rarity": "rare",
      "version": "gold",
      "rating": 79,
      "count": 8
    },
    {
      "name": "Cervi",
      "player_id": 223061,
      "position": "LM",
      "rarity": "rare",
      "version": "gold",
      "rating": 78,
      "count": 8
    },
    {
      "name": "Ojeda",
      "player_id": 240744,
      "position": "RM",
      "rarity": "common",
      "version": "gold",
      "rating": 76,
      "count": 8
    },
    {
      "name": "Simeone",
      "player_id": 216816,
      "position": "ST",
      "rarity": "rare",
      "version": "gold",
      "rating": 78,
      "count": 7
    },
    {
      "name": "Romero",
      "player_id": 215119,
      "position": "CDM",
      "rarity": "rare",
      "version": "special",
      "rating": 76,
      "count": 7
    },
    {
      "name": "Galeno",
      "player_id": 239482,
      "position": "LM",
      "rarity": "rare",
      "version": "gold",
      "rating": 77,
      "count": 7
    },
    {
      "name": "Tuta",
      "player_id": 247182,
      "position": "CB",
      "rarity": "common",
      "version": "gold",
      "rating": 77,
      "count": 6
    },
    {
      "name": "Lema",
      "player_id": 215228,
      "position": "CB",
      "rarity": "common",
      "version": "gold",
      "rating": 75,
      "count": 6
    },
    {
      "name": "Matheus Reis",
      "player_id": 230625,
      "position": "CB",
      "rarity": "rare",
      "version": "gold",
      "rating": 79,
      "count": 6
    },
    {
      "name": "Rodríguez",
      "player_id": 224796,
      "position": "CDM",
      "rarity": "rare",
      "version": "special",
      "rating": 75,
      "count": 6
    },
    {
      "name": "Fernández",
      "player_id": 247090,
      "position": "CM → CDM",
      "rarity": "rare",
      "version": "gold",
      "rating": 78,
      "count": 6
    },
    {
      "name": "Paulo Otávio",
      "player_id": 208001,
      "position": "LB",
      "rarity": "common",
      "version": "gold",
      "rating": 76,
      "count": 6
    },
    {
      "name": "Mauro Júnior",
      "player_id": 241509,
      "position": "RB",
      "rarity": "common",
      "version": "gold",
      "rating": 76,
      "count": 5
    },
    {
      "name": "Lucas Veríssimo",
      "player_id": 235688,
      "position": "CB",
      "rarity": "rare",
      "version": "gold",
      "rating": 79,
      "count": 5
    },
    {
      "name": "Acuña",
      "player_id": 224334,
      "position": "LB",
      "rarity": "rare",
      "version": "gold",
      "rating": 85,
      "count": 5
    },
    {
      "name": "Miranda",
      "player_id": 214988,
      "position": "CM",
      "rarity": "rare",
      "version": "special",
      "rating": 75,
      "count": 5
    },
    {
      "name": "Paulinho",
      "player_id": 239970,
      "position": "LM",
      "rarity": "common",
      "version": "gold",
      "rating": 75,
      "count": 4
    },
    {
      "name": "David Neres",
      "player_id": 236632,
      "position": "RW → RM",
      "rarity": "rare",
      "version": "gold",
      "rating": 79,
      "count": 4
    },
    {
      "name": "Willian Arão",
      "player_id": 207884,
      "position": "CDM",
      "rarity": "common",
      "version": "gold",
      "rating": 77,
      "count": 4
    },
    {
      "name": "Gabriel Paulista",
      "player_id": 201305,
      "position": "CB",
      "rarity": "rare",
      "version": "gold",
      "rating": 82,
      "count": 4
    },
    {
      "name": "Ibañez",
      "player_id": 247257,
      "position": "CB",
      "rarity": "rare",
      "version": "gold",
      "rating": 79,
      "count": 4
    },
    {
      "name": "Velasco",
      "player_id": 252238,
      "position": "LM",
      "rarity": "common",
      "version": "gold",
      "rating": 75,
      "count": 4
    },
    {
      "name": "Igor Coronado",
      "player_id": 202599,
      "position": "CAM → LM",
      "rarity": "rare",
      "version": "gold",
      "rating": 77,
      "count": 4
    },
    {
      "name": "Romarinho",
      "player_id": 209440,
      "position": "CF → ST",
      "rarity": "rare",
      "version": "gold",
      "rating": 78,
      "count": 4
    },
    {
      "name": "Oscar",
      "player_id": 188152,
      "position": "CAM → CM",
      "rarity": "rare",
      "version": "gold",
      "rating": 81,
      "count": 4
    },
    {
      "name": "Barco",
      "player_id": 236007,
      "position": "LM",
      "rarity": "rare",
      "version": "special",
      "rating": 76,
      "count": 4
    },
    {
      "name": "Banega",
      "player_id": 178562,
      "position": "CM",
      "rarity": "common",
      "version": "gold",
      "rating": 81,
      "count": 4
    },
    {
      "name": "Álvarez",
      "player_id": 246191,
      "position": "ST",
      "rarity": "rare",
      "version": "gold",
      "rating": 78,
      "count": 4
    },
    {
      "name": "Luiz Araújo",
      "player_id": 234128,
      "position": "RM",
      "rarity": "common",
      "version": "gold",
      "rating": 78,
      "count": 4
    },
    {
      "name": "Bruno Viana",
      "player_id": 234226,
      "position": "CB",
      "rarity": "common",
      "version": "gold",
      "rating": 77,
      "count": 3
    },
    {
      "name": "Luan Peres",
      "player_id": 234791,
      "position": "LB",
      "rarity": "common",
      "version": "gold",
      "rating": 76,
      "count": 3
    },
    {
      "name": "Godoy",
      "player_id": 228415,
      "position": "RB",
      "rarity": "rare",
      "version": "special",
      "rating": 75,
      "count": 3
    },
    {
      "name": "Pizzini",
      "player_id": 214971,
      "position": "RM",
      "rarity": "rare",
      "version": "special",
      "rating": 75,
      "count": 3
    },
    {
      "name": "Ojeda",
      "player_id": 240744,
      "position": "RM → LM",
      "rarity": "common",
      "version": "gold",
      "rating": 76,
      "count": 3
    },
    {
      "name": "Domínguez",
      "player_id": 237819,
      "position": "CM",
      "rarity": "rare",
      "version": "gold",
      "rating": 76,
      "count": 3
    },
    {
      "name": "Lo Celso",
      "player_id": 226226,
      "position": "CM",
      "rarity": "rare",
      "version": "gold",
      "rating": 81,
      "count": 3
    },
    {
      "name": "Cristaldo",
      "player_id": 223097,
      "position": "CAM → LM",
      "rarity": "common",
      "version": "gold",
      "rating": 75,
      "count": 3
    },
    {
      "name": "Palacios",
      "player_id": 231521,
      "position": "CDM",
      "rarity": "common",
      "version": "gold",
      "rating": 78,
      "count": 3
    },
    {
      "name": "Higuaín",
      "player_id": 167664,
      "position": "ST",
      "rarity": "common",
      "version": "gold",
      "rating": 75,
      "count": 3
    },
    {
      "name": "Felipe Anderson",
      "player_id": 201995,
      "position": "RW → RM",
      "rarity": "rare",
      "version": "gold",
      "rating": 79,
      "count": 3
    },
    {
      "name": "Allan",
      "player_id": 199914,
      "position": "CDM",
      "rarity": "rare",
      "version": "gold",
      "rating": 80,
      "count": 3
    },
    {
      "name": "Dodô",
      "player_id": 234112,
      "position": "RB",
      "rarity": "common",
      "version": "gold",
      "rating": 75,
      "count": 3
    },
    {
      "name": "Casco",
      "player_id": 215071,
      "position": "LB",
      "rarity": "rare",
      "version": "special",
      "rating": 77,
      "count": 3
    },
    {
      "name": "Gabriel Martinelli",
      "player_id": 251566,
      "position": "LM",
      "rarity": "rare",
      "version": "gold",
      "rating": 78,
      "count": 3
    },
    {
      "name": "Robertone",
      "player_id": 235008,
      "position": "CAM → CDM",
      "rarity": "rare",
      "version": "gold",
      "rating": 76,
      "count": 2
    },
    {
      "name": "Davidson",
      "player_id": 237135,
      "position": "LM",
      "rarity": "common",
      "version": "gold",
      "rating": 77,
      "count": 2
    },
    {
      "name": "Marcão",
      "player_id": 234426,
      "position": "CB",
      "rarity": "rare",
      "version": "gold",
      "rating": 79,
      "count": 2
    },
    {
      "name": "Faravelli",
      "player_id": 215076,
      "position": "CM",
      "rarity": "rare",
      "version": "special",
      "rating": 75,
      "count": 2
    },
    {
      "name": "Matheus Cunha",
      "player_id": 240243,
      "position": "ST",
      "rarity": "rare",
      "version": "gold",
      "rating": 81,
      "count": 2
    },
    {
      "name": "Blanco",
      "player_id": 190577,
      "position": "CAM → LM",
      "rarity": "common",
      "version": "gold",
      "rating": 76,
      "count": 2
    },
    {
      "name": "Danilo",
      "player_id": 216283,
      "position": "LB",
      "rarity": "common",
      "version": "gold",
      "rating": 77,
      "count": 2
    },
    {
      "name": "Gómez",
      "player_id": 221053,
      "position": "LB",
      "rarity": "rare",
      "version": "special",
      "rating": 75,
      "count": 2
    },
    {
      "name": "Rigoni",
      "player_id": 215259,
      "position": "RM → LM",
      "rarity": "common",
      "version": "gold",
      "rating": 78,
      "count": 2
    },
    {
      "name": "Reynoso",
      "player_id": 234468,
      "position": "CAM → LM",
      "rarity": "common",
      "version": "gold",
      "rating": 79,
      "count": 2
    },
    {
      "name": "Di María",
      "player_id": 183898,
      "position": "RW → RM",
      "rarity": "rare",
      "version": "gold",
      "rating": 84,
      "count": 2
    },
    {
      "name": "Barboza",
      "player_id": 229749,
      "position": "CB",
      "rarity": "rare",
      "version": "special",
      "rating": 75,
      "count": 1
    },
    {
      "name": "Pérez",
      "player_id": 196432,
      "position": "CDM",
      "rarity": "rare",
      "version": "special",
      "rating": 78,
      "count": 1
    },
    {
      "name": "Martínez",
      "player_id": 239301,
      "position": "CB → CDM",
      "rarity": "rare",
      "version": "gold",
      "rating": 81,
      "count": 1
    },
    {
      "name": "Martínez",
      "player_id": 226377,
      "position": "RM",
      "rarity": "common",
      "version": "gold",
      "rating": 76,
      "count": 1
    },
    {
      "name": "Izquierdoz",
      "player_id": 214766,
      "position": "CB",
      "rarity": "common",
      "version": "gold",
      "rating": 77,
      "count": 1
    },
    {
      "name": "Lucero",
      "player_id": 223248,
      "position": "ST",
      "rarity": "rare",
      "version": "special",
      "rating": 75,
      "count": 1
    },
    {
      "name": "Ávila",
      "player_id": 228520,
      "position": "ST",
      "rarity": "rare",
      "version": "gold",
      "rating": 79,
      "count": 1
    },
    {
      "name": "Luiz Araújo",
      "player_id": 234128,
      "position": "RM → LM",
      "rarity": "common",
      "version": "gold",
      "rating": 78,
      "count": 1
    },
    {
      "name": "Renan Lodi",
      "player_id": 251573,
      "position": "LB",
      "rarity": "rare",
      "version": "gold",
      "rating": 80,
      "count": 1
    },
    {
      "name": "Júnior Negão",
      "player_id": 189224,
      "position": "ST",
      "rarity": "common",
      "version": "gold",
      "rating": 75,
      "count": 1
    },
    {
      "name": "Vázquez",
      "player_id": 207471,
      "position": "CAM → CM",
      "rarity": "common",
      "version": "gold",
      "rating": 76,
      "count": 1
    },
    {
      "name": "Biglia",
      "player_id": 158963,
      "position": "CDM",
      "rarity": "common",
      "version": "gold",
      "rating": 76,
      "count": 1
    },
    {
      "name": "Richarlison",
      "player_id": 231943,
      "position": "ST",
      "rarity": "rare",
      "version": "gold",
      "rating": 81,
      "count": 1
    },
    {
      "name": "Palavecino",
      "player_id": 247450,
      "position": "CM",
      "rarity": "rare",
      "version": "special",
      "rating": 75,
      "count": 1
    },
    {
      "name": "Matheus",
      "player_id": 176495,
      "position": "RM → ST",
      "rarity": "common",
      "version": "gold",
      "rating": 75,
      "count": 1
    },
    {
      "name": "Mauro Júnior",
      "player_id": 241509,
      "position": "RB → LB",
      "rarity": "common",
      "version": "gold",
      "rating": 76,
      "count": 1
    },
    {
      "name": "João Paulo",
      "player_id": 205953,
      "position": "CM",
      "rarity": "common",
      "version": "gold",
      "rating": 75,
      "count": 1
    },
    {
      "name": "Domínguez",
      "player_id": 237819,
      "position": "CM → CDM",
      "rarity": "rare",
      "version": "gold",
      "rating": 76,
      "count": 1
    },
    {
      "name": "Luiz Adriano",
      "player_id": 180826,
      "position": "ST",
      "rarity": "common",
      "version": "gold",
      "rating": 76,
      "count": 1
    },
    {
      "name": "Romarinho",
      "player_id": 209440,
      "position": "CF → LM",
      "rarity": "rare",
      "version": "gold",
      "rating": 78,
      "count": 1
    },
    {
      "name": "Luiz Gustavo",
      "player_id": 185221,
      "position": "CDM",
      "rarity": "common",
      "version": "gold",
      "rating": 75,
      "count": 1
    },
    {
      "name": "Ávila",
      "player_id": 228520,
      "position": "ST → RM",
      "rarity": "rare",
      "version": "gold",
      "rating": 79,
      "count": 1
    },
    {
      "name": "André Ramalho",
      "player_id": 210007,
      "position": "CB",
      "rarity": "common",
      "version": "gold",
      "rating": 76,
      "count": 1
    },
    {
      "name": "Diego Carlos",
      "player_id": 219693,
      "position": "CB",
      "rarity": "rare",
      "version": "gold",
      "rating": 83,
      "count": 1
    },
    {
      "name": "Bou",
      "player_id": 188955,
      "position": "ST",
      "rarity": "common",
      "version": "gold",
      "rating": 77,
      "count": 1
    },
    {
      "name": "Giannetti",
      "player_id": 215147,
      "position": "CB",
      "rarity": "rare",
      "version": "special",
      "rating": 75,
      "count": 1
    }
  ]
}