{
  "write_ts": "2022-09-29T09:58:02.873Z",
  "players": [
    {
      "name": "Lecomte",
      "player_id": 200726,
      "position": "GK",
      "rarity": "common",
      "version": "gold",
      "rating": 77,
      "count": 10
    },
    {
      "name": "Maupay",
      "player_id": 211784,
      "position": "ST",
      "rarity": "common",
      "version": "gold",
      "rating": 76,
      "count": 9
    },
    {
      "name": "Lainer",
      "player_id": 223724,
      "position": "RB",
      "rarity": "common",
      "version": "gold",
      "rating": 77,
      "count": 6
    },
    {
      "name": "Jansson",
      "player_id": 194201,
      "position": "CB",
      "rarity": "common",
      "version": "gold",
      "rating": 75,
      "count": 6
    },
    {
      "name": "Elyounoussi",
      "player_id": 203362,
      "position": "LM",
      "rarity": "common",
      "version": "gold",
      "rating": 76,
      "count": 6
    },
    {
      "name": "Cairney",
      "player_id": 195202,
      "position": "CM",
      "rarity": "common",
      "version": "gold",
      "rating": 75,
      "count": 5
    },
    {
      "name": "Baumgartl",
      "player_id": 223641,
      "position": "CB",
      "rarity": "common",
      "version": "gold",
      "rating": 76,
      "count": 5
    },
    {
      "name": "Adams",
      "player_id": 226093,
      "position": "ST",
      "rarity": "common",
      "version": "gold",
      "rating": 76,
      "count": 5
    },
    {
      "name": "Cash",
      "player_id": 227174,
      "position": "RB",
      "rarity": "common",
      "version": "gold",
      "rating": 79,
      "count": 5
    },
    {
      "name": "Plea",
      "player_id": 206467,
      "position": "CF",
      "rarity": "common",
      "version": "gold",
      "rating": 78,
      "count": 4
    },
    {
      "name": "Cooper",
      "player_id": 189456,
      "position": "CB",
      "rarity": "common",
      "version": "gold",
      "rating": 76,
      "count": 4
    },
    {
      "name": "Grenier",
      "player_id": 187924,
      "position": "CM",
      "rarity": "common",
      "version": "gold",
      "rating": 75,
      "count": 4
    },
    {
      "name": "Wind",
      "player_id": 241522,
      "position": "ST",
      "rarity": "common",
      "version": "gold",
      "rating": 76,
      "count": 4
    },
    {
      "name": "Ajer",
      "player_id": 224258,
      "position": "CB",
      "rarity": "common",
      "version": "gold",
      "rating": 75,
      "count": 4
    },
    {
      "name": "Bernardoni",
      "player_id": 223898,
      "position": "GK",
      "rarity": "common",
      "version": "gold",
      "rating": 76,
      "count": 4
    },
    {
      "name": "Svanberg",
      "player_id": 228946,
      "position": "CM",
      "rarity": "common",
      "version": "gold",
      "rating": 76,
      "count": 4
    },
    {
      "name": "Salisu",
      "player_id": 244915,
      "position": "CB",
      "rarity": "common",
      "version": "gold",
      "rating": 77,
      "count": 4
    },
    {
      "name": "Matheus Pereira",
      "player_id": 228414,
      "position": "CAM",
      "rarity": "common",
      "version": "gold",
      "rating": 76,
      "count": 4
    },
    {
      "name": "Chardonnet",
      "player_id": 215410,
      "position": "CB",
      "rarity": "common",
      "version": "gold",
      "rating": 75,
      "count": 4
    },
    {
      "name": "Falcao",
      "player_id": 167397,
      "position": "ST",
      "rarity": "common",
      "version": "gold",
      "rating": 76,
      "count": 4
    },
    {
      "name": "Quagliarella",
      "player_id": 159261,
      "position": "ST",
      "rarity": "common",
      "version": "gold",
      "rating": 76,
      "count": 4
    },
    {
      "name": "Dallas",
      "player_id": 203570,
      "position": "CM",
      "rarity": "common",
      "version": "gold",
      "rating": 75,
      "count": 4
    },
    {
      "name": "Sørloth",
      "player_id": 216549,
      "position": "ST",
      "rarity": "common",
      "version": "gold",
      "rating": 76,
      "count": 4
    },
    {
      "name": "Ramsey",
      "player_id": 186561,
      "position": "CM",
      "rarity": "common",
      "version": "gold",
      "rating": 76,
      "count": 4
    },
    {
      "name": "Rodrigo Ely",
      "player_id": 202445,
      "position": "CB",
      "rarity": "common",
      "version": "gold",
      "rating": 75,
      "count": 4
    },
    {
      "name": "Struijk",
      "player_id": 239360,
      "position": "CB",
      "rarity": "common",
      "version": "gold",
      "rating": 76,
      "count": 4
    },
    {
      "name": "Schwolow",
      "player_id": 202789,
      "position": "GK",
      "rarity": "common",
      "version": "gold",
      "rating": 75,
      "count": 4
    },
    {
      "name": "Ward",
      "player_id": 207998,
      "position": "GK",
      "rarity": "common",
      "version": "gold",
      "rating": 75,
      "count": 4
    },
    {
      "name": "Gregoritsch",
      "player_id": 199439,
      "position": "ST",
      "rarity": "common",
      "version": "gold",
      "rating": 75,
      "count": 4
    },
    {
      "name": "Damsgaard",
      "player_id": 241508,
      "position": "LM",
      "rarity": "common",
      "version": "gold",
      "rating": 76,
      "count": 4
    },
    {
      "name": "Lucas Pérez",
      "player_id": 199354,
      "position": "ST",
      "rarity": "common",
      "version": "gold",
      "rating": 78,
      "count": 4
    },
    {
      "name": "Iago",
      "player_id": 251182,
      "position": "LWB",
      "rarity": "common",
      "version": "gold",
      "rating": 77,
      "count": 4
    },
    {
      "name": "Perraud",
      "player_id": 231318,
      "position": "LB",
      "rarity": "common",
      "version": "gold",
      "rating": 76,
      "count": 4
    },
    {
      "name": "Ugarte",
      "player_id": 253306,
      "position": "CM",
      "rarity": "common",
      "version": "gold",
      "rating": 77,
      "count": 3
    },
    {
      "name": "Danso",
      "player_id": 237985,
      "position": "CB",
      "rarity": "common",
      "version": "gold",
      "rating": 75,
      "count": 3
    },
    {
      "name": "Diego Llorente",
      "player_id": 212602,
      "position": "CB",
      "rarity": "common",
      "version": "gold",
      "rating": 76,
      "count": 3
    },
    {
      "name": "Óscar",
      "player_id": 239335,
      "position": "CM",
      "rarity": "common",
      "version": "gold",
      "rating": 76,
      "count": 3
    },
    {
      "name": "Gomis",
      "player_id": 159145,
      "position": "ST",
      "rarity": "common",
      "version": "gold",
      "rating": 75,
      "count": 3
    },
    {
      "name": "Losilla",
      "player_id": 199288,
      "position": "CDM",
      "rarity": "common",
      "version": "gold",
      "rating": 75,
      "count": 3
    },
    {
      "name": "Costil",
      "player_id": 158121,
      "position": "GK",
      "rarity": "common",
      "version": "gold",
      "rating": 75,
      "count": 3
    },
    {
      "name": "Claesson",
      "player_id": 207554,
      "position": "LM",
      "rarity": "common",
      "version": "gold",
      "rating": 75,
      "count": 3
    },
    {
      "name": "Rutter",
      "player_id": 245637,
      "position": "ST",
      "rarity": "common",
      "version": "gold",
      "rating": 75,
      "count": 3
    },
    {
      "name": "Horn",
      "player_id": 200316,
      "position": "GK",
      "rarity": "common",
      "version": "gold",
      "rating": 75,
      "count": 3
    },
    {
      "name": "Araujo",
      "player_id": 198145,
      "position": "ST",
      "rarity": "common",
      "version": "gold",
      "rating": 75,
      "count": 3
    },
    {
      "name": "Truffert",
      "player_id": 256769,
      "position": "LB",
      "rarity": "common",
      "version": "gold",
      "rating": 75,
      "count": 3
    },
    {
      "name": "Suárez",
      "player_id": 245158,
      "position": "ST",
      "rarity": "common",
      "version": "gold",
      "rating": 76,
      "count": 3
    },
    {
      "name": "Pieper",
      "player_id": 246836,
      "position": "CB",
      "rarity": "common",
      "version": "gold",
      "rating": 75,
      "count": 3
    },
    {
      "name": "Lees-Melou",
      "player_id": 230020,
      "position": "CM",
      "rarity": "common",
      "version": "gold",
      "rating": 75,
      "count": 3
    },
    {
      "name": "Drągowski",
      "player_id": 215502,
      "position": "GK",
      "rarity": "common",
      "version": "gold",
      "rating": 75,
      "count": 3
    },
    {
      "name": "Olsen",
      "player_id": 207557,
      "position": "GK",
      "rarity": "common",
      "version": "gold",
      "rating": 75,
      "count": 3
    },
    {
      "name": "Sergio Herrera",
      "player_id": 224003,
      "position": "GK",
      "rarity": "common",
      "version": "gold",
      "rating": 78,
      "count": 3
    },
    {
      "name": "Dabbur",
      "player_id": 208498,
      "position": "ST",
      "rarity": "common",
      "version": "gold",
      "rating": 75,
      "count": 3
    },
    {
      "name": "Geiger",
      "player_id": 235526,
      "position": "CM",
      "rarity": "common",
      "version": "gold",
      "rating": 75,
      "count": 3
    },
    {
      "name": "Fraser",
      "player_id": 207807,
      "position": "RM",
      "rarity": "common",
      "version": "gold",
      "rating": 76,
      "count": 3
    },
    {
      "name": "Aitor",
      "player_id": 193314,
      "position": "GK",
      "rarity": "common",
      "version": "gold",
      "rating": 77,
      "count": 3
    },
    {
      "name": "Aktürkoğlu",
      "player_id": 258580,
      "position": "LM",
      "rarity": "common",
      "version": "gold",
      "rating": 75,
      "count": 3
    },
    {
      "name": "Pablo Maffeo",
      "player_id": 221342,
      "position": "RB",
      "rarity": "common",
      "version": "gold",
      "rating": 78,
      "count": 3
    },
    {
      "name": "Toprak",
      "player_id": 185239,
      "position": "CB",
      "rarity": "common",
      "version": "gold",
      "rating": 76,
      "count": 3
    },
    {
      "name": "Castellanos",
      "player_id": 237712,
      "position": "ST",
      "rarity": "common",
      "version": "gold",
      "rating": 77,
      "count": 3
    },
    {
      "name": "Cabrera",
      "player_id": 192816,
      "position": "CB",
      "rarity": "common",
      "version": "gold",
      "rating": 75,
      "count": 3
    },
    {
      "name": "Augustinsson",
      "player_id": 212678,
      "position": "LB",
      "rarity": "common",
      "version": "gold",
      "rating": 77,
      "count": 3
    },
    {
      "name": "Meslier",
      "player_id": 242656,
      "position": "GK",
      "rarity": "common",
      "version": "gold",
      "rating": 77,
      "count": 3
    },
    {
      "name": "Ilić",
      "player_id": 258683,
      "position": "CM",
      "rarity": "common",
      "version": "gold",
      "rating": 76,
      "count": 3
    },
    {
      "name": "Diego Rico",
      "player_id": 220414,
      "position": "LB",
      "rarity": "common",
      "version": "gold",
      "rating": 76,
      "count": 3
    },
    {
      "name": "Doan",
      "player_id": 232639,
      "position": "RM",
      "rarity": "common",
      "version": "gold",
      "rating": 77,
      "count": 3
    },
    {
      "name": "Seferović",
      "player_id": 193408,
      "position": "ST",
      "rarity": "common",
      "version": "gold",
      "rating": 76,
      "count": 3
    },
    {
      "name": "Pérez",
      "player_id": 244206,
      "position": "CB",
      "rarity": "common",
      "version": "gold",
      "rating": 75,
      "count": 3
    },
    {
      "name": "Guirassy",
      "player_id": 215441,
      "position": "ST",
      "rarity": "common",
      "version": "gold",
      "rating": 76,
      "count": 3
    },
    {
      "name": "Joel Robles",
      "player_id": 195668,
      "position": "GK",
      "rarity": "common",
      "version": "gold",
      "rating": 75,
      "count": 2
    },
    {
      "name": "Mercier",
      "player_id": 204320,
      "position": "CAM",
      "rarity": "common",
      "version": "gold",
      "rating": 76,
      "count": 2
    },
    {
      "name": "Tousart",
      "player_id": 227234,
      "position": "CDM",
      "rarity": "common",
      "version": "gold",
      "rating": 75,
      "count": 2
    },
    {
      "name": "Guilavogui",
      "player_id": 198118,
      "position": "CDM",
      "rarity": "common",
      "version": "gold",
      "rating": 75,
      "count": 2
    },
    {
      "name": "Escudero",
      "player_id": 192679,
      "position": "LB",
      "rarity": "common",
      "version": "gold",
      "rating": 75,
      "count": 2
    },
    {
      "name": "Larsson",
      "player_id": 209782,
      "position": "LM",
      "rarity": "common",
      "version": "gold",
      "rating": 75,
      "count": 2
    },
    {
      "name": "Awoniyi",
      "player_id": 230978,
      "position": "ST",
      "rarity": "common",
      "version": "gold",
      "rating": 77,
      "count": 2
    },
    {
      "name": "Nyamsi",
      "player_id": 239575,
      "position": "CB",
      "rarity": "common",
      "version": "gold",
      "rating": 76,
      "count": 2
    },
    {
      "name": "Dawidowicz",
      "player_id": 213404,
      "position": "CB",
      "rarity": "common",
      "version": "gold",
      "rating": 75,
      "count": 2
    },
    {
      "name": "Bednarek",
      "player_id": 220570,
      "position": "CB",
      "rarity": "common",
      "version": "gold",
      "rating": 76,
      "count": 2
    },
    {
      "name": "José Callejón",
      "player_id": 185020,
      "position": "RW",
      "rarity": "common",
      "version": "gold",
      "rating": 75,
      "count": 2
    },
    {
      "name": "Fran Navarro",
      "player_id": 247138,
      "position": "ST",
      "rarity": "common",
      "version": "gold",
      "rating": 75,
      "count": 2
    },
    {
      "name": "Wimmer",
      "player_id": 254566,
      "position": "RM",
      "rarity": "common",
      "version": "gold",
      "rating": 76,
      "count": 2
    },
    {
      "name": "Maier",
      "player_id": 237629,
      "position": "CM",
      "rarity": "common",
      "version": "gold",
      "rating": 76,
      "count": 2
    },
    {
      "name": "Unai López",
      "player_id": 222390,
      "position": "CM",
      "rarity": "common",
      "version": "gold",
      "rating": 75,
      "count": 2
    },
    {
      "name": "Mac Allister",
      "player_id": 239837,
      "position": "CAM",
      "rarity": "common",
      "version": "gold",
      "rating": 76,
      "count": 2
    },
    {
      "name": "Thomas",
      "player_id": 254470,
      "position": "LB",
      "rarity": "common",
      "version": "gold",
      "rating": 75,
      "count": 2
    },
    {
      "name": "Lemina",
      "player_id": 212811,
      "position": "CM",
      "rarity": "common",
      "version": "gold",
      "rating": 75,
      "count": 2
    },
    {
      "name": "Ouwejan",
      "player_id": 229155,
      "position": "LB",
      "rarity": "common",
      "version": "gold",
      "rating": 75,
      "count": 2
    },
    {
      "name": "Destro",
      "player_id": 193338,
      "position": "ST",
      "rarity": "common",
      "version": "gold",
      "rating": 75,
      "count": 2
    },
    {
      "name": "Mvogo",
      "player_id": 206003,
      "position": "GK",
      "rarity": "common",
      "version": "gold",
      "rating": 75,
      "count": 2
    },
    {
      "name": "Brunner",
      "player_id": 215604,
      "position": "RB",
      "rarity": "common",
      "version": "gold",
      "rating": 75,
      "count": 2
    },
    {
      "name": "Edwards",
      "player_id": 235619,
      "position": "RW",
      "rarity": "common",
      "version": "gold",
      "rating": 78,
      "count": 2
    },
    {
      "name": "Selnæs",
      "player_id": 204612,
      "position": "CM",
      "rarity": "common",
      "version": "gold",
      "rating": 75,
      "count": 2
    },
    {
      "name": "Nuytinck",
      "player_id": 193091,
      "position": "CB",
      "rarity": "common",
      "version": "gold",
      "rating": 75,
      "count": 2
    },
    {
      "name": "Muriqi",
      "player_id": 223710,
      "position": "ST",
      "rarity": "common",
      "version": "gold",
      "rating": 75,
      "count": 2
    },
    {
      "name": "Mojica",
      "player_id": 214026,
      "position": "LB",
      "rarity": "common",
      "version": "gold",
      "rating": 77,
      "count": 2
    },
    {
      "name": "André Gomes",
      "player_id": 211575,
      "position": "CM",
      "rarity": "common",
      "version": "gold",
      "rating": 75,
      "count": 2
    },
    {
      "name": "Bou",
      "player_id": 188955,
      "position": "ST",
      "rarity": "common",
      "version": "gold",
      "rating": 77,
      "count": 2
    },
    {
      "name": "Unnerstall",
      "player_id": 199833,
      "position": "GK",
      "rarity": "common",
      "version": "gold",
      "rating": 78,
      "count": 2
    },
    {
      "name": "Ljubičić",
      "player_id": 240916,
      "position": "RM",
      "rarity": "common",
      "version": "gold",
      "rating": 76,
      "count": 2
    },
    {
      "name": "Abdelhamid",
      "player_id": 206493,
      "position": "CB",
      "rarity": "common",
      "version": "gold",
      "rating": 76,
      "count": 2
    },
    {
      "name": "Ayling",
      "player_id": 186156,
      "position": "RB",
      "rarity": "common",
      "version": "gold",
      "rating": 75,
      "count": 2
    },
    {
      "name": "Gastien",
      "player_id": 208861,
      "position": "CDM",
      "rarity": "common",
      "version": "gold",
      "rating": 76,
      "count": 2
    },
    {
      "name": "Atal",
      "player_id": 240754,
      "position": "RB",
      "rarity": "common",
      "version": "gold",
      "rating": 75,
      "count": 2
    },
    {
      "name": "Pinnock",
      "player_id": 238717,
      "position": "CB",
      "rarity": "common",
      "version": "gold",
      "rating": 75,
      "count": 2
    },
    {
      "name": "Carlos Neva",
      "player_id": 246844,
      "position": "LB",
      "rarity": "common",
      "version": "gold",
      "rating": 76,
      "count": 2
    },
    {
      "name": "Rønnow",
      "player_id": 201269,
      "position": "GK",
      "rarity": "common",
      "version": "gold",
      "rating": 75,
      "count": 2
    },
    {
      "name": "Oriol Romeu",
      "player_id": 199576,
      "position": "CDM",
      "rarity": "common",
      "version": "gold",
      "rating": 78,
      "count": 2
    },
    {
      "name": "Nico González",
      "player_id": 255069,
      "position": "CM",
      "rarity": "common",
      "version": "gold",
      "rating": 75,
      "count": 2
    },
    {
      "name": "Collins",
      "player_id": 248484,
      "position": "CB",
      "rarity": "common",
      "version": "gold",
      "rating": 75,
      "count": 2
    },
    {
      "name": "Poulsen",
      "player_id": 207791,
      "position": "ST",
      "rarity": "common",
      "version": "gold",
      "rating": 77,
      "count": 2
    },
    {
      "name": "Miguel Veloso",
      "player_id": 178007,
      "position": "CM",
      "rarity": "common",
      "version": "gold",
      "rating": 77,
      "count": 2
    },
    {
      "name": "Wallace",
      "player_id": 205970,
      "position": "CAM",
      "rarity": "common",
      "version": "gold",
      "rating": 75,
      "count": 2
    },
    {
      "name": "Guanca",
      "player_id": 227785,
      "position": "CAM",
      "rarity": "common",
      "version": "gold",
      "rating": 75,
      "count": 2
    },
    {
      "name": "Coleman",
      "player_id": 180216,
      "position": "RB",
      "rarity": "common",
      "version": "gold",
      "rating": 76,
      "count": 2
    },
    {
      "name": "Murillo",
      "player_id": 201377,
      "position": "CB",
      "rarity": "common",
      "version": "gold",
      "rating": 75,
      "count": 2
    },
    {
      "name": "Bakambu",
      "player_id": 198951,
      "position": "ST",
      "rarity": "common",
      "version": "gold",
      "rating": 76,
      "count": 2
    },
    {
      "name": "Hegazi",
      "player_id": 210648,
      "position": "CB",
      "rarity": "common",
      "version": "gold",
      "rating": 76,
      "count": 2
    },
    {
      "name": "Tsimikas",
      "player_id": 232223,
      "position": "LB",
      "rarity": "common",
      "version": "gold",
      "rating": 77,
      "count": 2
    },
    {
      "name": "Kurzawa",
      "player_id": 201510,
      "position": "LB",
      "rarity": "common",
      "version": "gold",
      "rating": 75,
      "count": 2
    },
    {
      "name": "Bakayoko",
      "player_id": 219809,
      "position": "CDM",
      "rarity": "common",
      "version": "gold",
      "rating": 75,
      "count": 2
    },
    {
      "name": "Musrati",
      "player_id": 252308,
      "position": "CDM",
      "rarity": "common",
      "version": "gold",
      "rating": 79,
      "count": 2
    },
    {
      "name": "Weissman",
      "player_id": 251412,
      "position": "ST",
      "rarity": "common",
      "version": "gold",
      "rating": 76,
      "count": 2
    },
    {
      "name": "Wilson",
      "player_id": 220710,
      "position": "RM",
      "rarity": "common",
      "version": "gold",
      "rating": 76,
      "count": 2
    },
    {
      "name": "Shaparenko",
      "player_id": 244374,
      "position": "CM",
      "rarity": "common",
      "version": "gold",
      "rating": 77,
      "count": 1
    },
    {
      "name": "Berge",
      "player_id": 228092,
      "position": "CDM",
      "rarity": "common",
      "version": "gold",
      "rating": 75,
      "count": 1
    },
    {
      "name": "Bravo",
      "player_id": 174543,
      "position": "GK",
      "rarity": "common",
      "version": "gold",
      "rating": 78,
      "count": 1
    },
    {
      "name": "Pezzella",
      "player_id": 193601,
      "position": "CB",
      "rarity": "common",
      "version": "gold",
      "rating": 77,
      "count": 1
    },
    {
      "name": "Kalinić",
      "player_id": 220932,
      "position": "GK",
      "rarity": "common",
      "version": "gold",
      "rating": 75,
      "count": 1
    },
    {
      "name": "Muñoz",
      "player_id": 237646,
      "position": "RB",
      "rarity": "common",
      "version": "gold",
      "rating": 75,
      "count": 1
    },
    {
      "name": "Soumaré",
      "player_id": 239817,
      "position": "CDM",
      "rarity": "common",
      "version": "gold",
      "rating": 76,
      "count": 1
    },
    {
      "name": "Luís Maximiano",
      "player_id": 244316,
      "position": "GK",
      "rarity": "common",
      "version": "gold",
      "rating": 79,
      "count": 1
    },
    {
      "name": "Luiz Gustavo",
      "player_id": 185221,
      "position": "CDM",
      "rarity": "common",
      "version": "gold",
      "rating": 75,
      "count": 1
    },
    {
      "name": "Hysaj",
      "player_id": 210864,
      "position": "LB",
      "rarity": "common",
      "version": "gold",
      "rating": 75,
      "count": 1
    },
    {
      "name": "Toney",
      "player_id": 212228,
      "position": "ST",
      "rarity": "common",
      "version": "gold",
      "rating": 77,
      "count": 1
    },
    {
      "name": "João Mário",
      "player_id": 257290,
      "position": "RB",
      "rarity": "common",
      "version": "gold",
      "rating": 75,
      "count": 1
    },
    {
      "name": "Turner",
      "player_id": 233267,
      "position": "GK",
      "rarity": "common",
      "version": "gold",
      "rating": 77,
      "count": 1
    },
    {
      "name": "Skov Olsen",
      "player_id": 240017,
      "position": "RM",
      "rarity": "common",
      "version": "gold",
      "rating": 76,
      "count": 1
    },
    {
      "name": "Friedrich",
      "player_id": 222493,
      "position": "CB",
      "rarity": "common",
      "version": "gold",
      "rating": 77,
      "count": 1
    },
    {
      "name": "Justin",
      "player_id": 231554,
      "position": "LB",
      "rarity": "common",
      "version": "gold",
      "rating": 76,
      "count": 1
    },
    {
      "name": "Iuri Medeiros",
      "player_id": 212230,
      "position": "CF",
      "rarity": "common",
      "version": "gold",
      "rating": 76,
      "count": 1
    },
    {
      "name": "Iwobi",
      "player_id": 213655,
      "position": "RM",
      "rarity": "common",
      "version": "gold",
      "rating": 75,
      "count": 1
    },
    {
      "name": "Nacho Vidal",
      "player_id": 238305,
      "position": "RB",
      "rarity": "common",
      "version": "gold",
      "rating": 75,
      "count": 1
    },
    {
      "name": "Kritsyuk",
      "player_id": 213150,
      "position": "GK",
      "rarity": "common",
      "version": "gold",
      "rating": 77,
      "count": 1
    },
    {
      "name": "Jovetić",
      "player_id": 181820,
      "position": "ST",
      "rarity": "common",
      "version": "gold",
      "rating": 77,
      "count": 1
    },
    {
      "name": "Sabaly",
      "player_id": 215699,
      "position": "RB",
      "rarity": "common",
      "version": "gold",
      "rating": 76,
      "count": 1
    },
    {
      "name": "Pessina",
      "player_id": 239613,
      "position": "CAM",
      "rarity": "common",
      "version": "gold",
      "rating": 77,
      "count": 1
    },
    {
      "name": "Balerdi",
      "player_id": 242835,
      "position": "CB",
      "rarity": "common",
      "version": "gold",
      "rating": 75,
      "count": 1
    },
    {
      "name": "Boufal",
      "player_id": 211381,
      "position": "CF",
      "rarity": "common",
      "version": "gold",
      "rating": 77,
      "count": 1
    },
    {
      "name": "Sanabria",
      "player_id": 219932,
      "position": "ST",
      "rarity": "common",
      "version": "gold",
      "rating": 75,
      "count": 1
    },
    {
      "name": "Silas",
      "player_id": 245940,
      "position": "RM",
      "rarity": "common",
      "version": "gold",
      "rating": 75,
      "count": 1
    },
    {
      "name": "Ekdal",
      "player_id": 181318,
      "position": "CM",
      "rarity": "common",
      "version": "gold",
      "rating": 75,
      "count": 1
    },
    {
      "name": "Eze",
      "player_id": 235794,
      "position": "CAM",
      "rarity": "common",
      "version": "gold",
      "rating": 76,
      "count": 1
    },
    {
      "name": "Guilbert",
      "player_id": 227222,
      "position": "RWB",
      "rarity": "common",
      "version": "gold",
      "rating": 78,
      "count": 1
    },
    {
      "name": "Balanta",
      "player_id": 213899,
      "position": "CDM",
      "rarity": "common",
      "version": "gold",
      "rating": 75,
      "count": 1
    },
    {
      "name": "Kalvach",
      "player_id": 251221,
      "position": "CDM",
      "rarity": "common",
      "version": "gold",
      "rating": 76,
      "count": 1
    },
    {
      "name": "Gorosabel",
      "player_id": 241049,
      "position": "RB",
      "rarity": "common",
      "version": "gold",
      "rating": 77,
      "count": 1
    },
    {
      "name": "Kevin",
      "player_id": 228716,
      "position": "RB",
      "rarity": "common",
      "version": "gold",
      "rating": 75,
      "count": 1
    },
    {
      "name": "Brooks",
      "player_id": 220196,
      "position": "RW",
      "rarity": "common",
      "version": "gold",
      "rating": 76,
      "count": 1
    },
    {
      "name": "Gutiérrez",
      "player_id": 220854,
      "position": "CM",
      "rarity": "common",
      "version": "gold",
      "rating": 76,
      "count": 1
    },
    {
      "name": "Rode",
      "player_id": 200215,
      "position": "CDM",
      "rarity": "common",
      "version": "gold",
      "rating": 78,
      "count": 1
    },
    {
      "name": "Uzuni",
      "player_id": 261204,
      "position": "LM",
      "rarity": "common",
      "version": "gold",
      "rating": 75,
      "count": 1
    },
    {
      "name": "Roberts",
      "player_id": 225147,
      "position": "RB",
      "rarity": "common",
      "version": "gold",
      "rating": 75,
      "count": 1
    },
    {
      "name": "Kurtić",
      "player_id": 202061,
      "position": "CM",
      "rarity": "common",
      "version": "gold",
      "rating": 76,
      "count": 1
    },
    {
      "name": "Samuel Lino",
      "player_id": 251445,
      "position": "LM",
      "rarity": "common",
      "version": "gold",
      "rating": 75,
      "count": 1
    },
    {
      "name": "Lucas Torró",
      "player_id": 208137,
      "position": "CDM",
      "rarity": "common",
      "version": "gold",
      "rating": 75,
      "count": 1
    },
    {
      "name": "Luan Peres",
      "player_id": 234791,
      "position": "LB",
      "rarity": "common",
      "version": "gold",
      "rating": 76,
      "count": 1
    },
    {
      "name": "Frankowski",
      "player_id": 212138,
      "position": "LWB",
      "rarity": "common",
      "version": "gold",
      "rating": 76,
      "count": 1
    },
    {
      "name": "Grujić",
      "player_id": 232099,
      "position": "CM",
      "rarity": "common",
      "version": "gold",
      "rating": 76,
      "count": 1
    },
    {
      "name": "Bakasetas",
      "player_id": 208250,
      "position": "CAM",
      "rarity": "common",
      "version": "gold",
      "rating": 77,
      "count": 1
    },
    {
      "name": "Özil",
      "player_id": 176635,
      "position": "CAM",
      "rarity": "common",
      "version": "gold",
      "rating": 78,
      "count": 1
    },
    {
      "name": "Escalante",
      "player_id": 219391,
      "position": "CDM",
      "rarity": "common",
      "version": "gold",
      "rating": 76,
      "count": 1
    },
    {
      "name": "Lazović",
      "player_id": 212127,
      "position": "LM",
      "rarity": "common",
      "version": "gold",
      "rating": 77,
      "count": 1
    },
    {
      "name": "Gollini",
      "player_id": 211515,
      "position": "GK",
      "rarity": "common",
      "version": "gold",
      "rating": 78,
      "count": 1
    },
    {
      "name": "Bailly",
      "player_id": 225508,
      "position": "CB",
      "rarity": "common",
      "version": "gold",
      "rating": 76,
      "count": 1
    },
    {
      "name": "Gradel",
      "player_id": 182945,
      "position": "LW",
      "rarity": "common",
      "version": "gold",
      "rating": 76,
      "count": 1
    },
    {
      "name": "Budimir",
      "player_id": 188335,
      "position": "ST",
      "rarity": "common",
      "version": "gold",
      "rating": 76,
      "count": 1
    },
    {
      "name": "Aihen Muñoz",
      "player_id": 246748,
      "position": "LB",
      "rarity": "common",
      "version": "gold",
      "rating": 75,
      "count": 1
    },
    {
      "name": "Jakić",
      "player_id": 257889,
      "position": "CDM",
      "rarity": "common",
      "version": "gold",
      "rating": 76,
      "count": 1
    },
    {
      "name": "Perin",
      "player_id": 198009,
      "position": "GK",
      "rarity": "common",
      "version": "gold",
      "rating": 79,
      "count": 1
    },
    {
      "name": "Stojanović",
      "player_id": 225995,
      "position": "RB",
      "rarity": "common",
      "version": "gold",
      "rating": 75,
      "count": 1
    },
    {
      "name": "Saponara",
      "player_id": 201046,
      "position": "LW",
      "rarity": "common",
      "version": "gold",
      "rating": 76,
      "count": 1
    },
    {
      "name": "Reed",
      "player_id": 205990,
      "position": "CDM",
      "rarity": "common",
      "version": "gold",
      "rating": 75,
      "count": 1
    },
    {
      "name": "Darlow",
      "player_id": 193331,
      "position": "GK",
      "rarity": "common",
      "version": "gold",
      "rating": 75,
      "count": 1
    },
    {
      "name": "Karlsson",
      "player_id": 231836,
      "position": "LW",
      "rarity": "common",
      "version": "gold",
      "rating": 78,
      "count": 1
    },
    {
      "name": "Billing",
      "player_id": 220714,
      "position": "CM",
      "rarity": "common",
      "version": "gold",
      "rating": 75,
      "count": 1
    },
    {
      "name": "Slimani",
      "player_id": 217699,
      "position": "ST",
      "rarity": "common",
      "version": "gold",
      "rating": 75,
      "count": 1
    },
    {
      "name": "Pavard",
      "player_id": 226851,
      "position": "RB",
      "rarity": "common",
      "version": "gold",
      "rating": 79,
      "count": 1
    },
    {
      "name": "Cédric",
      "player_id": 201118,
      "position": "RB",
      "rarity": "common",
      "version": "gold",
      "rating": 75,
      "count": 1
    },
    {
      "name": "Vecino",
      "player_id": 219985,
      "position": "CM",
      "rarity": "common",
      "version": "gold",
      "rating": 77,
      "count": 1
    },
    {
      "name": "Doku",
      "player_id": 246420,
      "position": "RW",
      "rarity": "common",
      "version": "gold",
      "rating": 75,
      "count": 1
    },
    {
      "name": "Darida",
      "player_id": 201262,
      "position": "CM",
      "rarity": "common",
      "version": "gold",
      "rating": 75,
      "count": 1
    },
    {
      "name": "Žulj",
      "player_id": 201290,
      "position": "CAM",
      "rarity": "common",
      "version": "gold",
      "rating": 75,
      "count": 1
    },
    {
      "name": "Dessers",
      "player_id": 222262,
      "position": "ST",
      "rarity": "common",
      "version": "gold",
      "rating": 75,
      "count": 1
    },
    {
      "name": "Russell",
      "player_id": 185068,
      "position": "RW",
      "rarity": "common",
      "version": "gold",
      "rating": 75,
      "count": 1
    },
    {
      "name": "Younes",
      "player_id": 205966,
      "position": "CAM",
      "rarity": "common",
      "version": "gold",
      "rating": 75,
      "count": 1
    },
    {
      "name": "Trimmel",
      "player_id": 193254,
      "position": "RWB",
      "rarity": "common",
      "version": "gold",
      "rating": 77,
      "count": 1
    },
    {
      "name": "Mosquera",
      "player_id": 235317,
      "position": "LM",
      "rarity": "common",
      "version": "gold",
      "rating": 75,
      "count": 1
    },
    {
      "name": "Morelos",
      "player_id": 221714,
      "position": "ST",
      "rarity": "common",
      "version": "gold",
      "rating": 76,
      "count": 1
    },
    {
      "name": "Germán",
      "player_id": 198230,
      "position": "CB",
      "rarity": "common",
      "version": "gold",
      "rating": 77,
      "count": 1
    },
    {
      "name": "Castagne",
      "player_id": 222501,
      "position": "RB",
      "rarity": "common",
      "version": "gold",
      "rating": 78,
      "count": 1
    },
    {
      "name": "Dimitrievski",
      "player_id": 211348,
      "position": "GK",
      "rarity": "common",
      "version": "gold",
      "rating": 78,
      "count": 1
    },
    {
      "name": "Sosa",
      "player_id": 205409,
      "position": "GK",
      "rarity": "rare",
      "version": "special",
      "rating": 75,
      "count": 1
    },
    {
      "name": "Liénard",
      "player_id": 235042,
      "position": "LWB",
      "rarity": "common",
      "version": "gold",
      "rating": 75,
      "count": 1
    },
    {
      "name": "Skhiri",
      "player_id": 225126,
      "position": "CDM",
      "rarity": "common",
      "version": "gold",
      "rating": 79,
      "count": 1
    },
    {
      "name": "Sels",
      "player_id": 199641,
      "position": "GK",
      "rarity": "common",
      "version": "gold",
      "rating": 79,
      "count": 1
    },
    {
      "name": "Unsain",
      "player_id": 222511,
      "position": "GK",
      "rarity": "rare",
      "version": "special",
      "rating": 75,
      "count": 1
    },
    {
      "name": "Catena",
      "player_id": 243976,
      "position": "CB",
      "rarity": "common",
      "version": "gold",
      "rating": 76,
      "count": 1
    },
    {
      "name": "Samassékou",
      "player_id": 235424,
      "position": "CDM",
      "rarity": "common",
      "version": "gold",
      "rating": 76,
      "count": 1
    },
    {
      "name": "Tiago Tomás",
      "player_id": 257073,
      "position": "ST",
      "rarity": "common",
      "version": "gold",
      "rating": 75,
      "count": 1
    },
    {
      "name": "Andrei Girotto",
      "player_id": 226515,
      "position": "CB",
      "rarity": "common",
      "version": "gold",
      "rating": 78,
      "count": 1
    },
    {
      "name": "Honorat",
      "player_id": 220876,
      "position": "LM",
      "rarity": "common",
      "version": "gold",
      "rating": 77,
      "count": 1
    },
    {
      "name": "Kenedy",
      "player_id": 215639,
      "position": "LM",
      "rarity": "common",
      "version": "gold",
      "rating": 76,
      "count": 1
    },
    {
      "name": "Max",
      "player_id": 212187,
      "position": "LB",
      "rarity": "common",
      "version": "gold",
      "rating": 77,
      "count": 1
    },
    {
      "name": "Junior Firpo",
      "player_id": 241184,
      "position": "LB",
      "rarity": "common",
      "version": "gold",
      "rating": 75,
      "count": 1
    },
    {
      "name": "Yılmaz",
      "player_id": 124375,
      "position": "ST",
      "rarity": "common",
      "version": "gold",
      "rating": 77,
      "count": 1
    },
    {
      "name": "Hause",
      "player_id": 210635,
      "position": "CB",
      "rarity": "common",
      "version": "gold",
      "rating": 75,
      "count": 1
    },
    {
      "name": "Mæhle",
      "player_id": 234678,
      "position": "RWB",
      "rarity": "common",
      "version": "gold",
      "rating": 76,
      "count": 1
    },
    {
      "name": "Boly",
      "player_id": 202750,
      "position": "CB",
      "rarity": "common",
      "version": "gold",
      "rating": 78,
      "count": 1
    },
    {
      "name": "Lazaro",
      "player_id": 211147,
      "position": "RWB",
      "rarity": "common",
      "version": "gold",
      "rating": 75,
      "count": 1
    },
    {
      "name": "Živković",
      "player_id": 220746,
      "position": "RW",
      "rarity": "common",
      "version": "gold",
      "rating": 77,
      "count": 1
    },
    {
      "name": "Juranović",
      "player_id": 257771,
      "position": "RB",
      "rarity": "common",
      "version": "gold",
      "rating": 75,
      "count": 1
    },
    {
      "name": "Aït Nouri",
      "player_id": 242641,
      "position": "LWB",
      "rarity": "common",
      "version": "gold",
      "rating": 76,
      "count": 1
    },
    {
      "name": "Wittek",
      "player_id": 224423,
      "position": "LWB",
      "rarity": "common",
      "version": "gold",
      "rating": 75,
      "count": 1
    },
    {
      "name": "De Silvestri",
      "player_id": 170320,
      "position": "RWB",
      "rarity": "common",
      "version": "gold",
      "rating": 76,
      "count": 1
    },
    {
      "name": "Knauff",
      "player_id": 257540,
      "position": "RM",
      "rarity": "common",
      "version": "gold",
      "rating": 75,
      "count": 1
    },
    {
      "name": "Willian José",
      "player_id": 195093,
      "position": "ST",
      "rarity": "common",
      "version": "gold",
      "rating": 78,
      "count": 1
    },
    {
      "name": "Cristaldo",
      "player_id": 223097,
      "position": "CAM",
      "rarity": "common",
      "version": "gold",
      "rating": 75,
      "count": 1
    },
    {
      "name": "Balliu",
      "player_id": 203581,
      "position": "RB",
      "rarity": "common",
      "version": "gold",
      "rating": 75,
      "count": 1
    },
    {
      "name": "Skorupski",
      "player_id": 189908,
      "position": "GK",
      "rarity": "common",
      "version": "gold",
      "rating": 76,
      "count": 1
    },
    {
      "name": "Mykolenko",
      "player_id": 244380,
      "position": "LB",
      "rarity": "common",
      "version": "gold",
      "rating": 76,
      "count": 1
    },
    {
      "name": "Olaza",
      "player_id": 221832,
      "position": "LB",
      "rarity": "common",
      "version": "gold",
      "rating": 75,
      "count": 1
    },
    {
      "name": "Rubén Duarte",
      "player_id": 226637,
      "position": "LB",
      "rarity": "common",
      "version": "gold",
      "rating": 76,
      "count": 1
    },
    {
      "name": "Lotomba",
      "player_id": 234686,
      "position": "RB",
      "rarity": "common",
      "version": "gold",
      "rating": 75,
      "count": 1
    },
    {
      "name": "Hector",
      "player_id": 208334,
      "position": "LB",
      "rarity": "common",
      "version": "gold",
      "rating": 78,
      "count": 1
    },
    {
      "name": "Valjent",
      "player_id": 219585,
      "position": "CB",
      "rarity": "common",
      "version": "gold",
      "rating": 75,
      "count": 1
    },
    {
      "name": "Strakosha",
      "player_id": 212151,
      "position": "GK",
      "rarity": "common",
      "version": "gold",
      "rating": 78,
      "count": 1
    },
    {
      "name": "Lerma",
      "player_id": 213991,
      "position": "CDM",
      "rarity": "common",
      "version": "gold",
      "rating": 75,
      "count": 1
    },
    {
      "name": "Amartey",
      "player_id": 212883,
      "position": "CB",
      "rarity": "common",
      "version": "gold",
      "rating": 76,
      "count": 1
    },
    {
      "name": "Swift",
      "player_id": 211506,
      "position": "CAM",
      "rarity": "common",
      "version": "gold",
      "rating": 75,
      "count": 1
    },
    {
      "name": "Koné",
      "player_id": 250723,
      "position": "CM",
      "rarity": "common",
      "version": "gold",
      "rating": 77,
      "count": 1
    },
    {
      "name": "Rochinha",
      "player_id": 222461,
      "position": "LW",
      "rarity": "common",
      "version": "gold",
      "rating": 75,
      "count": 1
    },
    {
      "name": "Pešek",
      "player_id": 263288,
      "position": "RM",
      "rarity": "common",
      "version": "gold",
      "rating": 75,
      "count": 1
    },
    {
      "name": "Vallejo",
      "player_id": 225161,
      "position": "CB",
      "rarity": "common",
      "version": "gold",
      "rating": 75,
      "count": 1
    },
    {
      "name": "Demme",
      "player_id": 202325,
      "position": "CDM",
      "rarity": "common",
      "version": "gold",
      "rating": 77,
      "count": 1
    },
    {
      "name": "Cullen",
      "player_id": 228151,
      "position": "CDM",
      "rarity": "common",
      "version": "gold",
      "rating": 75,
      "count": 1
    },
    {
      "name": "Douglas Luiz",
      "player_id": 236499,
      "position": "CDM",
      "rarity": "common",
      "version": "gold",
      "rating": 78,
      "count": 1
    },
    {
      "name": "Lukić",
      "player_id": 236699,
      "position": "CM",
      "rarity": "common",
      "version": "gold",
      "rating": 77,
      "count": 1
    },
    {
      "name": "Caci",
      "player_id": 236636,
      "position": "LWB",
      "rarity": "common",
      "version": "gold",
      "rating": 75,
      "count": 1
    },
    {
      "name": "Gibbs-White",
      "player_id": 236015,
      "position": "CAM",
      "rarity": "common",
      "version": "gold",
      "rating": 75,
      "count": 1
    },
    {
      "name": "Belaïli",
      "player_id": 241167,
      "position": "LM",
      "rarity": "common",
      "version": "gold",
      "rating": 76,
      "count": 1
    },
    {
      "name": "Cuéllar",
      "player_id": 214009,
      "position": "CDM",
      "rarity": "common",
      "version": "gold",
      "rating": 76,
      "count": 1
    },
    {
      "name": "Masuaku",
      "player_id": 212491,
      "position": "LB",
      "rarity": "common",
      "version": "gold",
      "rating": 75,
      "count": 1
    },
    {
      "name": "Midtsjø",
      "player_id": 198658,
      "position": "CM",
      "rarity": "common",
      "version": "gold",
      "rating": 77,
      "count": 1
    },
    {
      "name": "Tetê",
      "player_id": 247641,
      "position": "RW",
      "rarity": "common",
      "version": "gold",
      "rating": 76,
      "count": 1
    },
    {
      "name": "Jean Lucas",
      "player_id": 251217,
      "position": "CM",
      "rarity": "common",
      "version": "gold",
      "rating": 75,
      "count": 1
    },
    {
      "name": "Giménez",
      "player_id": 245152,
      "position": "ST",
      "rarity": "common",
      "version": "gold",
      "rating": 75,
      "count": 1
    },
    {
      "name": "Pavlidis",
      "player_id": 229188,
      "position": "ST",
      "rarity": "common",
      "version": "gold",
      "rating": 76,
      "count": 1
    },
    {
      "name": "Kossounou",
      "player_id": 246875,
      "position": "CB",
      "rarity": "common",
      "version": "gold",
      "rating": 75,
      "count": 1
    },
    {
      "name": "Broja",
      "player_id": 256268,
      "position": "ST",
      "rarity": "common",
      "version": "gold",
      "rating": 75,
      "count": 1
    },
    {
      "name": "Morita",
      "player_id": 242087,
      "position": "CM",
      "rarity": "common",
      "version": "gold",
      "rating": 76,
      "count": 1
    },
    {
      "name": "Muslera",
      "player_id": 182494,
      "position": "GK",
      "rarity": "common",
      "version": "gold",
      "rating": 79,
      "count": 1
    },
    {
      "name": "Bayındır",
      "player_id": 243647,
      "position": "GK",
      "rarity": "common",
      "version": "gold",
      "rating": 78,
      "count": 1
    },
    {
      "name": "Dost",
      "player_id": 189068,
      "position": "ST",
      "rarity": "common",
      "version": "gold",
      "rating": 76,
      "count": 1
    },
    {
      "name": "Sosa",
      "player_id": 243388,
      "position": "LB",
      "rarity": "common",
      "version": "gold",
      "rating": 78,
      "count": 1
    },
    {
      "name": "Hugo Mallo",
      "player_id": 194229,
      "position": "RB",
      "rarity": "common",
      "version": "gold",
      "rating": 77,
      "count": 1
    },
    {
      "name": "Montoro",
      "player_id": 186682,
      "position": "CDM",
      "rarity": "common",
      "version": "gold",
      "rating": 77,
      "count": 1
    },
    {
      "name": "Bushchan",
      "player_id": 244385,
      "position": "GK",
      "rarity": "common",
      "version": "gold",
      "rating": 75,
      "count": 1
    },
    {
      "name": "Lindner",
      "player_id": 193247,
      "position": "GK",
      "rarity": "common",
      "version": "gold",
      "rating": 75,
      "count": 1
    },
    {
      "name": "Alberto Moreno",
      "player_id": 205566,
      "position": "LB",
      "rarity": "common",
      "version": "gold",
      "rating": 77,
      "count": 1
    },
    {
      "name": "Ünal",
      "player_id": 223197,
      "position": "ST",
      "rarity": "common",
      "version": "gold",
      "rating": 78,
      "count": 1
    },
    {
      "name": "Piątek",
      "player_id": 223113,
      "position": "ST",
      "rarity": "common",
      "version": "gold",
      "rating": 75,
      "count": 1
    },
    {
      "name": "Miranda",
      "player_id": 214988,
      "position": "CM",
      "rarity": "rare",
      "version": "special",
      "rating": 75,
      "count": 1
    },
    {
      "name": "Waldschmidt",
      "player_id": 220085,
      "position": "CF",
      "rarity": "common",
      "version": "gold",
      "rating": 75,
      "count": 1
    },
    {
      "name": "Ighalo",
      "player_id": 185195,
      "position": "ST",
      "rarity": "common",
      "version": "gold",
      "rating": 78,
      "count": 1
    },
    {
      "name": "Blake",
      "player_id": 216939,
      "position": "GK",
      "rarity": "common",
      "version": "gold",
      "rating": 77,
      "count": 1
    },
    {
      "name": "Gabriel Strefezza",
      "player_id": 235949,
      "position": "RW",
      "rarity": "common",
      "version": "gold",
      "rating": 75,
      "count": 1
    },
    {
      "name": "Lejeune",
      "player_id": 197948,
      "position": "CB",
      "rarity": "common",
      "version": "gold",
      "rating": 77,
      "count": 1
    },
    {
      "name": "Theate",
      "player_id": 257278,
      "position": "CB",
      "rarity": "common",
      "version": "gold",
      "rating": 75,
      "count": 1
    },
    {
      "name": "Toköz",
      "player_id": 223717,
      "position": "CM",
      "rarity": "common",
      "version": "gold",
      "rating": 75,
      "count": 1
    },
    {
      "name": "Audero",
      "player_id": 228413,
      "position": "GK",
      "rarity": "common",
      "version": "gold",
      "rating": 78,
      "count": 1
    },
    {
      "name": "Meling",
      "player_id": 219466,
      "position": "LB",
      "rarity": "common",
      "version": "gold",
      "rating": 76,
      "count": 1
    },
    {
      "name": "Martins Indi",
      "player_id": 199550,
      "position": "CB",
      "rarity": "common",
      "version": "gold",
      "rating": 75,
      "count": 1
    },
    {
      "name": "Ferri",
      "player_id": 206306,
      "position": "CDM",
      "rarity": "common",
      "version": "gold",
      "rating": 77,
      "count": 1
    },
    {
      "name": "Ducksch",
      "player_id": 197031,
      "position": "ST",
      "rarity": "common",
      "version": "gold",
      "rating": 75,
      "count": 1
    },
    {
      "name": "Zimmerman",
      "player_id": 212591,
      "position": "CB",
      "rarity": "common",
      "version": "gold",
      "rating": 76,
      "count": 1
    },
    {
      "name": "Mandanda",
      "player_id": 163705,
      "position": "GK",
      "rarity": "common",
      "version": "gold",
      "rating": 79,
      "count": 1
    },
    {
      "name": "Ordets",
      "player_id": 224811,
      "position": "CB",
      "rarity": "common",
      "version": "gold",
      "rating": 75,
      "count": 1
    },
    {
      "name": "Alemán",
      "player_id": 215018,
      "position": "CM",
      "rarity": "common",
      "version": "gold",
      "rating": 75,
      "count": 1
    },
    {
      "name": "Florentino",
      "player_id": 234569,
      "position": "CDM",
      "rarity": "common",
      "version": "gold",
      "rating": 76,
      "count": 1
    },
    {
      "name": "Trincão",
      "player_id": 244778,
      "position": "RW",
      "rarity": "common",
      "version": "gold",
      "rating": 76,
      "count": 1
    },
    {
      "name": "Westwood",
      "player_id": 189280,
      "position": "CDM",
      "rarity": "common",
      "version": "gold",
      "rating": 76,
      "count": 1
    },
    {
      "name": "Gabbiadini",
      "player_id": 198683,
      "position": "ST",
      "rarity": "common",
      "version": "gold",
      "rating": 75,
      "count": 1
    },
    {
      "name": "Vítor Tormena",
      "player_id": 246098,
      "position": "CB",
      "rarity": "common",
      "version": "gold",
      "rating": 75,
      "count": 1
    },
    {
      "name": "Bizot",
      "player_id": 200110,
      "position": "GK",
      "rarity": "common",
      "version": "gold",
      "rating": 76,
      "count": 1
    },
    {
      "name": "Schlupp",
      "player_id": 200759,
      "position": "LM",
      "rarity": "common",
      "version": "gold",
      "rating": 76,
      "count": 1
    },
    {
      "name": "Luiz Adriano",
      "player_id": 180826,
      "position": "ST",
      "rarity": "common",
      "version": "gold",
      "rating": 76,
      "count": 1
    },
    {
      "name": "Fran García",
      "player_id": 246606,
      "position": "LB",
      "rarity": "common",
      "version": "gold",
      "rating": 75,
      "count": 1
    },
    {
      "name": "Posch",
      "player_id": 223671,
      "position": "CB",
      "rarity": "common",
      "version": "gold",
      "rating": 75,
      "count": 1
    },
    {
      "name": "Johnstone",
      "player_id": 206075,
      "position": "GK",
      "rarity": "common",
      "version": "gold",
      "rating": 75,
      "count": 1
    },
    {
      "name": "Szalai",
      "player_id": 253170,
      "position": "CB",
      "rarity": "common",
      "version": "gold",
      "rating": 76,
      "count": 1
    },
    {
      "name": "Schwäbe",
      "player_id": 224041,
      "position": "GK",
      "rarity": "common",
      "version": "gold",
      "rating": 77,
      "count": 1
    },
    {
      "name": "Shaqiri",
      "player_id": 193348,
      "position": "CAM",
      "rarity": "common",
      "version": "gold",
      "rating": 76,
      "count": 1
    },
    {
      "name": "Solomon",
      "player_id": 246791,
      "position": "LM",
      "rarity": "common",
      "version": "gold",
      "rating": 76,
      "count": 1
    },
    {
      "name": "Mitchell",
      "player_id": 240947,
      "position": "LB",
      "rarity": "common",
      "version": "gold",
      "rating": 76,
      "count": 1
    },
    {
      "name": "Abergel",
      "player_id": 213367,
      "position": "CDM",
      "rarity": "common",
      "version": "gold",
      "rating": 75,
      "count": 1
    }
  ]
}