{
  "write_ts": "2022-09-21T17:27:35.657Z",
  "players": [
    {
      "name": "Adama Soumaoro",
      "player_id": 200353,
      "position": "CB",
      "rarity": "rare",
      "version": "silver",
      "rating": 74,
      "count": 37
    },
    {
      "name": "Damien Da Silva",
      "player_id": 179789,
      "position": "CB",
      "rarity": "rare",
      "version": "silver",
      "rating": 74,
      "count": 34
    },
    {
      "name": "Kevin Schade",
      "player_id": 260926,
      "position": "RM",
      "rarity": "rare",
      "version": "silver",
      "rating": 70,
      "count": 25
    },
    {
      "name": "Chem Campbell",
      "player_id": 254113,
      "position": "CAM",
      "rarity": "non-rare",
      "version": "bronze",
      "rating": 60,
      "count": 24
    },
    {
      "name": "Joscha Wosz",
      "player_id": 259165,
      "position": "CM",
      "rarity": "non-rare",
      "version": "bronze",
      "rating": 61,
      "count": 20
    },
    {
      "name": "Janis Blaswich",
      "player_id": 204092,
      "position": "GK",
      "rarity": "rare",
      "version": "silver",
      "rating": 72,
      "count": 20
    },
    {
      "name": "Pavao Pervan",
      "player_id": 199909,
      "position": "GK",
      "rarity": "rare",
      "version": "silver",
      "rating": 73,
      "count": 16
    },
    {
      "name": "Georginio Rutter",
      "player_id": 245637,
      "position": "ST",
      "rarity": "non-rare",
      "version": "gold",
      "rating": 75,
      "count": 14
    },
    {
      "name": "Hugo Novoa",
      "player_id": 258041,
      "position": "ST",
      "rarity": "non-rare",
      "version": "silver",
      "rating": 66,
      "count": 13
    },
    {
      "name": "Patrick Wimmer",
      "player_id": 254566,
      "position": "RM",
      "rarity": "non-rare",
      "version": "gold",
      "rating": 76,
      "count": 13
    },
    {
      "name": "Devyne Rensch",
      "player_id": 258826,
      "position": "RB",
      "rarity": "non-rare",
      "version": "silver",
      "rating": 73,
      "count": 12
    },
    {
      "name": "Kik Pierie",
      "player_id": 234925,
      "position": "CB",
      "rarity": "non-rare",
      "version": "silver",
      "rating": 66,
      "count": 11
    },
    {
      "name": "Lisandro Magallán",
      "player_id": 211263,
      "position": "CB",
      "rarity": "non-rare",
      "version": "silver",
      "rating": 71,
      "count": 10
    },
    {
      "name": "Stefan Posch",
      "player_id": 223671,
      "position": "CB",
      "rarity": "non-rare",
      "version": "gold",
      "rating": 75,
      "count": 10
    },
    {
      "name": "Vallejo",
      "player_id": 225161,
      "position": "CB",
      "rarity": "non-rare",
      "version": "gold",
      "rating": 75,
      "count": 9
    },
    {
      "name": "Daniel-Kofi Kyereh",
      "player_id": 244112,
      "position": "CAM",
      "rarity": "non-rare",
      "version": "gold",
      "rating": 75,
      "count": 9
    },
    {
      "name": "Franco Cervi",
      "player_id": 223061,
      "position": "LM",
      "rarity": "rare",
      "version": "gold",
      "rating": 78,
      "count": 9
    },
    {
      "name": "Jacob Ramsey",
      "player_id": 246923,
      "position": "CM",
      "rarity": "non-rare",
      "version": "gold",
      "rating": 75,
      "count": 9
    },
    {
      "name": "Florian Lejeune",
      "player_id": 197948,
      "position": "CB",
      "rarity": "rare",
      "version": "gold",
      "rating": 77,
      "count": 9
    },
    {
      "name": "Brais Méndez Portela",
      "player_id": 235944,
      "position": "RM",
      "rarity": "rare",
      "version": "gold",
      "rating": 77,
      "count": 8
    },
    {
      "name": "Waldemar Anton",
      "player_id": 229476,
      "position": "CB",
      "rarity": "non-rare",
      "version": "gold",
      "rating": 75,
      "count": 8
    },
    {
      "name": "F. da Conceição",
      "player_id": 261050,
      "position": "RW",
      "rarity": "non-rare",
      "version": "silver",
      "rating": 72,
      "count": 8
    },
    {
      "name": "Toti António Gomes",
      "player_id": 258607,
      "position": "CB",
      "rarity": "non-rare",
      "version": "silver",
      "rating": 69,
      "count": 7
    },
    {
      "name": "Calvin Bassey",
      "player_id": 241436,
      "position": "LB",
      "rarity": "rare",
      "version": "silver",
      "rating": 74,
      "count": 7
    },
    {
      "name": "Mariano Díaz Mejía",
      "player_id": 221639,
      "position": "ST",
      "rarity": "rare",
      "version": "silver",
      "rating": 74,
      "count": 6
    },
    {
      "name": "Jay Gorter",
      "player_id": 262262,
      "position": "GK",
      "rarity": "non-rare",
      "version": "silver",
      "rating": 71,
      "count": 6
    },
    {
      "name": "Hugo Bueno López",
      "player_id": 261224,
      "position": "LWB",
      "rarity": "non-rare",
      "version": "bronze",
      "rating": 60,
      "count": 6
    },
    {
      "name": "Jakub Kamiński",
      "player_id": 252495,
      "position": "LM",
      "rarity": "rare",
      "version": "silver",
      "rating": 71,
      "count": 5
    },
    {
      "name": "Rayan Cherki",
      "player_id": 251570,
      "position": "LW",
      "rarity": "rare",
      "version": "silver",
      "rating": 73,
      "count": 5
    },
    {
      "name": "Nicolás Domínguez",
      "player_id": 237819,
      "position": "CM",
      "rarity": "non-rare",
      "version": "gold",
      "rating": 76,
      "count": 5
    },
    {
      "name": "Hernâni",
      "player_id": 212911,
      "position": "RM",
      "rarity": "rare",
      "version": "silver",
      "rating": 71,
      "count": 5
    },
    {
      "name": "Jean-Paul Boëtius",
      "player_id": 205402,
      "position": "CAM",
      "rarity": "non-rare",
      "version": "gold",
      "rating": 75,
      "count": 5
    },
    {
      "name": "Angelo Fulgini",
      "player_id": 226789,
      "position": "CM",
      "rarity": "rare",
      "version": "gold",
      "rating": 77,
      "count": 5
    },
    {
      "name": "Issa Diop",
      "player_id": 231633,
      "position": "CB",
      "rarity": "rare",
      "version": "gold",
      "rating": 77,
      "count": 4
    },
    {
      "name": "Tyrone Mings",
      "player_id": 212419,
      "position": "CB",
      "rarity": "rare",
      "version": "gold",
      "rating": 78,
      "count": 4
    },
    {
      "name": "Benjamin Lecomte",
      "player_id": 200726,
      "position": "GK",
      "rarity": "rare",
      "version": "gold",
      "rating": 77,
      "count": 4
    },
    {
      "name": "Aitor Fernández",
      "player_id": 193314,
      "position": "GK",
      "rarity": "rare",
      "version": "gold",
      "rating": 77,
      "count": 4
    },
    {
      "name": "Deniz Undav",
      "player_id": 244176,
      "position": "ST",
      "rarity": "rare",
      "version": "gold",
      "rating": 77,
      "count": 4
    },
    {
      "name": "Nicolò Casale",
      "player_id": 239770,
      "position": "CB",
      "rarity": "non-rare",
      "version": "gold",
      "rating": 76,
      "count": 4
    },
    {
      "name": "Gabriel Martinelli",
      "player_id": 251566,
      "position": "LM",
      "rarity": "rare",
      "version": "gold",
      "rating": 78,
      "count": 4
    },
    {
      "name": "Vladimír Darida",
      "player_id": 201262,
      "position": "CM",
      "rarity": "non-rare",
      "version": "gold",
      "rating": 75,
      "count": 4
    },
    {
      "name": "Anthony Gordon",
      "player_id": 242964,
      "position": "LM",
      "rarity": "non-rare",
      "version": "gold",
      "rating": 75,
      "count": 4
    },
    {
      "name": "Jean-David Beauguel",
      "player_id": 216793,
      "position": "ST",
      "rarity": "rare",
      "version": "gold",
      "rating": 77,
      "count": 4
    },
    {
      "name": "Kenneth Taylor",
      "player_id": 255009,
      "position": "CM",
      "rarity": "non-rare",
      "version": "silver",
      "rating": 73,
      "count": 3
    },
    {
      "name": "Pietro Terracciano",
      "player_id": 205812,
      "position": "GK",
      "rarity": "non-rare",
      "version": "gold",
      "rating": 76,
      "count": 3
    },
    {
      "name": "Germán Pezzella",
      "player_id": 193601,
      "position": "CB",
      "rarity": "rare",
      "version": "gold",
      "rating": 77,
      "count": 3
    },
    {
      "name": "Lucas Pérez Martínez",
      "player_id": 199354,
      "position": "ST",
      "rarity": "rare",
      "version": "gold",
      "rating": 78,
      "count": 3
    },
    {
      "name": "Ko Itakura",
      "player_id": 233152,
      "position": "CB",
      "rarity": "rare",
      "version": "gold",
      "rating": 75,
      "count": 3
    },
    {
      "name": "Angelo Fulgini",
      "player_id": 226789,
      "position": "CM → CAM",
      "rarity": "rare",
      "version": "gold",
      "rating": 77,
      "count": 3
    },
    {
      "name": "Yannick Gerhardt",
      "player_id": 212245,
      "position": "CM",
      "rarity": "non-rare",
      "version": "gold",
      "rating": 76,
      "count": 3
    },
    {
      "name": "Warmed Omari",
      "player_id": 256854,
      "position": "CB",
      "rarity": "non-rare",
      "version": "gold",
      "rating": 75,
      "count": 3
    },
    {
      "name": "Hugo Duro Perales",
      "player_id": 243032,
      "position": "ST",
      "rarity": "rare",
      "version": "gold",
      "rating": 77,
      "count": 3
    },
    {
      "name": "Dani Ceballos",
      "player_id": 222509,
      "position": "CM",
      "rarity": "rare",
      "version": "gold",
      "rating": 77,
      "count": 3
    },
    {
      "name": "Talles Magno",
      "player_id": 253755,
      "position": "LM",
      "rarity": "rare",
      "version": "silver",
      "rating": 71,
      "count": 3
    },
    {
      "name": "Darío Benedetto",
      "player_id": 215061,
      "position": "ST",
      "rarity": "rare",
      "version": "gold",
      "rating": 77,
      "count": 2
    },
    {
      "name": "Nicola Sansone",
      "player_id": 201858,
      "position": "CAM",
      "rarity": "rare",
      "version": "gold",
      "rating": 75,
      "count": 2
    },
    {
      "name": "Ritsu Doan",
      "player_id": 232639,
      "position": "RM",
      "rarity": "rare",
      "version": "gold",
      "rating": 77,
      "count": 2
    },
    {
      "name": "James Tarkowski",
      "player_id": 202695,
      "position": "CB",
      "rarity": "rare",
      "version": "gold",
      "rating": 79,
      "count": 2
    },
    {
      "name": "Lucas Martínez Quarta",
      "player_id": 228708,
      "position": "CB",
      "rarity": "non-rare",
      "version": "gold",
      "rating": 76,
      "count": 2
    },
    {
      "name": "Marc-Oliver Kempf",
      "player_id": 210719,
      "position": "CB",
      "rarity": "non-rare",
      "version": "gold",
      "rating": 75,
      "count": 2
    },
    {
      "name": "Danny Ings",
      "player_id": 195859,
      "position": "ST",
      "rarity": "rare",
      "version": "gold",
      "rating": 79,
      "count": 2
    },
    {
      "name": "Adrien Thomasson",
      "player_id": 208787,
      "position": "CM",
      "rarity": "rare",
      "version": "gold",
      "rating": 77,
      "count": 2
    },
    {
      "name": "Daniel James",
      "player_id": 232104,
      "position": "RM",
      "rarity": "rare",
      "version": "gold",
      "rating": 77,
      "count": 2
    },
    {
      "name": "Lucas Boyé",
      "player_id": 222041,
      "position": "ST",
      "rarity": "rare",
      "version": "gold",
      "rating": 77,
      "count": 2
    },
    {
      "name": "Rob Holding",
      "player_id": 228295,
      "position": "CB",
      "rarity": "rare",
      "version": "gold",
      "rating": 77,
      "count": 2
    },
    {
      "name": "Sergio Romero",
      "player_id": 173373,
      "position": "GK",
      "rarity": "rare",
      "version": "gold",
      "rating": 78,
      "count": 2
    },
    {
      "name": "Castello Lukeba",
      "player_id": 262138,
      "position": "CB",
      "rarity": "non-rare",
      "version": "gold",
      "rating": 76,
      "count": 2
    },
    {
      "name": "Florent Mollet",
      "player_id": 209288,
      "position": "RM",
      "rarity": "non-rare",
      "version": "gold",
      "rating": 76,
      "count": 2
    },
    {
      "name": "Illan Meslier",
      "player_id": 242656,
      "position": "GK",
      "rarity": "rare",
      "version": "gold",
      "rating": 77,
      "count": 2
    },
    {
      "name": "Lucas Alario",
      "player_id": 215353,
      "position": "ST",
      "rarity": "rare",
      "version": "gold",
      "rating": 78,
      "count": 2
    },
    {
      "name": "Alex Bangura",
      "player_id": 262255,
      "position": "LB",
      "rarity": "rare",
      "version": "silver",
      "rating": 69,
      "count": 2
    },
    {
      "name": "Unai Vencedor Paris",
      "player_id": 247328,
      "position": "CM",
      "rarity": "rare",
      "version": "gold",
      "rating": 77,
      "count": 2
    },
    {
      "name": "Jonas Wind",
      "player_id": 241522,
      "position": "ST",
      "rarity": "non-rare",
      "version": "gold",
      "rating": 76,
      "count": 1
    },
    {
      "name": "Alexander Schwolow",
      "player_id": 202789,
      "position": "GK",
      "rarity": "non-rare",
      "version": "gold",
      "rating": 75,
      "count": 1
    },
    {
      "name": "Tiago B. de Melo Tomás",
      "player_id": 257073,
      "position": "ST",
      "rarity": "non-rare",
      "version": "gold",
      "rating": 75,
      "count": 1
    },
    {
      "name": "Ademola Lookman",
      "player_id": 230899,
      "position": "LM",
      "rarity": "rare",
      "version": "gold",
      "rating": 77,
      "count": 1
    },
    {
      "name": "Saša Lukić",
      "player_id": 236699,
      "position": "CM",
      "rarity": "rare",
      "version": "gold",
      "rating": 77,
      "count": 1
    },
    {
      "name": "José Fonte",
      "player_id": 171791,
      "position": "CB",
      "rarity": "rare",
      "version": "gold",
      "rating": 80,
      "count": 1
    },
    {
      "name": "Aiden McGeady",
      "player_id": 155885,
      "position": "LM",
      "rarity": "rare",
      "version": "silver",
      "rating": 67,
      "count": 1
    },
    {
      "name": "Alfred Gomis",
      "player_id": 201976,
      "position": "GK",
      "rarity": "rare",
      "version": "gold",
      "rating": 77,
      "count": 1
    },
    {
      "name": "Bartol Franjic",
      "player_id": 254928,
      "position": "CDM",
      "rarity": "non-rare",
      "version": "silver",
      "rating": 71,
      "count": 1
    },
    {
      "name": "Nicolas Seiwald",
      "player_id": 257876,
      "position": "CM",
      "rarity": "non-rare",
      "version": "gold",
      "rating": 75,
      "count": 1
    },
    {
      "name": "Randal Kolo Muani",
      "player_id": 237679,
      "position": "ST",
      "rarity": "rare",
      "version": "gold",
      "rating": 78,
      "count": 1
    },
    {
      "name": "Lorenzo De Silvestri",
      "player_id": 170320,
      "position": "RWB",
      "rarity": "non-rare",
      "version": "gold",
      "rating": 76,
      "count": 1
    },
    {
      "name": "Jordy Clasie",
      "player_id": 199422,
      "position": "CM",
      "rarity": "non-rare",
      "version": "gold",
      "rating": 75,
      "count": 1
    },
    {
      "name": "Kasper Dolberg",
      "player_id": 228687,
      "position": "ST",
      "rarity": "rare",
      "version": "gold",
      "rating": 77,
      "count": 1
    },
    {
      "name": "Nathan Aké",
      "player_id": 208920,
      "position": "CB",
      "rarity": "rare",
      "version": "gold",
      "rating": 78,
      "count": 1
    },
    {
      "name": "Fábio Vieira",
      "player_id": 256958,
      "position": "CAM",
      "rarity": "rare",
      "version": "gold",
      "rating": 77,
      "count": 1
    },
    {
      "name": "Alex Oxlade-Chamberlain",
      "player_id": 198784,
      "position": "CM",
      "rarity": "rare",
      "version": "gold",
      "rating": 77,
      "count": 1
    },
    {
      "name": "Franck Honorat",
      "player_id": 220876,
      "position": "LM",
      "rarity": "rare",
      "version": "gold",
      "rating": 77,
      "count": 1
    },
    {
      "name": "Mattias Svanberg",
      "player_id": 228946,
      "position": "CM",
      "rarity": "non-rare",
      "version": "gold",
      "rating": 76,
      "count": 1
    },
    {
      "name": "Connor Ronan",
      "player_id": 228408,
      "position": "CM",
      "rarity": "non-rare",
      "version": "silver",
      "rating": 67,
      "count": 1
    },
    {
      "name": "Darko Lazović",
      "player_id": 212127,
      "position": "LM",
      "rarity": "rare",
      "version": "gold",
      "rating": 77,
      "count": 1
    },
    {
      "name": "Andrei Girotto",
      "player_id": 226515,
      "position": "CB",
      "rarity": "rare",
      "version": "gold",
      "rating": 78,
      "count": 1
    },
    {
      "name": "Habib Diallo",
      "player_id": 225293,
      "position": "ST",
      "rarity": "rare",
      "version": "gold",
      "rating": 77,
      "count": 1
    },
    {
      "name": "Josip Šutalo",
      "player_id": 256325,
      "position": "CB",
      "rarity": "non-rare",
      "version": "gold",
      "rating": 75,
      "count": 1
    },
    {
      "name": "Karim Rekik",
      "player_id": 205193,
      "position": "CB",
      "rarity": "rare",
      "version": "gold",
      "rating": 77,
      "count": 1
    },
    {
      "name": "Luis Miguel Rodríguez",
      "player_id": 192906,
      "position": "ST → CAM",
      "rarity": "rare",
      "version": "gold",
      "rating": 77,
      "count": 1
    },
    {
      "name": "Adrien Thomasson",
      "player_id": 208787,
      "position": "CM → CAM",
      "rarity": "rare",
      "version": "gold",
      "rating": 77,
      "count": 1
    },
    {
      "name": "Saša Kalajdžić",
      "player_id": 239901,
      "position": "ST",
      "rarity": "rare",
      "version": "gold",
      "rating": 78,
      "count": 1
    },
    {
      "name": "Igor",
      "player_id": 241585,
      "position": "CB",
      "rarity": "non-rare",
      "version": "gold",
      "rating": 76,
      "count": 1
    },
    {
      "name": "Bruno Martins Indi",
      "player_id": 199550,
      "position": "CB",
      "rarity": "non-rare",
      "version": "gold",
      "rating": 75,
      "count": 1
    },
    {
      "name": "Yerry Mina",
      "player_id": 220523,
      "position": "CB",
      "rarity": "rare",
      "version": "gold",
      "rating": 77,
      "count": 1
    },
    {
      "name": "Demarai Gray",
      "player_id": 220633,
      "position": "LM → CAM",
      "rarity": "rare",
      "version": "gold",
      "rating": 77,
      "count": 1
    },
    {
      "name": "Gelson Martins",
      "player_id": 227055,
      "position": "RM",
      "rarity": "rare",
      "version": "gold",
      "rating": 77,
      "count": 1
    },
    {
      "name": "Alexander Djiku",
      "player_id": 212219,
      "position": "CB",
      "rarity": "rare",
      "version": "gold",
      "rating": 77,
      "count": 1
    },
    {
      "name": "Alex Král",
      "player_id": 247028,
      "position": "CDM",
      "rarity": "non-rare",
      "version": "gold",
      "rating": 75,
      "count": 1
    },
    {
      "name": "Víctor Machín Pérez",
      "player_id": 199715,
      "position": "LM → ST",
      "rarity": "rare",
      "version": "gold",
      "rating": 77,
      "count": 1
    },
    {
      "name": "Gerson Santos da Silva",
      "player_id": 229927,
      "position": "CM",
      "rarity": "rare",
      "version": "gold",
      "rating": 78,
      "count": 1
    },
    {
      "name": "Abdou Diallo",
      "player_id": 225711,
      "position": "CB",
      "rarity": "rare",
      "version": "gold",
      "rating": 77,
      "count": 1
    },
    {
      "name": "Óscar Trejo",
      "player_id": 173030,
      "position": "CAM",
      "rarity": "rare",
      "version": "gold",
      "rating": 79,
      "count": 1
    },
    {
      "name": "Gaetano Castrovilli",
      "player_id": 225014,
      "position": "CM",
      "rarity": "rare",
      "version": "gold",
      "rating": 77,
      "count": 1
    },
    {
      "name": "Arthur Mendonça Cabral",
      "player_id": 246186,
      "position": "ST",
      "rarity": "rare",
      "version": "gold",
      "rating": 77,
      "count": 1
    },
    {
      "name": "Yerson Mosquera",
      "player_id": 256666,
      "position": "CB",
      "rarity": "non-rare",
      "version": "bronze",
      "rating": 64,
      "count": 1
    },
    {
      "name": "Maxime Lopez",
      "player_id": 224030,
      "position": "CM",
      "rarity": "rare",
      "version": "gold",
      "rating": 78,
      "count": 1
    },
    {
      "name": "Rafał Gikiewicz",
      "player_id": 194333,
      "position": "GK",
      "rarity": "rare",
      "version": "gold",
      "rating": 77,
      "count": 1
    },
    {
      "name": "Fábio Vieira",
      "player_id": 256958,
      "position": "CAM → RM",
      "rarity": "rare",
      "version": "gold",
      "rating": 77,
      "count": 1
    },
    {
      "name": "Francis Coquelin",
      "player_id": 189271,
      "position": "CM",
      "rarity": "rare",
      "version": "gold",
      "rating": 80,
      "count": 1
    },
    {
      "name": "Arthur",
      "player_id": 230658,
      "position": "CM",
      "rarity": "rare",
      "version": "gold",
      "rating": 80,
      "count": 1
    },
    {
      "name": "Vítor Machado Ferreira",
      "player_id": 255253,
      "position": "CM",
      "rarity": "rare",
      "version": "gold",
      "rating": 79,
      "count": 1
    },
    {
      "name": "Jiří Pavlenka",
      "player_id": 236583,
      "position": "GK",
      "rarity": "rare",
      "version": "gold",
      "rating": 78,
      "count": 1
    },
    {
      "name": "Douglas Luiz",
      "player_id": 236499,
      "position": "CDM → CM",
      "rarity": "rare",
      "version": "gold",
      "rating": 78,
      "count": 1
    },
    {
      "name": "Valentin Castellanos",
      "player_id": 237712,
      "position": "ST",
      "rarity": "rare",
      "version": "gold",
      "rating": 77,
      "count": 1
    }
  ]
}