{
  "write_ts": "2022-09-20T22:39:17.847Z",
  "players": [
    {
      "name": "Pedro Chirivella Burgos",
      "player_id": 224019,
      "position": "CDM",
      "rarity": "rare",
      "version": "gold",
      "rating": 77,
      "count": 19
    },
    {
      "name": "Mario Gaspar",
      "player_id": 192789,
      "position": "RB",
      "rarity": "rare",
      "version": "gold",
      "rating": 78,
      "count": 19
    },
    {
      "name": "Marc Bartra Aregall",
      "player_id": 198141,
      "position": "CB",
      "rarity": "rare",
      "version": "gold",
      "rating": 81,
      "count": 19
    },
    {
      "name": "Gerard Deulofeu Lázaro",
      "player_id": 202477,
      "position": "CF → ST",
      "rarity": "rare",
      "version": "gold",
      "rating": 80,
      "count": 17
    },
    {
      "name": "Lucas Alario",
      "player_id": 215353,
      "position": "ST",
      "rarity": "rare",
      "version": "gold",
      "rating": 78,
      "count": 13
    },
    {
      "name": "Nicolás Otamendi",
      "player_id": 192366,
      "position": "CB",
      "rarity": "rare",
      "version": "gold",
      "rating": 81,
      "count": 13
    },
    {
      "name": "Juan Foyth",
      "player_id": 237221,
      "position": "RB",
      "rarity": "rare",
      "version": "gold",
      "rating": 79,
      "count": 11
    },
    {
      "name": "Luiz Araújo",
      "player_id": 234128,
      "position": "RM",
      "rarity": "rare",
      "version": "gold",
      "rating": 78,
      "count": 10
    },
    {
      "name": "Franco Cervi",
      "player_id": 223061,
      "position": "LM",
      "rarity": "rare",
      "version": "gold",
      "rating": 78,
      "count": 9
    },
    {
      "name": "Walter Benítez",
      "player_id": 215223,
      "position": "GK",
      "rarity": "rare",
      "version": "gold",
      "rating": 80,
      "count": 9
    },
    {
      "name": "Leandro Paredes",
      "player_id": 207439,
      "position": "CDM",
      "rarity": "rare",
      "version": "gold",
      "rating": 80,
      "count": 9
    },
    {
      "name": "Darío Benedetto",
      "player_id": 215061,
      "position": "ST",
      "rarity": "rare",
      "version": "gold",
      "rating": 77,
      "count": 9
    },
    {
      "name": "Pedro Porro",
      "player_id": 243576,
      "position": "RWB → RM",
      "rarity": "rare",
      "version": "gold",
      "rating": 81,
      "count": 9
    },
    {
      "name": "Exequiel Palacios",
      "player_id": 231521,
      "position": "CDM",
      "rarity": "rare",
      "version": "gold",
      "rating": 78,
      "count": 9
    },
    {
      "name": "David López Silva",
      "player_id": 201505,
      "position": "CDM",
      "rarity": "rare",
      "version": "gold",
      "rating": 77,
      "count": 8
    },
    {
      "name": "Fernando Lucas Martins",
      "player_id": 202642,
      "position": "CDM",
      "rarity": "rare",
      "version": "gold",
      "rating": 78,
      "count": 8
    },
    {
      "name": "Norberto Murara Neto",
      "player_id": 194404,
      "position": "GK",
      "rarity": "rare",
      "version": "gold",
      "rating": 81,
      "count": 8
    },
    {
      "name": "Ibrahim Sangaré",
      "player_id": 235173,
      "position": "CDM",
      "rarity": "rare",
      "version": "gold",
      "rating": 81,
      "count": 8
    },
    {
      "name": "Emiliano Rigoni",
      "player_id": 215259,
      "position": "RM",
      "rarity": "rare",
      "version": "gold",
      "rating": 78,
      "count": 8
    },
    {
      "name": "Emiliano Rigoni",
      "player_id": 215259,
      "position": "RM → LM",
      "rarity": "rare",
      "version": "gold",
      "rating": 78,
      "count": 8
    },
    {
      "name": "Lisandro Martínez",
      "player_id": 239301,
      "position": "CB",
      "rarity": "rare",
      "version": "gold",
      "rating": 81,
      "count": 8
    },
    {
      "name": "Azpilicueta",
      "player_id": 184432,
      "position": "CB",
      "rarity": "rare",
      "version": "gold",
      "rating": 82,
      "count": 8
    },
    {
      "name": "De Frutos",
      "player_id": 243559,
      "position": "RM",
      "rarity": "rare",
      "version": "gold",
      "rating": 77,
      "count": 8
    },
    {
      "name": "Nicolás Tagliafico",
      "player_id": 211256,
      "position": "LB",
      "rarity": "rare",
      "version": "gold",
      "rating": 81,
      "count": 7
    },
    {
      "name": "Kepa Arrizabalaga",
      "player_id": 206585,
      "position": "GK",
      "rarity": "rare",
      "version": "gold",
      "rating": 80,
      "count": 7
    },
    {
      "name": "Emiliano Buendía",
      "player_id": 226162,
      "position": "RM",
      "rarity": "rare",
      "version": "gold",
      "rating": 80,
      "count": 7
    },
    {
      "name": "Richarlison de Andrade",
      "player_id": 231943,
      "position": "ST",
      "rarity": "rare",
      "version": "gold",
      "rating": 81,
      "count": 7
    },
    {
      "name": "Éver Banega",
      "player_id": 178562,
      "position": "CM → CDM",
      "rarity": "rare",
      "version": "gold",
      "rating": 81,
      "count": 7
    },
    {
      "name": "Rodrygo Silva de Goes",
      "player_id": 243812,
      "position": "RW",
      "rarity": "rare",
      "version": "gold",
      "rating": 81,
      "count": 7
    },
    {
      "name": "Antonio Adán Garrido",
      "player_id": 178086,
      "position": "GK",
      "rarity": "rare",
      "version": "gold",
      "rating": 81,
      "count": 6
    },
    {
      "name": "Bruno Viana",
      "player_id": 234226,
      "position": "CB",
      "rarity": "rare",
      "version": "gold",
      "rating": 77,
      "count": 6
    },
    {
      "name": "Gilberto Moraes Júnior",
      "player_id": 211567,
      "position": "RB",
      "rarity": "rare",
      "version": "gold",
      "rating": 78,
      "count": 5
    },
    {
      "name": "Danilo Luiz da Silva",
      "player_id": 199304,
      "position": "RB",
      "rarity": "rare",
      "version": "gold",
      "rating": 80,
      "count": 5
    },
    {
      "name": "Milton Casco",
      "player_id": 215071,
      "position": "LB → RB",
      "rarity": "rare",
      "version": "gold",
      "rating": 77,
      "count": 5
    },
    {
      "name": "Ángel Montoro Sánchez",
      "player_id": 186682,
      "position": "CDM",
      "rarity": "rare",
      "version": "gold",
      "rating": 77,
      "count": 5
    },
    {
      "name": "Grimaldo",
      "player_id": 210035,
      "position": "LB",
      "rarity": "rare",
      "version": "gold",
      "rating": 82,
      "count": 5
    },
    {
      "name": "Andrei Girotto",
      "player_id": 226515,
      "position": "CB",
      "rarity": "rare",
      "version": "gold",
      "rating": 78,
      "count": 5
    },
    {
      "name": "Anderson Talisca",
      "player_id": 212523,
      "position": "CF → ST",
      "rarity": "rare",
      "version": "gold",
      "rating": 82,
      "count": 4
    },
    {
      "name": "Raúl García Escudero",
      "player_id": 171579,
      "position": "ST",
      "rarity": "rare",
      "version": "gold",
      "rating": 80,
      "count": 4
    },
    {
      "name": "Carlos Izquierdoz",
      "player_id": 214766,
      "position": "CB",
      "rarity": "rare",
      "version": "gold",
      "rating": 77,
      "count": 4
    },
    {
      "name": "Juan Bernat Velasco",
      "player_id": 205069,
      "position": "LB",
      "rarity": "rare",
      "version": "gold",
      "rating": 78,
      "count": 4
    },
    {
      "name": "Arthur Mendonça Cabral",
      "player_id": 246186,
      "position": "ST",
      "rarity": "rare",
      "version": "gold",
      "rating": 77,
      "count": 4
    },
    {
      "name": "Pepê",
      "player_id": 238896,
      "position": "LM",
      "rarity": "rare",
      "version": "gold",
      "rating": 77,
      "count": 4
    },
    {
      "name": "Víctor Machín Pérez",
      "player_id": 199715,
      "position": "LM → ST",
      "rarity": "rare",
      "version": "gold",
      "rating": 77,
      "count": 4
    },
    {
      "name": "Juan Musso",
      "player_id": 214979,
      "position": "GK",
      "rarity": "rare",
      "version": "gold",
      "rating": 81,
      "count": 4
    },
    {
      "name": "Taremi",
      "player_id": 241788,
      "position": "ST",
      "rarity": "rare",
      "version": "gold",
      "rating": 81,
      "count": 4
    },
    {
      "name": "Iago Amaral Borduchi",
      "player_id": 251182,
      "position": "LWB → LM",
      "rarity": "rare",
      "version": "gold",
      "rating": 77,
      "count": 4
    },
    {
      "name": "Jorge Molina Vidal",
      "player_id": 154472,
      "position": "ST",
      "rarity": "rare",
      "version": "gold",
      "rating": 78,
      "count": 4
    },
    {
      "name": "Toby Alderweireld",
      "player_id": 184087,
      "position": "CB",
      "rarity": "rare",
      "version": "gold",
      "rating": 82,
      "count": 4
    },
    {
      "name": "Lisandro Martínez",
      "player_id": 239301,
      "position": "CB → LB",
      "rarity": "rare",
      "version": "gold",
      "rating": 81,
      "count": 3
    },
    {
      "name": "Robin Le Normand",
      "player_id": 233486,
      "position": "CB",
      "rarity": "rare",
      "version": "gold",
      "rating": 81,
      "count": 3
    },
    {
      "name": "Sergio Romero",
      "player_id": 173373,
      "position": "GK",
      "rarity": "rare",
      "version": "gold",
      "rating": 78,
      "count": 3
    },
    {
      "name": "Olivier Boscagli",
      "player_id": 225863,
      "position": "CB",
      "rarity": "rare",
      "version": "gold",
      "rating": 77,
      "count": 3
    },
    {
      "name": "Nacho Fernández",
      "player_id": 200724,
      "position": "CB",
      "rarity": "rare",
      "version": "gold",
      "rating": 82,
      "count": 3
    },
    {
      "name": "Kasper Schmeichel",
      "player_id": 163587,
      "position": "GK",
      "rarity": "rare",
      "version": "gold",
      "rating": 83,
      "count": 3
    },
    {
      "name": "Robert Lynch Sanchéz",
      "player_id": 228789,
      "position": "GK",
      "rarity": "rare",
      "version": "gold",
      "rating": 77,
      "count": 3
    },
    {
      "name": "Víctor Machín Pérez",
      "player_id": 199715,
      "position": "LM",
      "rarity": "rare",
      "version": "gold",
      "rating": 77,
      "count": 3
    },
    {
      "name": "Guerreiro",
      "player_id": 209889,
      "position": "LB",
      "rarity": "rare",
      "version": "gold",
      "rating": 82,
      "count": 3
    },
    {
      "name": "Ismaily",
      "player_id": 201119,
      "position": "LB",
      "rarity": "rare",
      "version": "gold",
      "rating": 79,
      "count": 3
    },
    {
      "name": "Iago Amaral Borduchi",
      "player_id": 251182,
      "position": "LWB → LB",
      "rarity": "rare",
      "version": "gold",
      "rating": 77,
      "count": 3
    },
    {
      "name": "Valentin Rosier",
      "player_id": 234730,
      "position": "RB",
      "rarity": "rare",
      "version": "gold",
      "rating": 77,
      "count": 3
    },
    {
      "name": "Jean Butez",
      "player_id": 225149,
      "position": "GK",
      "rarity": "rare",
      "version": "gold",
      "rating": 77,
      "count": 3
    },
    {
      "name": "Jean-David Beauguel",
      "player_id": 216793,
      "position": "ST",
      "rarity": "rare",
      "version": "gold",
      "rating": 77,
      "count": 3
    },
    {
      "name": "Allan Saint-Maximin",
      "player_id": 216388,
      "position": "LM",
      "rarity": "rare",
      "version": "gold",
      "rating": 81,
      "count": 3
    },
    {
      "name": "Oriol Romeu Vidal",
      "player_id": 199576,
      "position": "CDM",
      "rarity": "rare",
      "version": "gold",
      "rating": 78,
      "count": 3
    },
    {
      "name": "Davidson da Luz Pereira",
      "player_id": 237135,
      "position": "LM",
      "rarity": "rare",
      "version": "gold",
      "rating": 77,
      "count": 2
    },
    {
      "name": "Arthur",
      "player_id": 230658,
      "position": "CM → CDM",
      "rarity": "rare",
      "version": "gold",
      "rating": 80,
      "count": 2
    },
    {
      "name": "Randal Kolo Muani",
      "player_id": 237679,
      "position": "ST → RM",
      "rarity": "rare",
      "version": "gold",
      "rating": 78,
      "count": 2
    },
    {
      "name": "Boubacar Kamara",
      "player_id": 236987,
      "position": "CDM",
      "rarity": "rare",
      "version": "gold",
      "rating": 80,
      "count": 2
    },
    {
      "name": "Giovanni Simeone",
      "player_id": 216816,
      "position": "ST",
      "rarity": "rare",
      "version": "gold",
      "rating": 78,
      "count": 2
    },
    {
      "name": "Olivier Giroud",
      "player_id": 178509,
      "position": "ST",
      "rarity": "rare",
      "version": "gold",
      "rating": 82,
      "count": 2
    },
    {
      "name": "Lisandro Martínez",
      "player_id": 239301,
      "position": "CB → CDM",
      "rarity": "rare",
      "version": "gold",
      "rating": 81,
      "count": 2
    },
    {
      "name": "Marcos Rojo",
      "player_id": 201862,
      "position": "CB",
      "rarity": "rare",
      "version": "gold",
      "rating": 78,
      "count": 2
    },
    {
      "name": "Hugo Duro Perales",
      "player_id": 243032,
      "position": "ST",
      "rarity": "rare",
      "version": "gold",
      "rating": 77,
      "count": 2
    },
    {
      "name": "Jeremie Frimpong",
      "player_id": 253149,
      "position": "RB",
      "rarity": "rare",
      "version": "gold",
      "rating": 80,
      "count": 2
    },
    {
      "name": "Noa Lang",
      "player_id": 239380,
      "position": "LW → ST",
      "rarity": "rare",
      "version": "gold",
      "rating": 78,
      "count": 2
    },
    {
      "name": "Bruno Guimarães Moura",
      "player_id": 247851,
      "position": "CM → CDM",
      "rarity": "rare",
      "version": "gold",
      "rating": 81,
      "count": 2
    },
    {
      "name": "Mario Hermoso Canseco",
      "player_id": 229668,
      "position": "CB",
      "rarity": "rare",
      "version": "gold",
      "rating": 80,
      "count": 2
    },
    {
      "name": "Pablo Rosario",
      "player_id": 235134,
      "position": "CDM",
      "rarity": "rare",
      "version": "gold",
      "rating": 78,
      "count": 2
    },
    {
      "name": "Pedro Rodríguez Ledesma",
      "player_id": 189505,
      "position": "LW → LM",
      "rarity": "rare",
      "version": "gold",
      "rating": 79,
      "count": 2
    },
    {
      "name": "Marten de Roon",
      "player_id": 208461,
      "position": "CDM",
      "rarity": "rare",
      "version": "gold",
      "rating": 80,
      "count": 2
    },
    {
      "name": "Matheus Cunha",
      "player_id": 240243,
      "position": "ST",
      "rarity": "rare",
      "version": "gold",
      "rating": 81,
      "count": 2
    },
    {
      "name": "Germán",
      "player_id": 198230,
      "position": "CB",
      "rarity": "rare",
      "version": "gold",
      "rating": 77,
      "count": 2
    },
    {
      "name": "Matheus Lima Magalhães",
      "player_id": 208104,
      "position": "GK",
      "rarity": "rare",
      "version": "gold",
      "rating": 79,
      "count": 2
    },
    {
      "name": "Lukáš Hrádecký",
      "player_id": 190941,
      "position": "GK",
      "rarity": "rare",
      "version": "gold",
      "rating": 83,
      "count": 2
    },
    {
      "name": "Lucas Martínez Quarta",
      "player_id": 228708,
      "position": "CB",
      "rarity": "non-rare",
      "version": "gold",
      "rating": 76,
      "count": 2
    },
    {
      "name": "Borja Iglesias Quintas",
      "player_id": 224179,
      "position": "ST",
      "rarity": "rare",
      "version": "gold",
      "rating": 81,
      "count": 2
    },
    {
      "name": "Seko Fofana",
      "player_id": 216320,
      "position": "CM",
      "rarity": "rare",
      "version": "gold",
      "rating": 81,
      "count": 2
    },
    {
      "name": "Zubimendi",
      "player_id": 248148,
      "position": "CM → CDM",
      "rarity": "rare",
      "version": "gold",
      "rating": 79,
      "count": 2
    },
    {
      "name": "Pablo Fornals Malla",
      "player_id": 226456,
      "position": "CAM → LM",
      "rarity": "rare",
      "version": "gold",
      "rating": 79,
      "count": 2
    },
    {
      "name": "Igor",
      "player_id": 241585,
      "position": "CB",
      "rarity": "non-rare",
      "version": "gold",
      "rating": 76,
      "count": 2
    },
    {
      "name": "Denzel Dumfries",
      "player_id": 233096,
      "position": "RWB → RM",
      "rarity": "rare",
      "version": "gold",
      "rating": 82,
      "count": 2
    },
    {
      "name": "Jeremiah St. Juste",
      "player_id": 226853,
      "position": "CB",
      "rarity": "rare",
      "version": "gold",
      "rating": 76,
      "count": 2
    },
    {
      "name": "Wout Weghorst",
      "player_id": 223689,
      "position": "ST",
      "rarity": "rare",
      "version": "gold",
      "rating": 79,
      "count": 2
    },
    {
      "name": "Jasper Cillessen",
      "player_id": 199987,
      "position": "GK",
      "rarity": "rare",
      "version": "gold",
      "rating": 80,
      "count": 2
    },
    {
      "name": "Lucas Pérez Martínez",
      "player_id": 199354,
      "position": "ST",
      "rarity": "rare",
      "version": "gold",
      "rating": 78,
      "count": 2
    },
    {
      "name": "Marc Cucurella Saseta",
      "player_id": 239231,
      "position": "LB",
      "rarity": "rare",
      "version": "gold",
      "rating": 81,
      "count": 2
    },
    {
      "name": "Antoine Griezmann",
      "player_id": 194765,
      "position": "ST",
      "rarity": "rare",
      "version": "gold",
      "rating": 83,
      "count": 2
    },
    {
      "name": "Enzo Pérez",
      "player_id": 196432,
      "position": "CDM",
      "rarity": "rare",
      "version": "gold",
      "rating": 78,
      "count": 2
    },
    {
      "name": "Gerrit Holtmann",
      "player_id": 228614,
      "position": "LW",
      "rarity": "rare",
      "version": "silver",
      "rating": 74,
      "count": 2
    },
    {
      "name": "Pau López Sabata",
      "player_id": 221087,
      "position": "GK",
      "rarity": "rare",
      "version": "gold",
      "rating": 79,
      "count": 2
    },
    {
      "name": "Marcão",
      "player_id": 234426,
      "position": "CB",
      "rarity": "rare",
      "version": "gold",
      "rating": 79,
      "count": 1
    },
    {
      "name": "Mattéo Guendouzi",
      "player_id": 236496,
      "position": "CM",
      "rarity": "rare",
      "version": "gold",
      "rating": 80,
      "count": 1
    },
    {
      "name": "Felipe",
      "player_id": 207863,
      "position": "CB",
      "rarity": "rare",
      "version": "gold",
      "rating": 81,
      "count": 1
    },
    {
      "name": "Brais Méndez Portela",
      "player_id": 235944,
      "position": "RM",
      "rarity": "rare",
      "version": "gold",
      "rating": 77,
      "count": 1
    },
    {
      "name": "Aitor Fernández",
      "player_id": 193314,
      "position": "GK",
      "rarity": "rare",
      "version": "gold",
      "rating": 77,
      "count": 1
    },
    {
      "name": "Matteo Politano",
      "player_id": 216409,
      "position": "RW",
      "rarity": "rare",
      "version": "gold",
      "rating": 81,
      "count": 1
    },
    {
      "name": "Fernando Reges",
      "player_id": 184134,
      "position": "CDM",
      "rarity": "rare",
      "version": "gold",
      "rating": 83,
      "count": 1
    },
    {
      "name": "Willian Arao",
      "player_id": 207884,
      "position": "CDM",
      "rarity": "rare",
      "version": "gold",
      "rating": 77,
      "count": 1
    },
    {
      "name": "Gabriel Armando de Abreu",
      "player_id": 201305,
      "position": "CB",
      "rarity": "rare",
      "version": "gold",
      "rating": 82,
      "count": 1
    },
    {
      "name": "Christian Pulisic",
      "player_id": 227796,
      "position": "LW",
      "rarity": "rare",
      "version": "gold",
      "rating": 82,
      "count": 1
    },
    {
      "name": "Maxime Lopez",
      "player_id": 224030,
      "position": "CM → CDM",
      "rarity": "rare",
      "version": "gold",
      "rating": 78,
      "count": 1
    },
    {
      "name": "Lucas Digne",
      "player_id": 200458,
      "position": "LB",
      "rarity": "rare",
      "version": "gold",
      "rating": 82,
      "count": 1
    },
    {
      "name": "Josuha Guilavogui",
      "player_id": 198118,
      "position": "CDM",
      "rarity": "non-rare",
      "version": "gold",
      "rating": 75,
      "count": 1
    },
    {
      "name": "Unai Vencedor Paris",
      "player_id": 247328,
      "position": "CM → CDM",
      "rarity": "rare",
      "version": "gold",
      "rating": 77,
      "count": 1
    },
    {
      "name": "Ferrán Torres",
      "player_id": 241461,
      "position": "LW → ST",
      "rarity": "rare",
      "version": "gold",
      "rating": 82,
      "count": 1
    },
    {
      "name": "Davidson da Luz Pereira",
      "player_id": 237135,
      "position": "LM → ST",
      "rarity": "rare",
      "version": "gold",
      "rating": 77,
      "count": 1
    },
    {
      "name": "Lucas Silva Melo",
      "player_id": 247182,
      "position": "CB",
      "rarity": "rare",
      "version": "gold",
      "rating": 77,
      "count": 1
    },
    {
      "name": "Gerard Piqué Bernabeu",
      "player_id": 152729,
      "position": "CB",
      "rarity": "rare",
      "version": "gold",
      "rating": 83,
      "count": 1
    },
    {
      "name": "Mario Hermoso Canseco",
      "player_id": 229668,
      "position": "CB → LB",
      "rarity": "rare",
      "version": "gold",
      "rating": 80,
      "count": 1
    },
    {
      "name": "Bartol Franjic",
      "player_id": 254928,
      "position": "CDM",
      "rarity": "non-rare",
      "version": "silver",
      "rating": 71,
      "count": 1
    },
    {
      "name": "Raúl Albiol Tortajada",
      "player_id": 157481,
      "position": "CB",
      "rarity": "rare",
      "version": "gold",
      "rating": 82,
      "count": 1
    },
    {
      "name": "Rafał Gikiewicz",
      "player_id": 194333,
      "position": "GK",
      "rarity": "rare",
      "version": "gold",
      "rating": 77,
      "count": 1
    },
    {
      "name": "Pape Gueye",
      "player_id": 241707,
      "position": "CDM",
      "rarity": "non-rare",
      "version": "gold",
      "rating": 78,
      "count": 1
    },
    {
      "name": "Kevin Schade",
      "player_id": 260926,
      "position": "RM",
      "rarity": "rare",
      "version": "silver",
      "rating": 70,
      "count": 1
    },
    {
      "name": "Jordan Veretout",
      "player_id": 201519,
      "position": "CDM",
      "rarity": "rare",
      "version": "gold",
      "rating": 79,
      "count": 1
    },
    {
      "name": "Owen Wijndal",
      "player_id": 236572,
      "position": "LB",
      "rarity": "rare",
      "version": "gold",
      "rating": 79,
      "count": 1
    },
    {
      "name": "Nathan Aké",
      "player_id": 208920,
      "position": "CB",
      "rarity": "rare",
      "version": "gold",
      "rating": 78,
      "count": 1
    },
    {
      "name": "Tyrell Malacia",
      "player_id": 238041,
      "position": "LB",
      "rarity": "rare",
      "version": "gold",
      "rating": 79,
      "count": 1
    },
    {
      "name": "Bremer",
      "player_id": 239580,
      "position": "CB",
      "rarity": "rare",
      "version": "gold",
      "rating": 83,
      "count": 1
    },
    {
      "name": "Fran Navarro",
      "player_id": 247138,
      "position": "ST",
      "rarity": "non-rare",
      "version": "gold",
      "rating": 75,
      "count": 1
    },
    {
      "name": "Djibril Sow",
      "player_id": 229752,
      "position": "CM",
      "rarity": "rare",
      "version": "gold",
      "rating": 80,
      "count": 1
    },
    {
      "name": "Nahuel Molina",
      "player_id": 233084,
      "position": "RWB → RM",
      "rarity": "rare",
      "version": "gold",
      "rating": 78,
      "count": 1
    },
    {
      "name": "Alex Nicolao Telles",
      "player_id": 212462,
      "position": "LB",
      "rarity": "rare",
      "version": "gold",
      "rating": 80,
      "count": 1
    },
    {
      "name": "Víctor Ruiz Torre",
      "player_id": 193469,
      "position": "CB",
      "rarity": "rare",
      "version": "gold",
      "rating": 78,
      "count": 1
    },
    {
      "name": "Vallejo",
      "player_id": 225161,
      "position": "CB",
      "rarity": "non-rare",
      "version": "gold",
      "rating": 75,
      "count": 1
    },
    {
      "name": "Guido Rodríguez",
      "player_id": 225659,
      "position": "CDM",
      "rarity": "rare",
      "version": "gold",
      "rating": 81,
      "count": 1
    },
    {
      "name": "Jordan Ferri",
      "player_id": 206306,
      "position": "CDM",
      "rarity": "rare",
      "version": "gold",
      "rating": 77,
      "count": 1
    },
    {
      "name": "Aurélien Tchouaméni",
      "player_id": 241637,
      "position": "CM",
      "rarity": "rare",
      "version": "gold",
      "rating": 82,
      "count": 1
    },
    {
      "name": "Ferrán Torres",
      "player_id": 241461,
      "position": "LW",
      "rarity": "rare",
      "version": "gold",
      "rating": 82,
      "count": 1
    },
    {
      "name": "Rodrigo Moreno Machado",
      "player_id": 198329,
      "position": "CAM → ST",
      "rarity": "rare",
      "version": "gold",
      "rating": 77,
      "count": 1
    },
    {
      "name": "Daley Blind",
      "player_id": 190815,
      "position": "CB",
      "rarity": "rare",
      "version": "gold",
      "rating": 80,
      "count": 1
    },
    {
      "name": "Denzel Dumfries",
      "player_id": 233096,
      "position": "RWB",
      "rarity": "rare",
      "version": "gold",
      "rating": 82,
      "count": 1
    },
    {
      "name": "Portu",
      "player_id": 205070,
      "position": "RM",
      "rarity": "rare",
      "version": "gold",
      "rating": 78,
      "count": 1
    },
    {
      "name": "Alex Sandro Lobo Silva",
      "player_id": 191043,
      "position": "LB",
      "rarity": "rare",
      "version": "gold",
      "rating": 80,
      "count": 1
    },
    {
      "name": "Germán Pezzella",
      "player_id": 193601,
      "position": "CB",
      "rarity": "rare",
      "version": "gold",
      "rating": 77,
      "count": 1
    },
    {
      "name": "Unai Núñez Gestoso",
      "player_id": 240900,
      "position": "CB",
      "rarity": "rare",
      "version": "gold",
      "rating": 79,
      "count": 1
    },
    {
      "name": "Gabriel Jesus",
      "player_id": 230666,
      "position": "ST",
      "rarity": "rare",
      "version": "gold",
      "rating": 83,
      "count": 1
    },
    {
      "name": "Mauro Icardi",
      "player_id": 201399,
      "position": "ST",
      "rarity": "rare",
      "version": "gold",
      "rating": 77,
      "count": 1
    },
    {
      "name": "Ruslan Malinovskyi",
      "player_id": 231969,
      "position": "CF → ST",
      "rarity": "rare",
      "version": "gold",
      "rating": 82,
      "count": 1
    },
    {
      "name": "Caio Henrique",
      "player_id": 232440,
      "position": "LB",
      "rarity": "rare",
      "version": "gold",
      "rating": 78,
      "count": 1
    },
    {
      "name": "Paulo Otávio",
      "player_id": 208001,
      "position": "LB",
      "rarity": "non-rare",
      "version": "gold",
      "rating": 76,
      "count": 1
    }
  ]
}